0.071435
0.0771465
0.0771504
0.070543
0.0770574
0.0723617
0.0606719
0.062667
0.0727616
0.0664648
0.0672725
0.0749342
0.0747583
0.0669854
0.087056
0.0661776
0.0748156
0.0732816
0.0689506
0.0687105
0.0727825
0.0718941
0.0769809
0.0684171
0.0745558
0.0538629
0.0735695
0.0700878
0.0773013
0.0691734
0.0798722
0.0684113
0.0702568
0.0773742
0.0663042
0.0691132
0.0762712
0.077515
0.100053
0.0745936
0.083849
0.069664
0.0641434
0.0754249
0.074753
0.0671195
0.0804711
0.0911872
0.0865658
0.075133
0.0762571
0.0718567
0.0706642
0.0828777
0.0695537
0.0695127
0.0747572
0.072233
0.0924951
0.0611616
0.0618444
0.0613346
0.0674956
0.0692455
0.0772702
0.0682377
0.082346
0.0712833
0.0810725
0.080776
0.092155
0.0844373
0.0782464
0.0778443
0.0713977
0.0714755
0.0843754
0.0808749
0.0991742
0.0579082
0.0915017
0.0803538
0.0827138
0.0825517
0.0696964
0.0791138
0.0802378
0.0654592
0.0920757
0.0725664
0.0797101
0.0822456
0.0685501
0.0646239
0.078612
0.0761275
0.0792358
0.0818909
0.0931322
0.103267
0.0900095
0.0842186
0.0599479
0.0947828
0.0677131
0.0854656
0.0666007
0.0680921
0.0835394
0.0586199
0.0703443
0.0734109
0.0865695
0.0810865
0.0774645
0.112068
0.0899783
0.0694971
0.0748095
0.0808574
0.0771879
0.0797234
0.0872888
0.0764672
0.0697334
0.0679849
0.0639035
0.0760674
0.0715069
0.0766754
0.0682152
0.0685488
0.0766651
0.0846845
0.065989
0.0723451
0.0879798
0.0846554
0.0896808
0.0889056
0.0786341
0.0773573
0.0650913
0.101836
0.0681377
0.0619964
0.0597514
0.0636105
0.0649426
0.06009
0.0665747
0.0700703
0.0593903
0.0707514
0.0658912
0.0655016
0.100992
0.0822631
0.0884642
0.0639292
0.0827672
0.0702418
0.0723273
0.058681
0.0738169
0.0736084
0.0663667
0.0710351
0.0596073
0.0789546
0.0678738
0.0666709
0.0886087
0.0689441
0.0628009
0.0728546
0.0786705
0.0702543
0.0694208
0.0643654
0.0845078
0.0600931
0.0729527
0.0656389
0.0627812
0.0658449
0.0745723
0.0656175
0.0708293
0.067454
0.0682497
0.0664894
0.0598455
0.060585
0.0639838
0.0642505
0.072754
0.0583389
0.0626502
0.0574667
0.0673271
0.0762462
0.0668643
0.0659278
0.0795541
0.0622945
0.064407
0.0623377
0.0660649
0.0624305
0.0599308
0.058193
0.0582886
0.0606442
0.0606492
0.0586307
0.0580437
0.0661212
0.0595246
0.0665832
0.070523
0.0678934
0.0595828
0.0579316
0.0716967
0.073694
0.0750115
0.057563
0.0606915
0.0662567
0.0654132
0.0655785
0.0615133
0.0629887
0.0742286
0.0630007
0.0660778
0.0686398
0.0735142
0.0587754
0.0718666
0.0697761
0.0697791
0.0592743
0.0636221
0.066375
0.0610925
0.0609977
0.0670054
0.0623397
0.0695742
0.0627867
0.07148
0.0689894
0.0747652
0.0640604
0.0636243
0.0652052
0.0644739
0.0660283
0.0930403
0.0749562
0.0671837
0.0713706
0.0612672
0.0598545
0.0647592
0.0626723
0.0716851
0.0670683
0.0594
0.0621836
0.0735819
0.0787149
0.0633119
0.0633617
0.0578991
0.0670492
0.0652594
0.0602683
0.0728246
0.0663297
0.0636684
0.0768455
0.0708261
0.0653306
0.0654205
0.0646673
0.061023
0.0621582
0.0581287
0.0596364
0.0675715
0.0614197
0.0591534
0.0626895
0.0787954
0.0632264
0.0609248
0.0616666
0.0608228
0.0685908
0.0685203
0.0650398
0.0702776
0.0636009
0.0686563
0.0713031
0.076315
0.062408
0.0634181
0.0696565
0.0596556
0.0635875
0.0663617
0.0610699
0.0607411
0.0710837
0.0624825
0.0687487
0.0612947
0.0632656
0.0680367
0.0602593
0.0614202
0.0658609
0.0658427
0.0621323
0.0627178
0.0642333
0.0613044
0.06571
0.0928606
0.0628179
0.0636491
0.0717141
0.0630685
0.0606893
0.0709086
0.0639568
0.0658955
0.0612764
0.0608323
0.0610034
0.0630805
0.0683425
0.0609786
0.0740167
0.0669077
0.0641431
0.0714221
0.0599809
0.0702988
0.0581407
0.0862556
0.0796844
0.0727595
0.0629973
0.0707843
0.0650694
0.0678383
0.0642344
0.0596011
0.0623704
0.063315
0.0738558
0.0758871
0.0762073
0.0650617
0.0600245
0.0813605
0.0618081
0.0661829
0.0684398
0.0612509
0.072514
0.0654981
0.0731131
0.0672149
0.060382
0.0792606
0.0725962
0.0684698
0.0656555
0.0643462
0.0607564
0.0591931
0.0677943
0.0643802
0.0684545
0.0679936
0.066764
0.0701243
0.0697012
0.0583409
0.0598831
0.068819
0.0592019
0.0622208
0.0619734
0.07703
0.0763954
0.0611919
0.0613601
0.0673674
0.0662551
0.0656879
0.0658224
0.0604847
0.0737227
0.0598073
0.060105
0.0636089
0.0573928
0.0679321
0.0589329
0.0573389
0.0587729
0.067043
0.0597836
0.0580147
0.0596995
0.0755208
0.0659302
0.0592672
0.0579956
0.060103
0.0612121
0.0621538
0.0752629
0.0618537
0.0653468
0.0582126
0.0585943
0.0599342
0.0575297
0.0642201
0.0596521
0.0597708
0.104224
0.0580766
0.0729887
0.0606784
0.0631904
0.0670372
0.0601716
0.0619199
0.0594313
0.0589365
0.0608879
0.0604953
0.0656209
0.0707545
0.0681277
0.0742043
0.0673145
0.073817
0.0697507
0.0661097
0.0748898
0.0718501
0.0662798
0.0677722
0.0653398
0.065247
0.0663755
0.0699662
0.070909
0.0670144
0.0675904
0.0731132
0.0739864
0.0702735
0.0735393
0.0766461
0.0657119
0.0696288
0.0679226
0.0635388
0.0646511
0.072542
0.0649867
0.0667237
0.080926
0.0659716
0.0689706
0.0705956
0.0634403
0.0727251
0.0682215
0.0678388
0.0790617
0.0761236
0.0727819
0.0736075
0.0684325
0.0640484
0.0743165
0.0715433
0.0857428
0.0971547
0.076155
0.0714832
0.0687331
0.07306
0.0664403
0.067283
0.0764099
0.0761919
0.0763536
0.0695782
0.0848195
0.074233
0.0669851
0.0688757
0.0735245
0.0671277
0.0666043
0.075978
0.0679791
0.0764266
0.0749365
0.075722
0.0733154
0.079643
0.062264
0.0672005
0.0680469
0.0683502
0.0781424
0.0750714
0.0653607
0.0852129
0.0657055
0.0739492
0.0759171
0.0723726
0.0810864
0.0674896
0.0723773
0.0713323
0.0733437
0.0701408
0.0766931
0.0667845
0.062058
0.0691932
0.0880261
0.0684796
0.0938629
0.063828
0.0643363
0.0747634
0.0656641
0.0688914
0.0667541
0.0697032
0.071327
0.0684498
0.0699784
0.0746201
0.0738529
0.065135
0.0714371
0.0670022
0.0654475
0.0631352
0.0794643
0.057954
0.0662408
0.0629158
0.0734786
0.0656336
0.0666728
0.0660561
0.0713692
0.0671692
0.0691831
0.064069
0.0602746
0.0665121
0.0685938
0.0635608
0.0629244
0.0514579
0.0614745
0.0633104
0.0657541
0.0615797
0.0737278
0.0697794
0.0866042
0.0703397
0.0748083
0.061886
0.0655509
0.0723695
0.0615711
0.0673822
0.0699365
0.0654371
0.0682907
0.0719414
0.0712241
0.075313
0.0646453
0.0682984
0.0701233
0.0702826
0.0655566
0.0570423
0.067158
0.0659483
0.0650092
0.0675509
0.0608739
0.0868123
0.0666023
0.0634617
0.0625685
0.0766748
0.0671827
0.064553
0.0628789
0.066043
0.0726732
0.0687302
0.0652563
0.0637109
0.0693251
0.0627785
0.0831006
0.0710784
0.0735635
0.0673369
0.0644416
0.0748793
0.0661046
0.074121
0.0657545
0.0685344
0.0713016
0.0665591
0.0646658
0.0647428
0.0794323
0.0634638
0.0711655
0.0695375
0.0658746
0.0710926
0.0754928
0.0636004
0.0594928
0.0611025
0.0768263
0.0666968
0.0648362
0.0662337
0.0706954
0.0672907
0.0740955
0.0803374
0.0663715
0.0551261
0.0644848
0.0651679
0.0766554
0.0658818
0.0778928
0.0759576
0.0679139
0.0664039
0.0632228
0.0622703
0.0726084
0.0636404
0.0659447
0.0778315
0.0707158
0.0681351
0.0752429
0.0667311
0.069587
0.0655055
0.0695848
0.0665842
0.0652366
0.0733676
0.0679209
0.0677246
0.0661873
0.0837699
0.0601249
0.0719054
0.0807049
0.0706343
0.0727679
0.0656169
0.0812044
0.067594
0.0611274
0.0682001
0.0655285
0.0650123
0.0750817
0.0638124
0.064274
0.0628816
0.0626417
0.0629115
0.0691422
0.0612931
0.0706478
0.0752483
0.0688644
0.0595073
0.0690191
0.0749188
0.0650065
0.0670345
0.0692335
0.0669009
0.0777316
0.0737349
0.062214
0.0633212
0.0761516
0.0721569
0.0661599
0.0873777
0.0640239
0.064116
0.0750211
0.0658069
0.0694026
0.0772626
0.069702
0.0734677
0.0724329
0.0766471
0.0667325
0.0653589
0.0613046
0.0657929
0.0685602
0.0716281
0.0640532
0.0694789
0.07339
0.0624615
0.0731407
0.0673514
0.0717198
0.0645686
0.0667487
0.0815921
0.0644618
0.0703537
0.0650373
0.0791382
0.0640104
0.0625473
0.0721621
0.0716372
0.0709547
0.0642096
0.0714693
0.0634608
0.0708399
0.0697302
0.0753578
0.0722697
0.0688341
0.0705421
0.0632271
0.0634233
0.0693385
0.0677019
0.0611601
0.061817
0.0806585
0.0700028
0.0616205
0.0599275
0.0644882
0.0595017
0.0703241
0.0634362
0.0617726
0.0613369
0.0678354
0.0643086
0.0605522
0.0593253
0.0663186
0.0662756
0.0625177
0.0597872
0.0678851
0.0644384
0.0616062
0.0589059
0.0595995
0.060785
0.0746958
0.0670888
0.0635403
0.0632812
0.0690287
0.0668574
0.0622314
0.0604631
0.0607038
0.0652741
0.0601498
0.0666614
0.0614512
0.0667312
0.0618294
0.0671698
0.0606716
0.0666258
0.0715215
0.0647018
0.0674713
0.0667775
0.0732573
0.0594366
0.0682624
0.0642786
0.0722713
0.0686908
0.0677732
0.069405
0.0604105
0.0659793
0.0652021
0.0590621
0.0648487
0.0640547
0.0598173
0.0612475
0.0712337
0.0716596
0.0600097
0.0623538
0.071838
0.0652314
0.060024
0.0684195
0.06795
0.0591744
0.0719824
0.0639346
0.0661417
0.0625002
0.0733463
0.0612532
0.067342
0.0776968
0.0761944
0.0642722
0.0694897
0.0642591
0.06904
