-0.000436915;0.501339
-0.000439366;0.501335
-0.000481885;0.492536
-0.000623084;0.489813
-0.000411219;0.49205
0.000724122;0.499395
0.00251829;0.506293
0.00363521;0.50967
0.00652705;0.516278
0.0101971;0.522641
0.0145097;0.528779
0.0169034;0.531721
0.0221786;0.537443
0.0279662;0.542778
0.0310045;0.54533
0.0375194;0.550152
0.0409153;0.552392
0.0480007;0.556625
0.0554776;0.560439
0.0593353;0.56221
0.0672754;0.565501
0.0713614;0.566999
0.0797038;0.569828
0.0883098;0.572303
0.0971107;0.57449
0.101574;0.575483
0.110627;0.577281
0.119832;0.578877
0.124463;0.57962
0.133835;0.580954
0.143283;0.582111
0.152848;0.58314
0.15765;0.583608
0.167325;0.58447
0.177059;0.585249
0.18683;0.585952
0.191712;0.586285
0.201534;0.586906
0.211372;0.587474
0.221233;0.588033
0.226163;0.588291
0.236045;0.588778
0.240983;0.589008
0.250884;0.589462
0.255832;0.589679
0.265779;0.590089
0.27567;0.590484
0.285595;0.590857
0.290565;0.59104
0.300477;0.591388
0.310402;0.591736
0.320342;0.592036
0.325307;0.592178
0.334483;0.592538
0.343299;0.593239
0.347678;0.5937
0.356422;0.594946
0.365577;0.596572
0.370244;0.597466
0.379977;0.59941
0.389659;0.601333
0.394487;0.602277
0.40404;0.604075
0.413497;0.605737
0.422887;0.607218
0.427581;0.607902
0.436987;0.609142
0.44643;0.610209
0.451167;0.610666
0.460694;0.611511
0.470264;0.612206
0.479903;0.612781
0.484742;0.613023
0.494427;0.613442
0.504151;0.613767
0.513901;0.613999
0.518774;0.614094
0.52856;0.614208
0.53834;0.614262
0.548156;0.614255
0.55798;0.614207
0.562893;0.614149
0.572722;0.614018
0.577666;0.613933
0.587526;0.613728
0.597389;0.613484
0.602328;0.613342
0.612206;0.613048
0.622088;0.612721
0.631972;0.612351
0.636911;0.612154
0.646793;0.611724
0.656683;0.611269
0.666566;0.610781
0.671514;0.610528
0.681401;0.610001
0.686347;0.609712
0.696246;0.609134
0.706158;0.608534
0.716035;0.607917
0.725929;0.607281
0.730874;0.606947
0.74077;0.606261
0.75065;0.605548
0.760539;0.604801
0.765492;0.604413
0.775382;0.603631
0.785283;0.602836
0.795181;0.601995
0.805069;0.601134
0.809997;0.600689
0.819893;0.599803
0.82968;0.598917
0.838397;0.598252
0.843132;0.598042
0.847342;0.598023
0.855851;0.598319
0.86442;0.599101
0.87317;0.60024
0.877616;0.600954
0.887037;0.602658
0.896827;0.604506
0.901721;0.605426
0.911386;0.607221
0.920865;0.608892
0.925555;0.609697
0.934855;0.611118
0.944143;0.612318
0.953479;0.613292
0.962861;0.614074
0.972285;0.614658
0.976982;0.614887
0.986482;0.61522
0.995983;0.615388
1.00552;0.615383
1.01509;0.615262
1.01988;0.61513
1.02947;0.614756
1.03907;0.614251
1.04868;0.613605
1.05348;0.613249
1.0631;0.612429
1.06791;0.61197
1.07753;0.610975
1.08714;0.609869
1.09674;0.608659
1.10153;0.608011
1.11113;0.60664
1.12073;0.60517
1.13029;0.603621
1.13508;0.602804
1.14465;0.60109
1.1542;0.59929
1.16375;0.597397
1.16851;0.596416
1.17803;0.594411
1.18754;0.592301
1.19702;0.590097
1.20176;0.588959
1.21121;0.586632
1.22064;0.584217
1.23006;0.581721
1.23476;0.580441
1.24415;0.57782
1.25352;0.575121
1.2582;0.573736
1.26752;0.570903
1.27681;0.567991
1.28607;0.564991
1.29069;0.563457
1.2999;0.560344
1.3091;0.557134
1.31826;0.553848
1.32738;0.550478
1.33193;0.548761
1.341;0.545276
1.35003;0.541702
1.35903;0.538041
1.3635;0.536175
1.37243;0.532377
1.38131;0.528483
1.38574;0.526502
1.39455;0.522469
1.40334;0.518349
1.41205;0.514131
1.4164;0.511992
1.42504;0.507631
1.43363;0.503176
1.44155;0.498956
1.4453;0.496898
1.45185;0.493268
1.45786;0.489835
1.46049;0.488298
1.46513;0.485555
1.4693;0.483012
1.47114;0.481859
1.47434;0.479759
1.47723;0.477868
1.47847;0.477048
1.48052;0.47565
1.48222;0.474463
1.483;0.473903
1.48433;0.472957
1.48549;0.4721
1.48638;0.47143
1.48678;0.471125
1.48742;0.470626
1.48792;0.470232
1.48814;0.470061
1.48847;0.469793
1.48873;0.469574
1.48888;0.469436
1.48894;0.469381
1.489;0.469337
1.489;0.469336
1.48896;0.469361
1.48894;0.469381
1.48885;0.469465
1.48868;0.469627
1.48849;0.469828
1.48839;0.469929
1.48819;0.470142
1.48793;0.470436
1.48781;0.470569
1.48756;0.470838
1.48716;0.471273
1.48703;0.471418
1.48684;0.471665
1.48636;0.472231
1.48625;0.47237
1.48613;0.472528
1.48589;0.472839
1.48563;0.473158
1.4855;0.473332
1.48536;0.473503
1.4851;0.473849
1.48484;0.474195
1.48471;0.474374
1.48446;0.47472
1.48422;0.475052
1.48399;0.475382
1.48383;0.4756
1.48357;0.475982
1.48332;0.476354
1.48303;0.476793
1.48276;0.477195
1.48256;0.477503
1.48246;0.47765
1.48227;0.477937
1.48209;0.478211
1.48201;0.478354
1.4818;0.47869
1.48163;0.479
1.48147;0.479274
1.48131;0.479531
1.48124;0.479658
1.48108;0.479952
1.48093;0.480226
1.48085;0.480369
1.48069;0.480652
1.48055;0.48094
1.4804;0.481227
1.48032;0.48137
1.4802;0.481615
1.48007;0.481895
1.47995;0.482132
1.47985;0.482334
1.47979;0.48246
1.47965;0.482766
1.4795;0.483085
1.47937;0.48338
1.4793;0.483511
1.4792;0.483757
1.4791;0.483989
1.47905;0.48411
1.47895;0.484352
1.47884;0.484596
1.47873;0.484858
1.47862;0.48512
1.47858;0.48523
1.47853;0.48533
1.47845;0.485535
1.47841;0.485648
1.47831;0.48589
1.47826;0.486009
1.47825;0.486019
1.47817;0.486186
1.47809;0.486407
1.47809;0.486389
1.47803;0.486518
1.47795;0.486739
1.47791;0.486859
1.47783;0.487082
1.47774;0.487292
1.47764;0.487556
1.47755;0.487806
1.4775;0.487942
1.4774;0.488169
1.47733;0.488379
1.47729;0.488487
1.47724;0.48866
1.47716;0.488883
1.47711;0.489038
1.47705;0.489222
1.47702;0.489309
1.47696;0.489493
1.4769;0.489693
1.47688;0.489779
1.47682;0.489959
1.47676;0.490147
1.4767;0.490328
1.47664;0.490523
1.4766;0.490671
1.47653;0.490924
1.47647;0.491143
1.47642;0.491307
1.4764;0.491385
1.47637;0.491544
1.47632;0.491711
1.4763;0.4918
1.47624;0.492045
1.47618;0.492243
1.47613;0.492437
1.47611;0.492487
1.47608;0.492604
1.47605;0.492684
1.47603;0.492776
1.47602;0.49278
1.47602;0.492784
1.47597;0.492925
1.47596;0.492962
1.47596;0.492997
1.47595;0.493025
1.47594;0.493033
1.47591;0.493191
1.47587;0.493361
1.47585;0.493443
1.47581;0.493591
1.47577;0.493749
1.47575;0.493831
1.47569;0.494059
1.47564;0.494274
1.47563;0.49435
1.47563;0.494332
1.47557;0.494625
1.47554;0.494745
1.47554;0.494818
1.47552;0.494891
1.47552;0.494919
1.47551;0.494925
1.4755;0.49493
1.47551;0.494955
1.4755;0.494963
1.47548;0.49504
1.47546;0.495159
1.47544;0.495288
1.47543;0.495341
1.4754;0.495495
1.47538;0.495631
1.47537;0.49569
1.47536;0.495741
1.47534;0.495863
1.47531;0.496015
1.47529;0.496109
1.47526;0.49626
1.47523;0.496403
1.47523;0.496369
1.47524;0.496373
1.47522;0.496444
1.4752;0.496574
1.47517;0.496801
1.47515;0.496925
1.47514;0.49701
1.47512;0.497165
1.47511;0.497229
1.47509;0.497393
1.47507;0.497472
1.47506;0.497559
1.47505;0.49763
1.47503;0.497706
1.47501;0.497799
1.47501;0.497844
1.47501;0.497844
1.47501;0.497872
1.47501;0.497881
1.47499;0.49793
1.47499;0.497967
1.47499;0.498042
1.47497;0.49814
1.47496;0.498199
1.47547;0.508941
1.47546;0.508949
1.47578;0.510169
1.47584;0.510454
1.47603;0.511217
1.4762;0.511952
1.47637;0.512614
1.47648;0.51313
1.47654;0.513369
1.47663;0.513762
1.47672;0.514156
1.47679;0.514461
1.47682;0.51461
1.47685;0.514653
1.47688;0.514734
1.47693;0.514973
1.47698;0.51521
1.477;0.515268
1.47701;0.515299
1.47702;0.515335
1.47704;0.515391
1.47704;0.515449
1.47704;0.515433
1.47704;0.515415
1.47705;0.515415
1.47705;0.515416
1.47705;0.515404
1.47705;0.515393
1.47705;0.515396
1.47704;0.515327
1.47703;0.515306
1.47704;0.515294
1.47705;0.515313
1.47705;0.515325
1.47705;0.515323
1.47704;0.515281
1.47702;0.51516
1.47701;0.515047
1.47701;0.515006
1.477;0.514933
1.47698;0.514832
1.47697;0.514707
1.47695;0.514582
1.47693;0.514534
1.47692;0.514448
1.47691;0.514385
1.4769;0.514309
1.47688;0.514228
1.47688;0.514166
1.47687;0.51411
1.47686;0.514076
1.47685;0.51398
1.47684;0.513932
1.47683;0.51385
1.47682;0.513767
1.47682;0.513702
1.47681;0.513661
1.4768;0.51353
1.47675;0.513095
1.47673;0.512997
1.4767;0.512874
1.47669;0.512793
1.47668;0.512699
1.47667;0.512664
1.47666;0.512595
1.47666;0.512522
1.47665;0.512437
1.47665;0.512376
1.47663;0.51228
1.47662;0.512173
1.47662;0.512109
1.47662;0.512106
1.47661;0.512052
1.4766;0.511953
1.47659;0.511793
1.47658;0.511704
1.47657;0.511654
1.47657;0.511613
1.47657;0.511555
1.47657;0.511527
1.47656;0.511448
1.47656;0.511406
1.47654;0.511351
1.47654;0.511314
1.47652;0.511288
1.47652;0.511268
1.47652;0.51119
1.47652;0.511146
1.47652;0.511148
1.47651;0.511104
1.4765;0.511066
1.4765;0.510967
1.47649;0.510926
1.47648;0.510907
1.47648;0.510904
1.47647;0.510879
1.47648;0.510877
1.47648;0.510871
1.47648;0.510816
1.47649;0.510768
1.4765;0.510751
1.47651;0.510773
1.47651;0.510821
1.47653;0.510843
1.47653;0.510817
1.47654;0.510733
1.47653;0.510674
1.47652;0.510641
1.47651;0.510615
1.47651;0.510588
1.47651;0.510592
1.4765;0.510607
1.4765;0.51061
1.47651;0.510618
1.47651;0.510528
1.47652;0.510485
1.47654;0.510457
1.47653;0.510487
1.47653;0.510487
1.47654;0.51047
1.47654;0.510441
1.47655;0.510417
1.47655;0.510387
1.47654;0.510358
1.47654;0.510337
1.47655;0.510332
1.47654;0.510297
1.47654;0.510236
1.47655;0.510214
1.47654;0.510184
1.47652;0.510174
1.47651;0.51015
1.4765;0.510075
1.4765;0.510068
1.47649;0.510021
1.47649;0.509969
1.47648;0.509964
1.47648;0.509961
1.47647;0.509971
1.47646;0.509908
1.47647;0.509886
1.47646;0.509849
1.47645;0.509843
1.47645;0.509843
1.47645;0.509839
1.47645;0.509838
1.47644;0.509858
1.47644;0.509849
1.47645;0.509791
1.47645;0.509766
1.47645;0.509707
1.47645;0.509677
1.47645;0.509692
1.47646;0.509673
1.47641;0.509713
1.47642;0.509701
1.47642;0.509666
1.47643;0.509666
1.47644;0.509752
1.47645;0.509753
1.47645;0.509759
1.47644;0.509723
1.47644;0.509691
1.47644;0.509697
1.47644;0.50974
1.47644;0.509733
1.47643;0.509694
1.47643;0.509647
1.47642;0.509583
1.47641;0.509526
1.47641;0.509447
1.4764;0.509365
1.4764;0.509283
1.4764;0.509247
1.4764;0.509205
1.4764;0.509132
1.47639;0.50908
1.47638;0.509093
1.47636;0.509117
1.47635;0.50914
1.47634;0.509172
1.47633;0.509136
1.47634;0.509099
1.47633;0.509109
1.47631;0.509133
1.47631;0.509132
1.47631;0.509119
1.47631;0.509106
1.47632;0.509101
1.47632;0.509096
1.47632;0.509031
1.47632;0.509006
1.47633;0.50901
1.47633;0.509004
1.47633;0.509021
1.47633;0.509018
1.47633;0.509012
1.47633;0.508945
1.47633;0.508955
1.47633;0.508948
1.47633;0.508938
1.47633;0.508931
1.47634;0.508912
1.47632;0.50887
1.47633;0.508808
1.47633;0.508755
1.47633;0.508728
1.47632;0.508715
1.47632;0.508707
1.47632;0.508693
1.47633;0.508686
1.47633;0.508668
1.47633;0.508573
1.47632;0.508516
1.47631;0.508468
1.4763;0.508426
