0.03031
0.0192835
0.0209422
0.0232776
0.0330184
0.0602732
0.19012
0.0373252
0.0234554
0.0205437
0.0212488
0.0324255
0.028052
0.0244804
0.0277103
0.0230358
0.0448487
0.0230229
0.0193221
0.0229549
0.026608
0.0203601
0.139389
0.0189144
0.01912
0.0192984
0.0191003
0.020437
0.023521
0.0203587
0.0282571
0.0245759
0.0625571
0.0186588
0.0377185
0.0462539
0.0663876
0.0898103
0.0883629
0.0192487
0.172602
0.0188922
0.0690702
0.0200536
0.0304405
0.0333888
0.0270701
0.082392
0.0279334
0.0214104
0.0231506
0.0193318
0.0223629
0.0179387
0.018635
0.0216273
0.0198772
0.191851
0.207589
0.0797092
0.0315834
0.084489
0.0250543
0.0434761
0.015031
0.0540731
0.0357103
0.025405
0.0460007
0.0206594
0.0305551
0.0337336
0.0170729
0.0495035
0.0230556
0.0273847
0.0271259
0.0282813
0.0327385
0.0252828
0.0248398
0.0308204
0.0246315
0.0244098
0.215614
0.0388275
0.33483
0.0605153
0.01559
0.0280382
0.0270883
0.0373663
0.0914537
0.041977
0.0540517
0.0493228
0.0596624
0.0194416
0.0346365
0.0183189
0.0215411
0.0630182
0.0437979
0.0522298
0.026971
0.0439171
0.0394997
0.0197685
0.0206935
0.0236348
0.0252433
0.0226086
0.035424
0.0198485
0.0282225
0.022391
0.0536654
0.0717371
0.447572
0.0146105
0.0345855
0.0204204
0.131189
0.0270628
0.0198666
0.0199366
0.0454009
0.0526354
0.0326141
0.024274
0.0211764
0.0302238
0.022234
0.0675435
0.0200704
0.0184956
0.0217565
0.0207825
0.066778
0.0462246
0.0248382
0.0173481
0.0225606
0.0331333
0.0278679
0.0239591
0.0217561
0.014779
0.0190361
0.0213394
0.0227093
0.0222444
0.0185499
0.0285538
0.0154252
0.0155892
0.0304974
0.0130516
0.0179757
0.0177876
0.0292379
0.054643
0.0207544
0.0189758
0.0179573
0.0157689
0.0189085
0.017644
0.0204325
0.0201428
0.0276734
0.0484978
0.043784
0.0375914
0.0530031
0.0195565
0.0122502
0.10716
0.0244541
0.0188727
0.0777887
0.0279049
0.0300996
0.0339467
0.0504658
0.0618164
0.0171284
0.0273147
0.0590374
0.0217442
0.0341215
0.0227591
0.0390645
0.0227525
0.0631521
0.097984
0.0302668
0.0364646
0.0314425
0.0244595
0.0504548
0.0289824
0.0240642
0.0245591
0.0286931
0.0722543
0.0263345
0.0292626
0.0282129
0.0577391
0.0270229
0.0423054
0.0258875
0.0223552
0.037479
0.0247968
0.0244018
0.0275586
0.0350763
0.0250409
0.0374518
0.0257001
0.0279785
0.0279566
0.025375
0.0241195
0.0246721
0.0271068
0.0214239
0.0372952
0.0225881
0.025081
0.0182723
0.028662
0.0211516
0.0185759
0.0251433
0.0194299
0.0287891
0.0220251
0.016987
0.0246656
0.0229298
0.020082
0.0200395
0.0168992
0.0193033
0.0201223
0.0187313
0.0184521
0.0212293
0.031181
0.0200188
0.0200661
0.0156483
0.0253697
0.0173481
0.0216323
0.0194004
0.0212907
0.0229313
0.0233685
0.0204411
0.0216859
0.0293367
0.0209127
0.0248184
0.0243388
0.028397
0.0205923
0.022412
0.0199823
0.0200349
0.02173
0.0200687
0.0238242
0.0290871
0.0253468
0.0201036
0.0185073
0.0261185
0.0248796
0.0223997
0.0277726
0.024588
0.0182618
0.0196383
0.0208647
0.0312237
0.0232254
0.0208427
0.0226316
0.0195427
0.0193248
0.0281761
0.0183856
0.0189579
0.0235045
0.0334312
0.0221086
0.0222485
0.0255337
0.0184957
0.022826
0.0186502
0.0202456
0.0219556
0.027481
0.0307716
0.0188186
0.0202387
0.0199934
0.023555
0.0213801
0.018166
0.0233715
0.0265098
0.0221672
0.0310881
0.0215164
0.0202044
0.0210258
0.0217563
0.0219702
0.0168126
0.0200221
0.0279313
0.022803
0.0168181
0.019416
0.0189166
0.0175267
0.0158775
0.0171366
0.0174916
0.0181613
0.0209043
0.0199985
0.0217619
0.0197366
0.0244049
0.0245181
0.0264886
0.0220556
0.0183398
0.0206681
0.0147551
0.0154514
0.0160201
0.0128675
0.0196371
0.0158554
0.0137109
0.0127493
0.0146749
0.0164857
0.0122148
0.0125595
0.0118114
0.0128249
0.0143529
0.0129244
0.0132852
0.0151754
0.0126433
0.0122174
0.0124853
0.0137769
0.0137473
0.0162682
0.0152638
0.0124783
0.0164061
0.0114357
0.0140145
0.0133269
0.0180396
0.0157504
0.0135961
0.0156767
0.0190186
0.0192194
0.0151651
0.0122709
0.0153471
0.0157216
0.0212155
0.0203254
0.0187972
0.0182628
0.016185
0.0254094
0.0296818
0.0317063
0.0223454
0.0209731
0.022181
0.0223843
0.0284409
0.0430531
0.045758
0.0343659
0.0451486
0.0339276
0.109211
0.0552554
0.0342395
0.031984
0.0439214
0.0737434
0.0223085
0.0271859
0.0196766
0.0201025
0.104404
0.0600581
0.0842365
0.0477307
0.0756953
0.069068
0.0209138
0.0585705
0.143452
0.0343739
0.0224473
0.214659
0.0333099
0.121625
0.0315222
0.0589543
0.063892
0.071459
0.0310214
0.0957667
0.074941
0.0408025
0.0488844
0.0281752
0.115176
0.0253695
0.0166861
0.050798
0.0309727
0.0198395
0.0192094
0.0179828
0.198191
0.174066
0.0226634
0.0360635
0.0328546
0.0295587
0.0213991
0.0185338
0.0270301
0.0193731
0.0246863
0.0617564
0.0430138
0.021072
0.0519961
0.046982
0.0414273
0.024493
0.0378574
0.0283975
0.0785717
0.137486
0.0266334
0.0728225
0.0769844
0.21956
0.021917
0.0285225
0.122997
0.0261545
0.029664
0.0929034
0.0275041
0.089174
0.0196711
0.0270763
0.465617
0.0403209
0.0574987
0.0263795
0.0212589
0.258052
0.0591825
0.0231501
0.0310777
0.0260586
0.113085
0.0348174
0.0397323
0.0233981
0.22647
0.0426584
0.0311795
0.0410121
0.0326107
0.0349201
0.0310924
0.0301053
0.0310452
0.0247996
0.0296475
0.0269206
0.0376275
0.0467322
0.036686
0.044574
0.0508884
0.0310189
0.0639589
0.027955
0.0375813
0.0342744
0.0273718
0.0247601
0.0325878
0.0275511
0.0312431
0.0268089
0.0272505
0.028544
0.029806
0.0271007
0.027921
0.0355237
0.044714
0.0265778
0.0405627
0.0297508
0.0300349
0.0271388
0.0266339
0.0299759
0.0212115
0.0277247
0.0249041
0.0301627
0.0300241
0.0293801
0.028233
0.0262698
0.0250225
0.027299
0.0257389
0.0251101
0.02643
0.0181846
0.0246554
0.0198349
0.0204887
0.0288218
0.0175411
0.020984
0.0201348
0.0197054
0.0218605
0.0268588
0.032987
0.026243
0.0259148
0.026222
0.0236382
0.0245816
0.0236434
0.0227824
0.0236353
0.0235213
0.0241097
0.0262439
0.0238943
0.030185
0.0303346
0.0262951
0.0278277
0.031564
0.0291541
0.0263199
0.0290002
0.0275902
0.0309888
0.0233831
0.026247
0.0237004
0.0255002
0.0291056
0.0288236
0.0220313
0.0208789
0.0364471
0.0252775
0.0225616
0.0212575
0.0221042
0.0271165
0.0246145
0.038138
0.0276764
0.025369
0.0244296
0.0248992
0.0232922
0.0235677
0.0250238
0.0239044
0.0261312
0.0247784
0.030822
0.0295388
0.0305248
0.0327031
0.023182
0.0261325
0.0237015
0.0224188
0.0288654
0.0255359
0.0274298
0.0321753
0.0262851
0.0376579
0.0320686
0.0313239
0.0268917
0.0416722
0.0378256
0.024404
0.0178863
0.0211569
0.0191991
0.0263834
0.0173894
0.0196554
0.022392
0.0216753
0.01531
0.0155397
0.0117892
0.0140316
0.0132475
0.0129825
0.0122019
0.0142431
0.0145565
0.0150283
0.0134324
0.0173623
0.0118172
0.0119141
0.0114641
0.0109668
0.0109344
0.0117077
0.014878
0.0153142
0.0253276
0.0174494
0.0183968
0.0164489
0.0150086
0.0186583
0.0192309
0.0146181
0.0199206
0.017874
0.0137505
0.0173987
0.0184201
0.0172613
0.0652144
0.375421
0.0618872
0.0230936
0.0272939
0.049177
0.0203983
0.0420968
0.0266419
0.0179453
0.0335024
0.0773264
0.0375119
0.0335245
0.0180275
0.0202219
0.0156408
0.0245033
0.0323154
0.0176438
0.0166058
0.0361712
0.148968
0.04256
0.0153058
0.052088
0.0597141
0.047929
0.146086
0.0213622
0.0191451
0.0488843
0.0179741
0.0340813
0.0443269
0.0308596
0.0158389
0.0151405
0.079729
0.0416236
0.0934795
0.0182275
0.0312702
0.0267805
0.0205409
0.0152884
0.0154749
0.0382686
0.0286456
0.0278338
0.0241613
0.0306234
0.0163417
0.0182363
0.0212202
0.0198715
0.0192379
0.0398077
0.0328425
0.0587163
0.0165768
0.0361636
0.0148514
0.0291424
0.101607
0.0227106
0.0364374
0.0182255
0.094541
0.0189227
0.0202464
0.0201702
0.0211331
0.0194263
0.0414339
0.0202014
0.0224669
0.0789706
0.124391
0.0896488
0.0288395
0.0158887
0.0388472
0.0354278
0.022646
0.0699527
0.0230237
0.0196237
0.0277651
0.0202925
0.0210759
0.0206048
0.0163323
0.0178675
0.0209717
0.0217249
0.0217103
0.0519275
0.0201689
0.0175136
0.0149363
0.015198
0.016189
0.0164067
0.0627742
0.0392286
0.138827
0.026917
0.0395659
0.0353019
0.0245748
0.04339
0.167768
0.0277034
0.0307859
0.0220488
0.0957833
0.0581913
0.0392544
0.0416598
0.0771535
0.0200862
0.0267457
0.0162089
0.019583
0.0166676
0.016723
0.0168145
0.190139
0.031113
0.121606
0.0262556
0.0208263
0.0237658
0.0397637
0.0524764
0.120392
0.0952537
0.0267939
0.0624687
0.0290008
0.0268977
0.0313779
0.0248839
0.0250838
0.0315772
0.0921978
0.0303346
0.0417613
0.035741
0.0438637
0.229743
0.0312871
0.102956
0.0832888
0.17284
0.0481647
0.0307865
0.0258249
0.0279028
0.0332159
0.113924
0.0561792
0.0285087
0.0298174
0.0510602
0.0284024
0.0301168
0.0353764
0.0210719
0.0220182
0.10202
0.0566161
0.0179281
0.0533386
0.0253172
0.0592214
0.0344703
0.0369155
0.0313132
0.0508986
0.0329685
0.105412
0.038304
0.0515609
0.0314168
0.072683
0.021945
0.0417485
0.0230909
0.0437179
0.0737423
0.2092
0.0640263
0.0236778
0.0614521
0.017288
0.0552922
0.110683
0.029668
0.065846
0.0355866
0.0160795
0.123718
0.0287536
0.0258403
0.0249532
0.0444332
0.046934
0.0654939
0.0437562
0.0829032
0.0345334
0.0507069
0.10844
0.131904
0.0481201
0.0214182
0.179509
0.0183775
0.241506
0.0222404
0.20558
0.270916
0.0342898
0.0186169
0.0306588
0.0883068
0.0564075
0.0509269
0.0444341
0.0188425
0.0267853
0.0563715
0.0342631
0.0482825
0.0464323
0.0313905
0.126929
0.0390121
0.0216753
0.054863
0.0791472
0.06476
0.0163353
0.0311607
0.0206168
0.029646
0.363165
0.0605222
0.0235051
0.0252334
0.183935
0.0307976
0.0524849
0.119552
0.0271547
0.0377138
0.0396138
0.0250674
0.0737371
0.0319359
0.0259826
0.0270334
0.0431777
0.0159641
0.026958
0.0274207
0.0257966
0.0255745
0.0291588
0.0253009
0.0291072
0.026871
0.0265557
0.0295157
0.0207004
0.0270717
0.0361132
0.031097
0.0442682
0.0312513
0.0320832
0.112825
0.0368372
0.0360797
0.0300928
0.0277688
0.0277485
0.0285793
0.0345536
0.0275438
0.0270313
0.026903
0.0269936
0.0331575
0.0278103
0.0263853
0.0279066
0.0161415
0.0188082
0.0288351
0.0169339
0.019362
0.016252
0.0200198
0.0176854
0.0196295
0.0170063
0.0187478
0.0211343
0.0340007
0.0204374
0.0163287
0.0421217
0.0207418
0.0218057
0.0190655
0.0194834
0.0196883
0.0188853
0.0202355
0.018953
0.0213695
0.0198666
0.0207249
0.0199541
0.0194234
0.0231072
0.0191141
0.0192188
0.0188853
0.0199044
0.0197374
0.028056
0.0179867
0.02091
0.0201249
0.01807
0.0199631
0.0552909
0.0162561
0.0254307
0.0216203
0.112421
0.0226358
0.0209218
0.0211521
0.020752
0.0212024
0.020923
0.019985
0.0246629
0.0337294
0.0215272
0.0217315
0.0633355
0.0172524
0.0237724
0.0202631
0.0201101
0.0215458
0.0199727
0.0218315
0.013149
0.0176629
0.0203722
0.0207274
0.0215131
0.0220564
0.0241301
0.020618
0.0207912
0.0210944
0.0146257
0.0237234
0.0212792
0.0174225
0.0216813
0.0196336
0.0203334
0.10802
0.02364
0.0900915
0.0174827
0.0264053
0.0242128
0.021857
0.0270933
0.0256565
0.0207011
0.021023
0.0202548
0.0208942
0.0202024
0.0246847
0.0217395
0.0200359
0.0208931
0.0216785
0.0214757
0.0241669
0.0216592
0.0246961
0.0213965
0.025052
0.0198488
0.0223844
0.0210463
0.0246154
0.0213858
0.0223229
0.0206901
0.0211226
0.0235081
0.0214147
0.0261891
0.0212779
0.0204173
0.0215601
0.0259877
0.0222414
0.0219969
0.0205388
0.0204794
0.02138
0.0235789
