-9.59987e-05;0.00300365
-0.000101103;0.0030415
-0.000105845;0.00244913
-9.88007e-05;0.00227641
-9.7038e-05;0.00158739
-9.27322e-05;0.00117479
-9.25383e-05;0.000388149
-9.60584e-05;8.09658e-06
-0.000100894;-0.000673455
-0.000102943;-0.00100239
-0.000119616;-0.00158964
-0.000117854;-0.00189466
-0.0001261;-0.00262185
-0.000129035;-0.00283881
-0.000129035;-0.00283881
-0.000121758;-0.00294033
-0.00013479;-0.00310471
-0.000150943;-0.00345265
-0.000156003;-0.00360882
-0.000174024;-0.00392719
-0.000181379;-0.00409096
-0.000186306;-0.00421949
-0.000191466;-0.00447846
-0.000183875;-0.00460302
-0.00018401;-0.00481628
-0.000179468;-0.00489323
-0.000189383;-0.00502998
-0.000195171;-0.00509956
-0.000207077;-0.00520575
-0.000224411;-0.0054143
-0.000229806;-0.00551226
-0.000215206;-0.00562727
-0.000206215;-0.00565583
-0.000207597;-0.00567713
-0.000226065;-0.00599076
-0.000235349;-0.00604096
-0.000231155;-0.00603044
-0.000219322;-0.00601185
-0.000223662;-0.00599951
-0.000203058;-0.00603442
-0.000201306;-0.00604063
-0.000198511;-0.00603105
-0.000201463;-0.00603503
-0.000203152;-0.0060411
-0.000196075;-0.00602261
-0.000193904;-0.00599642
-0.000186672;-0.00593645
-0.000185668;-0.00592438
-0.000184437;-0.00591933
-0.000188756;-0.00592651
-0.000186265;-0.00592819
-0.000172458;-0.00587269
-0.000133779;-0.00579532
-0.000148304;-0.00588284
-0.000215263;-0.00621372
-0.000215263;-0.00621372
-0.000241063;-0.00632872
-0.000293815;-0.00645021
-0.000353157;-0.00669038
-0.000389247;-0.00679222
-0.000403856;-0.00684796
-0.000417942;-0.00690731
-0.00044154;-0.00701103
-0.000441382;-0.00700057
-0.000415579;-0.00691746
-0.000373622;-0.00677149
-0.000221869;-0.00628571
-0.000163219;-0.00611131
2.52473e-05;-0.0055578
0.00014022;-0.00521933
0.000254951;-0.00488516
0.000615537;-0.00387491
0.00083177;-0.00329207
0.00104771;-0.00272423
0.00129069;-0.00207789
0.00181994;-0.000744193
0.00278628;0.00156247
0.00311353;0.0023269
0.0038208;0.00390945
0.00419904;0.00473179
0.00461605;0.0056359
0.00507219;0.00662323
0.00767503;0.0118004
0.00820926;0.0128617
0.00868763;0.0137019
0.00929323;0.0148041
0.00997536;0.0160397
0.0106659;0.0172519
0.0122198;0.0199498
0.0130428;0.021329
0.0139189;0.0227671
0.0147967;0.0241938
0.0167323;0.0272543
0.0177291;0.0287971
0.0177164;0.0287894
0.0177068;0.0287775
0.0177072;0.0287711
0.0199539;0.0321345
0.0215859;0.0345902
0.0231592;0.0368672
0.0246049;0.0389119
0.0294449;0.0455773
0.0319831;0.0489617
0.034101;0.051737
0.035888;0.0539824
0.0412089;0.0606488
0.0440114;0.0640719
0.0463271;0.0668564
0.0482657;0.0691242
0.0531354;0.0747125
0.0561871;0.0781099
0.0588183;0.0809894
0.0633754;0.0858797
0.0666435;0.0892794
0.0697577;0.0924849
0.0750224;0.097729
0.0775052;0.100152
0.0807742;0.103271
0.0840554;0.10636
0.0901288;0.111911
0.0927886;0.114278
0.0962106;0.11728
0.103057;0.123164
0.112464;0.130913
0.115642;0.133459
0.118414;0.135658
0.123546;0.139594
0.126016;0.14143
0.126095;0.141492
0.128461;0.143336
0.131728;0.145748
0.138215;0.150413
0.141142;0.152487
0.144976;0.155155
0.148789;0.157766
0.156055;0.162606
0.159163;0.164619
0.162975;0.167041
0.17055;0.171807
0.173866;0.173861
0.180335;0.177751
0.184122;0.179968
0.187563;0.181975
0.191029;0.183942
0.197704;0.187677
0.205503;0.191916
0.213095;0.195933
0.213095;0.195933
0.216746;0.197815
0.220022;0.199487
0.224314;0.201632
0.226025;0.202488
0.22749;0.203197
0.227876;0.203389
0.228293;0.203583
0.228233;0.203556
0.228169;0.203527
0.227209;0.203109
0.224822;0.202055
0.223663;0.201545
0.222678;0.201122
0.219234;0.199586
0.217313;0.198781
0.215606;0.197998
0.212824;0.196828
0.211938;0.196478
0.211926;0.196474
0.21228;0.196615
0.212722;0.196784
0.213143;0.196939
0.21379;0.19718
0.214033;0.197266
0.214283;0.197351
0.214357;0.197378
0.214422;0.197399
0.214519;0.197434
0.214747;0.197498
0.214873;0.197538
0.215164;0.197631
0.215323;0.197676
0.215507;0.197742
0.21585;0.19784
0.216019;0.19789
0.2162;0.197939
0.216385;0.197988
0.216753;0.198085
0.216937;0.198132
0.217137;0.198182
0.217551;0.198284
0.21776;0.198331
0.217979;0.198378
0.218433;0.198477
0.218672;0.198532
0.218939;0.198565
0.219443;0.198653
0.219707;0.198708
0.219982;0.198759
0.220278;0.198813
0.220868;0.198921
0.221193;0.198989
0.221537;0.199048
0.222259;0.199159
0.222625;0.199215
0.223012;0.199273
0.223417;0.199327
0.22428;0.199448
0.22473;0.199504
0.225216;0.199561
0.225742;0.199621
0.226825;0.199734
0.227418;0.199785
0.22808;0.199846
0.229492;0.199945
0.230283;0.199999
0.231173;0.200046
0.23215;0.200095
0.234451;0.200211
0.235653;0.200257
0.237149;0.20028
0.240699;0.200284
0.242857;0.200248
0.247442;0.200119
0.252004;0.199912
0.261096;0.199256
0.265638;0.198851
0.270206;0.198346
0.279461;0.197101
0.284124;0.196399
0.288987;0.195631
0.298836;0.194054
0.30376;0.193255
0.308602;0.192487
0.31341;0.191746
0.322882;0.190365
0.327612;0.189727
0.33228;0.189136
0.336941;0.188613
0.341595;0.188135
0.346258;0.187697
0.355592;0.186989
0.360277;0.186704
0.364963;0.186474
0.369682;0.186288
0.374382;0.18616
0.383806;0.186038
0.388508;0.186049
0.393225;0.186101
0.397938;0.186204
0.407383;0.186535
0.412109;0.186762
0.416829;0.187034
0.426286;0.187712
0.431021;0.188111
0.435741;0.18856
0.445198;0.189577
0.449928;0.190142
0.454657;0.190743
0.464094;0.192063
0.468804;0.192795
0.473535;0.193546
0.482944;0.195173
0.48764;0.19607
0.492341;0.197005
0.501733;0.198944
0.506417;0.199961
0.511093;0.201027
0.51577;0.202114
0.525114;0.204369
0.529782;0.205548
0.534437;0.206763
0.543735;0.209262
0.548363;0.210565
0.553001;0.21189
0.55762;0.213229
0.566872;0.216021
0.571481;0.21745
0.576077;0.218891
0.580675;0.220395
0.589849;0.223473
0.594411;0.225056
0.598971;0.226667
0.608086;0.229967
0.61264;0.231639
0.61718;0.233341
0.621721;0.235069
0.630757;0.238582
0.635273;0.240372
0.639783;0.242187
0.648779;0.245878
0.653264;0.247767
0.657742;0.249669
0.666674;0.253531
0.671144;0.255494
0.675597;0.257482
0.684488;0.261484
0.688917;0.263519
0.69335;0.265586
0.697759;0.267667
0.706586;0.271867
0.710987;0.27399
0.715393;0.276134
0.724162;0.280464
0.728558;0.282658
0.732932;0.284854
0.741661;0.28932
0.746019;0.291568
0.750364;0.293827
0.754708;0.296111
0.763366;0.300712
0.767696;0.30302
0.772023;0.305353
0.776339;0.3077
0.784955;0.312436
0.789255;0.314823
0.793561;0.317231
0.797844;0.319643
0.806406;0.324517
0.810693;0.326975
0.814957;0.329424
0.819226;0.331897
0.827732;0.336872
0.831978;0.339375
0.836226;0.341881
0.844691;0.346947
0.848931;0.349474
0.853149;0.352019
0.857378;0.35458
0.865816;0.359728
0.870025;0.362297
0.874246;0.364885
0.882677;0.370069
0.886869;0.372668
0.891066;0.37527
0.899457;0.380524
0.903644;0.383148
0.907837;0.385794
0.916191;0.391088
0.920361;0.39374
0.924532;0.396402
0.93287;0.401746
0.937026;0.404432
0.941185;0.407126
0.9495;0.412527
0.953655;0.415242
0.957796;0.417955
0.966077;0.423394
0.970217;0.426116
0.974367;0.428846
0.982648;0.434337
0.986782;0.437096
0.990913;0.439855
0.999164;0.445399
1.00328;0.448163
1.00638;0.450263
1.00879;0.451855
1.01316;0.454836
1.01495;0.456061
1.01571;0.456569
1.01672;0.457271
1.01691;0.457397
1.01703;0.457494
1.01653;0.457137
1.01565;0.456531
1.01478;0.455923
1.01324;0.454845
1.01179;0.453817
1.01058;0.452956
1.00978;0.452392
1.00895;0.451802
1.00878;0.451692
1.00889;0.451765
1.00929;0.452051
1.00948;0.452193
1.00958;0.452253
1.00969;0.452341
1.00971;0.452358
1.00971;0.45236
1.00972;0.452366
1.00972;0.452378
1.00977;0.452418
1.00981;0.452452
1.00985;0.452484
1.00994;0.45254
1.00999;0.452576
1.01003;0.452609
1.01007;0.452637
1.01014;0.4527
1.01018;0.452732
1.01022;0.452764
1.01026;0.452787
1.01033;0.452849
1.01038;0.452894
1.01042;0.452925
1.01051;0.452995
1.01055;0.453024
1.0106;0.453067
1.01069;0.453142
1.01075;0.453176
1.01079;0.453207
1.01084;0.453255
1.01089;0.453289
1.01099;0.453361
1.01103;0.45339
1.01107;0.453431
1.01117;0.453509
1.01122;0.453552
1.01127;0.453592
1.01133;0.453642
1.01145;0.453736
1.01151;0.453785
1.01156;0.453828
1.01163;0.453878
1.01175;0.453978
1.01181;0.454029
1.01186;0.454078
1.01199;0.45419
1.01206;0.454245
1.01213;0.454301
1.01224;0.454404
1.0123;0.454452
1.01238;0.454525
1.01253;0.454659
1.01261;0.45472
1.01268;0.454789
1.01284;0.454932
1.01293;0.455013
1.01301;0.455085
1.01319;0.455251
1.01328;0.455332
1.01337;0.455417
1.01354;0.45558
1.01364;0.455672
1.01374;0.455753
1.01391;0.455919
1.01399;0.456003
1.0141;0.456095
1.01421;0.456201
1.01443;0.456419
1.01453;0.456516
1.01476;0.456738
1.01488;0.456852
1.015;0.456982
1.01525;0.457227
1.01539;0.457367
1.01552;0.457508
1.0158;0.457796
1.01594;0.457945
1.0161;0.458106
1.01643;0.458448
1.01659;0.458619
1.01676;0.458806
1.01713;0.459198
1.01732;0.459409
1.0175;0.459612
1.01793;0.460096
1.01816;0.46035
1.01837;0.460599
1.01884;0.461141
1.01911;0.461458
1.01939;0.461792
1.01998;0.46252
1.02029;0.4629
1.02062;0.463313
1.02132;0.464201
1.02169;0.464676
1.0221;0.4652
1.02295;0.46633
1.02342;0.466951
1.02394;0.467684
1.0252;0.469443
1.02584;0.470379
1.02689;0.471957
1.03057;0.477717
1.0329;0.481615
1.03518;0.48553
1.03738;0.489489
1.04162;0.497524
1.04366;0.501654
1.04575;0.505972
1.04996;0.5149
1.05208;0.519396
1.05421;0.52391
1.05847;0.532919
1.06061;0.537392
1.06271;0.541804
1.06694;0.550489
1.06907;0.554758
1.07336;0.563104
1.07558;0.567179
1.07781;0.571187
1.08245;0.579085
1.08485;0.58298
1.08732;0.58684
1.08984;0.590685
1.09506;0.59828
1.09775;0.602031
1.10048;0.605766
1.10613;0.61311
1.10903;0.616723
1.11199;0.620312
1.11803;0.627397
1.12113;0.630879
1.12427;0.634327
1.13067;0.641139
1.13391;0.644501
1.13722;0.647817
1.14394;0.654368
1.14738;0.657578
1.15084;0.660765
1.15788;0.667051
1.16144;0.670158
1.16504;0.673214
1.16867;0.67624
1.17602;0.682201
1.17973;0.685119
1.18349;0.688009
1.18728;0.690864
1.19492;0.696486
1.19878;0.699244
1.20267;0.701969
1.20658;0.70467
1.21052;0.707332
1.21848;0.712552
1.22249;0.715121
1.22652;0.71764
1.23467;0.722605
1.23878;0.725043
1.2429;0.727447
1.24704;0.729818
1.2554;0.734442
1.2596;0.736698
1.26385;0.738931
1.27235;0.743322
1.27662;0.745463
1.28092;0.747572
1.28956;0.751692
1.29391;0.753715
1.29827;0.755697
1.30702;0.759575
1.31144;0.761455
1.31585;0.763308
1.32473;0.766949
1.32918;0.768712
1.33366;0.77044
1.34261;0.773789
1.34708;0.775409
1.35136;0.776913
1.35965;0.779747
1.36369;0.781064
1.36748;0.782286
1.37473;0.784558
1.37822;0.785616
1.38148;0.786586
1.38777;0.788441
1.39082;0.789303
1.39368;0.790099
1.39643;0.790844
1.39907;0.791543
1.40424;0.792883
1.40673;0.79351
1.40921;0.794124
1.41378;0.795221
1.41591;0.795719
1.41788;0.796181
1.42164;0.797027
1.42347;0.797429
1.42517;0.797823
1.42681;0.798177
1.42846;0.79855
1.42847;0.798557
1.43098;0.79904
1.43233;0.799313
1.43368;0.799581
1.435;0.799844
1.43758;0.800349
1.43878;0.800577
1.44106;0.801005
1.44215;0.801211
1.44213;0.801221
1.44214;0.801219
1.44294;0.801374
1.44386;0.801545
1.44479;0.80171
1.44577;0.801874
1.44634;0.801972
1.44711;0.802107
1.4487;0.802376
1.44949;0.80252
1.45024;0.802644
1.4517;0.802882
1.45242;0.802995
1.45312;0.803091
1.45376;0.803194
1.45501;0.803387
1.45563;0.803481
1.45975;0.804078
1.46034;0.804155
1.46065;0.804198
1.46148;0.804302
1.46191;0.804357
1.46234;0.804406
1.46277;0.804461
1.4636;0.804565
1.46402;0.804616
1.46478;0.804708
1.46516;0.804754
1.46547;0.80479
1.46609;0.804868
1.46639;0.804899
1.46669;0.804933
1.467;0.804969
1.46756;0.805038
1.46783;0.805069
1.4681;0.805095
1.46854;0.805139
1.46878;0.805161
1.46897;0.805181
1.46919;0.805214
1.46964;0.805256
1.46986;0.805278
1.4703;0.805318
1.47051;0.805339
1.47073;0.80536
1.47116;0.805399
1.47137;0.805416
1.47156;0.80543
1.47196;0.805473
1.47216;0.80549
1.47234;0.805505
1.47272;0.805533
1.47291;0.805546
1.47329;0.805576
1.47346;0.805588
1.47356;0.805598
1.4737;0.80561
1.47402;0.805629
1.4742;0.805636
1.47437;0.805647
1.47471;0.805672
1.47488;0.805718
1.47502;0.805741
1.4753;0.805759
1.47548;0.805771
1.4756;0.80578
1.47567;0.805785
1.47578;0.805804
1.47589;0.805815
1.47597;0.805825
1.47621;0.805852
1.47631;0.805858
1.47641;0.805865
1.4764;0.805855
1.47645;0.805851
1.47655;0.805857
1.47664;0.805861
1.47674;0.805868
1.47699;0.805884
1.47711;0.805881
1.47722;0.805879
1.47746;0.805893
1.47759;0.8059
1.47772;0.80591
1.47787;0.805912
1.47795;0.805913
1.47806;0.805922
1.47828;0.80593
1.47837;0.805925
1.47846;0.805919
