0.0794096
0.0700605
0.0648252
0.0659382
0.0779353
0.0815693
0.0711508
0.0784479
0.0809002
0.0761266
0.0662323
0.0740051
0.079159
0.102269
0.0788282
0.0664719
0.0753455
0.0735836
0.0782772
0.0914028
0.0835774
0.0746114
0.0744497
0.0881187
0.0725389
0.0853833
0.0726513
0.0710878
0.0861108
0.0891088
0.0770116
0.0707976
0.0669913
0.0771069
0.0762462
0.0746524
0.0762092
0.0751949
0.0753387
0.0694552
0.0680644
0.0712012
0.0868403
0.0899546
0.0815793
0.0696058
0.0712798
0.0735512
0.0750505
0.0720682
0.0672998
0.0628283
0.0792523
0.0729416
0.0698742
0.0682244
0.0808783
0.0821127
0.0613585
0.0667377
0.0729055
0.0629592
0.0642526
0.0697952
0.0737038
0.065931
0.065437
0.0625443
0.0663453
0.0781506
0.0714991
0.0680184
0.0699978
0.0816182
0.0736866
0.0723039
0.0744156
0.0693792
0.0723849
0.0717043
0.0770919
0.0709754
0.0834183
0.0732217
0.0608298
0.0840667
0.0662852
0.0918865
0.0802733
0.0784883
0.0732939
0.0750047
0.0742049
0.0675003
0.0812004
0.0681113
0.0804111
0.079636
0.0779936
0.0865551
0.0792461
0.0744906
0.0813446
0.0801955
0.0681978
0.0657079
0.0647155
0.0666929
0.064683
0.0759046
0.0659905
0.0955213
0.0677841
0.0845618
0.0739653
0.068131
0.0946541
0.080362
0.0753576
0.0741168
0.0771626
0.067255
0.0876432
0.0737547
0.0948956
0.0824437
0.0832021
0.086427
0.0990836
0.0825527
0.0721756
0.0833129
0.0805363
0.0811243
0.0904393
0.0801751
0.0802027
0.0864845
0.0720551
0.144651
0.0766294
0.0887011
0.0786434
0.0801036
0.0956948
0.165897
0.0844834
0.0897839
0.0835207
0.0754042
0.0957178
0.0718499
0.0812153
0.0793445
0.0810358
0.0651364
0.0695381
0.0687378
0.0943756
0.0725128
0.072415
0.0869855
0.0619526
0.0840371
0.0859719
0.0671618
0.0652438
0.0573533
0.0586765
0.0680957
0.0671251
0.0656855
0.0654263
0.0885937
0.0653022
0.0634852
0.0634082
0.070153
0.072521
0.0622197
0.0620083
0.0774968
0.0869222
0.0556877
0.0791775
0.0661673
0.0805793
0.063022
0.067881
0.0657681
0.0741675
0.0599422
0.0694696
0.0680429
0.0765235
0.085409
0.0632712
0.062184
0.0654296
0.0661247
0.064705
0.0600753
0.0655644
0.0681952
0.0726735
0.0603659
0.0624468
0.0676272
0.0688084
0.0714814
0.0674985
0.0638482
0.0695809
0.0937258
0.100369
0.100077
0.131793
0.100624
0.116809
0.11115
0.0688206
0.0987918
0.0826418
0.0864218
0.0851798
0.102675
0.0781312
0.0746464
0.0774995
0.0756691
0.0680482
0.0951349
0.0925096
0.0884114
0.0866022
0.113102
0.0843328
0.0992934
0.0944059
0.105865
0.0980803
0.0855413
0.0942359
0.0749296
0.086317
0.0790405
0.0791688
0.0839244
0.0807309
0.0981514
0.0876561
0.0882898
0.0821648
0.101912
0.100565
0.114269
0.104442
0.0878575
0.094086
0.0924908
0.100882
0.0838683
0.103927
0.105514
0.098003
0.0951046
0.0928326
0.0767895
0.0990019
0.0816838
0.0805145
0.0894843
0.0802401
0.0794816
0.0802043
0.0855527
0.0786085
0.104135
0.0853401
0.08231
0.0843498
0.0941431
0.0881279
0.0940892
0.0851532
0.0949839
0.0942074
0.0940862
0.0953888
0.106012
0.095505
0.0886273
0.0948635
0.106313
0.0870169
0.107456
0.0868343
0.0994262
0.0843605
0.0993369
0.0890119
0.0850149
0.0814804
0.0940823
0.0904104
0.0914657
0.11351
0.103981
0.0972515
0.0974353
0.107071
0.0938516
0.0842945
0.100558
0.087139
0.115666
0.0862772
0.0837982
0.0861381
0.0895008
0.0815973
0.0834842
0.0888494
0.0857331
0.0834143
0.087592
0.0853862
0.0878356
0.0871982
0.0984979
0.0971432
0.100537
0.107115
0.112916
0.108757
0.126324
0.0959894
0.0926672
0.109609
0.124347
0.118113
0.106696
0.128055
0.110435
0.122405
0.118672
0.0987091
0.0971346
0.0869803
0.0716414
0.0758705
0.076874
0.0718051
0.0654217
0.0731714
0.071765
0.0742397
0.0572662
0.0596139
0.0680071
0.0791617
0.067354
0.0742507
0.0619636
0.0644336
0.0481442
0.0657316
0.0775321
0.0653031
0.0672813
0.0724401
0.0468836
0.0714242
0.0670458
0.0675703
0.0688157
0.0759374
0.0700472
0.0817418
0.0844628
0.0731929
0.0721572
0.0931154
0.0755653
0.0921975
0.0834031
0.126544
0.0872728
0.0806412
0.0778352
0.0945892
0.0964732
0.0889364
0.0683757
0.0688219
0.0677152
0.102741
0.072833
0.0713136
0.105611
0.0852229
0.0660602
0.0850782
0.0650147
0.0762224
0.0746892
0.0785048
0.0707652
0.0804271
0.0813052
0.0689948
0.0757902
0.0688087
0.0665368
0.0722625
0.072366
0.0764179
0.0802606
0.0688085
0.076672
0.0738959
0.073351
0.0682737
0.0834133
0.0736042
0.0756691
0.0780355
0.0830289
0.0815014
0.0735246
0.0719805
0.0732757
0.0685911
0.0799552
0.0753612
0.0654895
0.069162
0.0922671
0.0888659
0.0760173
0.0765245
0.0719695
0.081038
0.0764254
0.0740822
0.0825868
0.0820133
0.0744418
0.0829326
0.0757096
0.0641254
0.0678252
0.0769008
0.0685135
0.0731256
0.0821779
0.0655882
0.0726334
0.0807195
0.0683907
0.0706806
0.0742717
0.0764877
0.0698973
0.0803204
0.0735266
0.0806029
0.0679058
0.0782762
0.0776137
0.083992
0.0889772
0.0667095
0.0687652
0.0708502
0.0677524
0.0814446
0.0735327
0.0679472
0.0679507
0.0728304
0.076042
0.0671578
0.0663227
0.0761138
0.066574
0.0714729
0.0701004
0.0690276
0.0671461
0.0728029
0.0939806
0.074501
0.0667376
0.0629527
0.0648712
0.0702402
0.0734389
0.0717615
0.0731172
0.0636437
0.0700766
0.0689944
0.0667374
0.0661541
0.0705819
0.0636327
0.0662753
0.0684445
0.0726236
0.0744876
0.0693004
0.0745967
0.0729492
0.0759046
0.0866655
0.0951336
0.107823
0.105067
0.0999515
0.105633
0.0908227
0.0825846
0.106585
0.0940027
0.0977626
0.118215
0.105287
0.10164
0.0914095
0.0892121
0.10906
0.120009
0.108586
0.117831
0.103855
0.0886397
0.0967966
0.0877678
0.0929475
0.0866076
0.0763028
0.0864477
0.0970773
0.0856655
0.0952785
0.0737626
0.0930129
0.0805945
0.100928
0.0971554
0.0898585
0.100158
0.0853601
0.0776726
0.0840525
0.101239
0.0936448
0.093297
0.10721
0.105101
0.0940305
0.0974998
0.111471
0.0984416
0.0896499
0.0959297
0.108182
0.0922922
0.0959136
0.104834
0.116415
0.0895144
0.0880789
0.107624
0.102493
0.092922
0.0895485
0.103074
0.0936137
0.110054
0.112183
0.104188
0.105709
0.108081
0.103264
0.100151
0.104814
0.118608
0.105024
0.120322
0.120455
0.118315
0.108588
0.102697
0.0969996
0.0831131
0.0967541
0.0910261
0.101544
0.114588
0.100383
0.0939438
0.0966167
0.102012
0.104333
0.102083
0.10342
0.112394
0.0954513
0.0997964
0.0929678
0.100664
0.0936506
0.100658
0.104111
0.112139
0.0802529
0.0802685
0.0912342
0.094482
0.0985622
0.106164
0.0980421
0.0931837
0.102571
0.0962682
0.0815375
0.108517
0.0893107
0.0840318
0.0905809
0.0847066
0.0656763
0.0641011
0.0584397
0.0597472
0.0749102
0.0803034
0.0705959
0.0763222
0.0778491
0.0632957
0.0628762
0.0740139
0.0822783
0.0795177
0.0802543
0.079626
0.0709945
0.0765524
0.0763669
0.0904599
0.0804708
0.0746062
0.0662351
0.0789892
0.0927224
0.0891839
0.0893448
0.0735702
0.111423
0.124861
0.0802768
0.111329
0.0695744
0.0619959
0.0625693
0.0606452
0.069021
0.0584898
0.0681442
0.0552635
0.107058
0.0770505
0.0792346
0.0677027
0.0663554
0.0754369
0.0721696
0.0709448
0.0598345
0.0610405
0.0747399
0.0711548
0.0844211
0.0694578
0.0604619
0.0515048
0.0615822
0.0678025
0.0652971
0.0832676
0.0846392
0.0597108
0.0651964
0.0668059
0.0593587
0.0675464
0.0596697
0.0664115
0.0578978
0.0653949
0.0699726
0.0623645
0.0705677
0.0711601
0.0703537
0.0603056
0.0597587
0.0595821
0.0689829
0.0633462
0.0712138
0.0721275
0.0574296
0.0598665
0.0855707
0.0736675
0.0742513
0.0724967
0.0746791
0.0693064
0.0726815
0.0807291
0.069697
0.0731408
0.0814915
0.0726879
0.070243
0.0670034
0.0688373
0.0719641
0.0689131
0.0782851
0.073749
0.0724092
0.0735391
0.0697508
0.0673069
0.0955429
0.0692335
0.0739574
0.0730372
0.0765294
0.0879189
0.0705432
0.0810679
0.0737018
0.0730622
0.065175
0.0785887
0.0728788
0.077274
0.0749733
0.0712806
0.0705937
0.0652116
0.0668608
0.0799914
0.0766639
0.0731674
0.0693319
0.070381
0.0703715
0.0741967
0.0822312
0.0698785
0.0743307
0.0585578
0.0646922
0.0682886
0.0750012
0.0791493
0.072757
0.0759604
0.0705978
0.0820849
0.0679145
0.0659838
0.0712634
0.0793138
0.080052
0.0686733
0.0715117
0.0824744
0.0776385
0.092077
0.0661587
0.0768261
0.0755119
0.0677975
0.075673
0.0648629
0.0808095
0.0829439
0.0708489
0.0693959
0.0655277
0.0733481
0.0792054
0.0891078
0.0690965
0.079827
0.071419
0.0839152
0.0788135
0.0789133
0.083699
0.0727085
0.0723587
0.0772503
0.0762158
0.0728726
0.0726723
0.0693163
0.0750387
0.0774799
0.0730201
0.067966
0.0798759
0.0791707
0.071445
0.0970918
0.0654531
0.0650769
0.075014
0.0669531
0.0682494
0.0841354
0.0807986
0.072886
0.0690789
0.0713627
0.0769708
0.0748317
0.0761191
0.0761053
0.0772329
0.0754792
0.0713969
0.0842038
0.0768227
0.0866706
0.0810296
0.0658943
0.0774954
0.0802541
0.0939419
0.0662245
0.0840391
0.0770033
0.066769
0.063089
0.0627224
0.0829069
0.0824114
0.0909964
0.0786278
0.0839141
0.0743909
0.084788
0.0804578
0.0614987
0.0632042
0.0741434
0.077659
0.0761557
0.0634169
0.060693
0.0667727
0.0668395
0.0715832
0.0782604
0.0842215
0.0762879
0.0757214
0.0724627
0.0664708
0.0670891
0.06956
0.0747603
0.067744
0.0674091
0.0664517
0.0675882
0.067838
0.0939087
0.0825266
0.066829
0.0830568
0.0655603
0.0647757
0.0773692
0.0714891
0.0641061
0.0729169
0.0723794
0.0732493
0.0703836
0.0791116
0.0803749
0.0789727
0.0707733
0.0711252
0.0796089
0.0730824
0.0661324
0.0784306
0.0724559
0.07266
0.0713927
0.0854998
0.0764371
0.0839698
0.101355
0.0687724
0.0706093
0.0812988
0.0739713
0.0690578
0.0675849
0.0652047
0.0610044
0.0774404
0.0620118
0.0672889
0.0706209
0.0597281
0.0788924
0.0648484
0.0733109
0.0738124
0.0719161
0.0680211
0.0617107
0.0655375
0.0869214
0.0691555
0.0710922
0.0832599
0.0706871
0.0677427
0.070716
0.0748055
0.0713381
0.0644042
0.0610584
0.0806843
0.0666106
0.0661255
0.0690262
0.0663467
0.0747116
0.0788713
0.0730945
0.0678648
0.0636631
0.0650244
0.0627783
0.0783018
0.0687168
0.0659124
0.0742195
0.0732441
0.0760747
0.0763229
0.0674484
0.0666468
0.066872
0.0646683
0.0638302
0.0892797
0.0626724
0.0722486
0.0781799
0.0661542
0.0699153
0.0705322
0.0714841
0.0695865
0.0642671
0.065433
0.0786791
0.0635676
0.0644435
0.0612983
0.05961
0.0623571
0.070415
0.0775243
0.0678035
0.0648664
0.0629731
0.066506
0.0795478
0.0718207
0.0639497
0.0647143
0.0676838
0.0607522
0.0608082
0.0685422
0.0650685
0.0625531
0.0773097
0.0639347
0.0732058
0.0791067
0.0687077
0.0615398
0.0647899
0.0741044
0.0819857
0.0695804
