0.0646926
0.0623468
0.0679498
0.0739828
0.0703356
0.076877
0.0729673
0.0683263
0.0671499
0.0701596
0.0644643
0.0689787
0.0739613
0.0671594
0.0710174
0.067193
0.0724256
0.0634112
0.07273
0.075806
0.0677842
0.0738535
0.0705905
0.0700452
0.0861264
0.0869438
0.0752871
0.0670731
0.0663458
0.0751041
0.0805142
0.0665808
0.0771459
0.0801847
0.0799031
0.0741005
0.0829241
0.0766242
0.0682904
0.0797893
0.0757658
0.0925464
0.07538
0.0804935
0.07279
0.0804323
0.0849276
0.0642561
0.0746451
0.0709997
0.077056
0.0712899
0.0650279
0.0786538
0.0886643
0.0672392
0.0702923
0.0687008
0.0763732
0.0598991
0.0708978
0.063219
0.0629385
0.0696894
0.0638677
0.068393
0.106738
0.0729307
0.0810835
0.0714396
0.072346
0.0893525
0.0747921
0.0683478
0.071382
0.0757218
0.0774238
0.0909822
0.0706691
0.0910605
0.0749074
0.0814291
0.0965275
0.0758936
0.0774337
0.0933024
0.0830999
0.0815159
0.0726684
0.0944903
0.0778962
0.0845647
0.0648758
0.0663922
0.0765931
0.0735335
0.0722447
0.0824787
0.0730487
0.069215
0.069269
0.069211
0.0698171
0.0968786
0.0665787
0.0944294
0.0755736
0.0875082
0.0736364
0.0943869
0.0615439
0.160141
0.0881888
0.0750787
0.0687595
0.0982049
0.0646073
0.0790161
0.0706075
0.0661752
0.0714915
0.0608188
0.0794534
0.0608334
0.0783152
0.0583629
0.0667228
0.084298
0.0713275
0.0659324
0.0612507
0.0723623
0.0620508
0.0792122
0.0838778
0.0879587
0.0687276
0.0807292
0.0609121
0.0589371
0.0845002
0.0788565
0.0796631
0.243932
0.0620204
0.0704231
0.0964362
0.0766433
0.0710661
0.0625471
0.069276
0.0637898
0.0668507
0.0691546
0.0602015
0.0733149
0.0607449
0.0755892
0.0887432
0.0736504
0.0806164
0.0715664
0.0589476
0.0731367
0.0804417
0.0630073
0.0738876
0.084909
0.0686072
0.084449
0.0754847
0.0720302
0.0718174
0.0849717
0.0721897
0.0703926
0.0860451
0.0682955
0.0749561
0.0661671
0.0599167
0.0627055
0.0821799
0.0767663
0.0659988
0.0725256
0.0698337
0.0667752
0.0632359
0.0666822
0.0635557
0.064685
0.066138
0.07511
0.0656814
0.0656604
0.0569299
0.0659664
0.0568816
0.0565122
0.0684881
0.0579032
0.0582945
0.066104
0.0704624
0.057861
0.0671161
0.0666008
0.0587518
0.0606393
0.0609545
0.0642294
0.0604651
0.0825646
0.0649701
0.0674082
0.0612248
0.0623729
0.0605266
0.0629979
0.0668454
0.0615457
0.0707867
0.0626509
0.0688188
0.0695317
0.0658908
0.0655276
0.0617371
0.0646895
0.0654975
0.0633099
0.0599258
0.0600637
0.0629871
0.0716203
0.0654225
0.0654491
0.0679568
0.0619109
0.0689068
0.0787375
0.059393
0.0640138
0.0721984
0.0649306
0.0668796
0.0598004
0.0662254
0.0656366
0.0600281
0.0628952
0.0643602
0.0700029
0.0617181
0.0683015
0.0784558
0.0694194
0.0708074
0.0729064
0.0776183
0.0660141
0.0705438
0.0661364
0.0596651
0.0616553
0.0764553
0.0626466
0.0644144
0.0666843
0.0608787
0.0652686
0.0635105
0.0650694
0.0631491
0.0616155
0.0618717
0.0687671
0.0598792
0.0597331
0.0607125
0.0600734
0.0724165
0.064513
0.0663177
0.0727643
0.0657094
0.065759
0.0600695
0.0606199
0.0606222
0.0590899
0.063841
0.060544
0.062231
0.0686101
0.0620898
0.0590294
0.0740559
0.0659197
0.066391
0.059711
0.0647264
0.0586418
0.0631064
0.069603
0.0851037
0.0658902
0.0601509
0.0590412
0.0657629
0.0662144
0.0625841
0.0711853
0.0609162
0.0645775
0.0715218
0.0618569
0.0663031
0.0605296
0.0708531
0.0679624
0.0646613
0.0661243
0.0668463
0.0743165
0.064945
0.0586655
0.0667083
0.066335
0.061692
0.0591772
0.0673535
0.0653947
0.0603401
0.065547
0.067043
0.0599556
0.0675947
0.0677529
0.0659803
0.0672611
0.0598962
0.0592214
0.0640591
0.0594561
0.0621617
0.065349
0.0621831
0.0700365
0.06112
0.0653171
0.0660068
0.0602064
0.0618881
0.0682368
0.0629957
0.0583163
0.0639356
0.0598822
0.0630983
0.0553487
0.0683454
0.0807854
0.0740947
0.0634338
0.0664097
0.0629549
0.0746694
0.0622059
0.0600023
0.0612655
0.0621784
0.0617392
0.0614739
0.0711717
0.088764
0.0660887
0.0713244
0.080331
0.0666336
0.0701729
0.0740839
0.0665289
0.0614836
0.0615455
0.0650708
0.0636208
0.0813713
0.0724501
0.0662856
0.0658819
0.0760937
0.064509
0.0624257
0.068405
0.0644204
0.0739824
0.0670287
0.0603778
0.0602224
0.069402
0.0686146
0.063052
0.0644048
0.0711277
0.0668223
0.0576757
0.0632571
0.0666062
0.0725207
0.0579627
0.0687983
0.0646282
0.0670738
0.064696
0.0629652
0.0833042
0.0602167
0.0714593
0.0568521
0.0587388
0.0595713
0.0591352
0.0752643
0.0629233
0.0579985
0.067505
0.0628473
0.0608768
0.0556977
0.0636043
0.0590362
0.0642404
0.0575601
0.060797
0.0601708
0.0591238
0.0656241
0.080789
0.0632755
0.0618987
0.0595844
0.0668934
0.0657198
0.0605518
0.0679784
0.0656173
0.0689023
0.067686
0.0735946
0.0667409
0.0738485
0.0688421
0.0701908
0.0658234
0.074592
0.0693675
0.0658096
0.0753093
0.078464
0.0675994
0.0712023
0.0865598
0.0708144
0.0764363
0.0826334
0.0703303
0.06606
0.0720564
0.0657814
0.0691519
0.0715808
0.0661674
0.0635093
0.0825416
0.0726149
0.0656098
0.0683964
0.0690259
0.0716061
0.0639598
0.0694998
0.0742312
0.0673872
0.0724246
0.0703065
0.0725687
0.0702659
0.0682802
0.0669589
0.0708265
0.0747248
0.0686526
0.0645237
0.0721854
0.0781192
0.0684306
0.0677701
0.073779
0.0766439
0.0757098
0.0659708
0.0685428
0.0656074
0.0666261
0.0774067
0.0666447
0.069028
0.0738987
0.0674785
0.0744432
0.0674674
0.0686553
0.073622
0.071376
0.0720665
0.0780719
0.0672314
0.0727486
0.0703908
0.0636981
0.0699667
0.0688065
0.0677087
0.0755397
0.074162
0.0657665
0.0683598
0.0663351
0.0763447
0.0646198
0.0657114
0.0752522
0.0690769
0.0818997
0.0702228
0.073028
0.0743951
0.0701833
0.0666614
0.0695937
0.0632345
0.0787029
0.0747622
0.0697315
0.0663069
0.0733195
0.069527
0.0671334
0.0637385
0.0709279
0.0712425
0.0745754
0.0721815
0.081118
0.0690936
0.0640854
0.0716209
0.0668183
0.0682305
0.0644994
0.0722632
0.0678482
0.0737093
0.0764163
0.0828209
0.0647684
0.067948
0.0652036
0.0659853
0.0766011
0.0713946
0.0624251
0.0701646
0.0760307
0.0870906
0.064982
0.0649991
0.0673036
0.0666162
0.0625399
0.0629323
0.0645316
0.0616249
0.0657715
0.0656578
0.0610756
0.0625453
0.0698403
0.0646994
0.0681748
0.0707909
0.0615289
0.0652161
0.0726702
0.0666272
0.0708648
0.077386
0.0657964
0.0700286
0.0818742
0.0697835
0.0673573
0.0695917
0.0685567
0.0687113
0.0744785
0.0641276
0.069539
0.0717993
0.0694982
0.0700724
0.0711132
0.0775116
0.0675895
0.0750277
0.0648233
0.076657
0.0706891
0.0780859
0.056252
0.0690854
0.0675105
0.0628304
0.065397
0.0612287
0.067946
0.0694691
0.0628382
0.0694024
0.0719351
0.0722946
0.0606891
0.0610516
0.0642741
0.0601492
0.0714053
0.0637015
0.0694652
0.0653944
0.0626701
0.0644341
0.0728709
0.0681386
0.068102
0.066067
0.0648242
0.0627062
0.065825
0.0674435
0.070991
0.0656863
0.0740929
0.0766708
0.0688171
0.0667199
0.0628714
0.0721768
0.0728611
0.0679474
0.0705304
0.0670605
0.0822844
0.06935
0.067163
0.072789
0.0788032
0.0673531
0.0644577
0.0690274
0.0739925
0.0631096
0.062128
0.0692128
0.0779769
0.0667631
0.0664992
0.0703625
0.073321
0.06617
0.0711972
0.0670735
0.0748632
0.063683
0.0687705
0.0787291
0.0673118
0.0671622
0.0745193
0.0695202
0.07129
0.0639702
0.0634169
0.0626915
0.0755505
0.0590271
0.0668295
0.0629681
0.0710403
0.0657038
0.0686288
0.0640036
0.0658619
0.0686411
0.0733658
0.0695671
0.0635521
0.0649609
0.0644274
0.0631861
0.0702292
0.068105
0.0709463
0.0753611
0.0715279
0.064255
0.068004
0.0654576
0.0626374
0.0776775
0.0640471
0.0661095
0.0668695
0.0660889
0.0652667
0.0655432
0.0728392
0.0692473
0.0639294
0.0648693
0.0655133
0.0686238
0.0676154
0.0645809
0.0873918
0.073979
0.0661119
0.0720404
0.0687797
0.0738752
0.0659489
0.0613241
0.0702596
0.0664969
0.0697352
0.0738591
0.0654052
0.0628664
0.0655508
0.0664726
0.0688025
0.064821
0.0635001
0.0721931
0.0699832
0.0654403
0.0648033
0.066132
0.0682438
0.0719365
0.073354
0.0786091
0.0651376
0.0692927
0.0619774
0.0625328
0.0641292
0.0712692
0.0636034
0.0880418
0.0736768
0.0683762
0.065209
0.0628443
0.0761866
0.0711212
0.064567
0.0707658
0.0671748
0.0652409
0.0625899
0.0630737
0.0636636
0.0641492
0.0753638
0.0674745
0.0760499
0.0721789
0.0737423
0.0686835
0.070269
0.056268
0.0598593
0.0627838
0.0670534
0.0669745
0.0604566
0.0604213
0.065558
0.070528
0.0674872
0.058722
0.0758483
0.0676748
0.0672457
0.066887
0.0709962
0.0670801
0.0817735
0.0831484
0.0656353
0.0651876
0.077653
0.07743
0.0717696
0.0663919
0.0739145
0.0688974
0.0643
0.0673745
0.0638201
0.0636409
0.067021
0.0637397
0.0657139
0.0605628
0.0696509
0.0731278
0.0717672
0.0597947
0.0620804
0.0694877
0.0662589
0.0701142
0.0872874
0.0650703
0.0709307
0.0618691
0.060254
0.0613044
0.0712204
0.0734908
0.0638671
0.0751612
0.0687618
0.0615829
0.0658388
0.059282
0.0619664
0.0595815
0.0623021
0.0765858
0.0696596
0.0766709
0.0786232
0.0741675
0.0685568
0.0630047
0.06842
0.0780935
0.0570326
0.0670857
0.0691808
0.0721224
0.0599911
0.071931
0.0777949
0.0640147
0.0615835
0.0615774
0.0672969
0.0652309
0.0670129
0.07296
0.0711417
0.0706266
0.0631334
0.0774115
0.0638191
0.0610094
0.060146
0.0647457
0.0706356
0.063162
0.0828687
0.0583022
0.0666938
0.0614701
0.0612734
0.0598432
0.0627845
0.060811
0.0600244
0.062339
0.0709125
0.0594745
0.0606491
0.0621883
0.0699491
0.0665737
0.0667926
0.0674477
0.0586861
0.0613296
0.0671939
0.0602298
0.0640522
0.0618863
0.0591072
0.0672759
0.0587405
0.0729135
0.0727271
0.0626454
