4.03342e-05;0.501954
4.34542e-05;0.501945
4.04326e-05;0.501697
3.67954e-05;0.501346
3.13695e-05;0.500611
1.64677e-05;0.500227
-2.74969e-06;0.499171
-1.1662e-05;0.498811
-1.89842e-05;0.498509
-2.78668e-05;0.497953
-3.8575e-05;0.497688
-5.58079e-05;0.49722
-6.57768e-05;0.497016
-0.000107959;0.496655
-0.0001124;0.496494
-0.000129754;0.49616
-0.000144248;0.49601
-0.000157554;0.495772
-0.000161756;0.495684
-0.000172542;0.49549
-0.000180284;0.495354
-0.000186756;0.495291
-0.000212598;0.49514
-0.000214893;0.495061
-0.000223186;0.494989
-0.000241644;0.494842
-0.000238961;0.494803
-0.000240172;0.494757
-0.000231781;0.494694
-0.00023238;0.494652
-0.000265865;0.49441
-0.00027611;0.494331
-0.000285807;0.494305
-0.000274287;0.494346
-0.000269983;0.494352
-0.000265543;0.494409
-0.000249301;0.49445
-0.000248568;0.494448
-0.000261709;0.494407
-0.000265932;0.494382
-0.000270346;0.494368
-0.000268515;0.494369
-0.000297575;0.494279
-0.000296397;0.494248
-0.000305465;0.494207
-0.000303505;0.494214
-0.000288828;0.49424
-0.000287194;0.494242
-0.000251012;0.494346
-0.000237721;0.49438
-0.000229575;0.494408
-0.000215307;0.494464
-0.000208071;0.494486
-0.000290211;0.494306
-0.000470701;0.493887
-0.000555855;0.493666
-0.000749642;0.493229
-0.000845429;0.493007
-0.000971197;0.49276
-0.00123786;0.492226
-0.00141846;0.491873
-0.00158365;0.491552
-0.00187421;0.491013
-0.00199487;0.49079
-0.00216697;0.490483
-0.0024229;0.490016
-0.00256224;0.489791
-0.00266019;0.489624
-0.00277083;0.489426
-0.00283127;0.48933
-0.00286231;0.489275
-0.00294148;0.489154
-0.00295926;0.489115
-0.00295962;0.489107
-0.00290788;0.489185
-0.00280181;0.489336
-0.00254628;0.489677
-0.00240483;0.489856
-0.00220783;0.490107
-0.00206281;0.490291
-0.00191999;0.490473
-0.00148218;0.491034
-0.0011942;0.491385
-0.00067211;0.492004
-0.000444345;0.492262
0.000150657;0.492939
0.000501436;0.493329
0.000887691;0.493745
0.00177761;0.494701
0.00217483;0.49513
0.00257714;0.495547
0.00350047;0.496495
0.00401245;0.497002
0.0045149;0.49751
0.0057178;0.498671
0.00630481;0.499218
0.00690068;0.499773
0.00737082;0.50019
0.0080265;0.500788
0.00941254;0.502024
0.0102126;0.502726
0.0109731;0.503386
0.0125167;0.504681
0.0132985;0.505321
0.0150355;0.506716
0.0159658;0.507445
0.0169812;0.508235
0.0189812;0.509756
0.0199819;0.510516
0.0210658;0.511303
0.0232784;0.512867
0.0244604;0.513685
0.025704;0.51452
0.0282136;0.516141
0.0294973;0.516983
0.0322029;0.518702
0.0335696;0.519542
0.0349779;0.520399
0.0379754;0.522171
0.0394979;0.523037
0.0425941;0.524765
0.0441674;0.525627
0.0458341;0.526536
0.0492871;0.528329
0.0510761;0.529242
0.0528636;0.530153
0.0565082;0.53194
0.0583718;0.532802
0.0622448;0.534579
0.0642338;0.535461
0.0682349;0.537202
0.0702746;0.538059
0.0723255;0.538921
0.0765492;0.540588
0.0787352;0.541461
0.0830704;0.543092
0.0852866;0.543885
0.087548;0.54469
0.0921825;0.54629
0.0945189;0.547042
0.0992257;0.548565
0.101581;0.549303
0.103942;0.550024
0.106352;0.550743
0.106487;0.55074
0.108632;0.551368
0.113347;0.552723
0.115891;0.553429
0.118444;0.554118
0.123629;0.55546
0.126249;0.556103
0.131595;0.557399
0.136971;0.55861
0.139657;0.559191
0.141398;0.559559
0.14381;0.560048
0.148891;0.561063
0.151548;0.561566
0.159906;0.563037
0.162744;0.563478
0.162762;0.563495
0.16444;0.563781
0.166878;0.564177
0.168875;0.564545
0.170823;0.564838
0.173398;0.565219
0.179007;0.566011
0.181965;0.566403
0.184959;0.566786
0.19099;0.567508
0.194005;0.567876
0.199896;0.568496
0.202791;0.568779
0.211557;0.569561
0.211557;0.569561
0.214487;0.56979
0.220179;0.570202
0.223008;0.5704
0.225783;0.570567
0.231499;0.57091
0.234392;0.571049
0.240156;0.571298
0.242993;0.571407
0.245719;0.571507
0.251116;0.571667
0.253887;0.571737
0.259411;0.571841
0.262155;0.571877
0.264811;0.571904
0.270001;0.571936
0.272563;0.571941
0.277829;0.571894
0.280502;0.571855
0.2831;0.57182
0.290809;0.571679
0.290809;0.571679
0.295722;0.571549
0.298272;0.571476
0.300803;0.571394
0.305739;0.571163
0.30818;0.571071
0.310613;0.570964
0.315307;0.570764
0.317814;0.570641
0.322755;0.570385
0.325232;0.570239
0.327655;0.570121
0.332302;0.569889
0.33457;0.569742
0.339388;0.569411
0.341839;0.569245
0.344191;0.569079
0.348775;0.568743
0.351028;0.56856
0.353203;0.568385
0.357829;0.568009
0.360181;0.567813
0.362488;0.56758
0.367046;0.567151
0.367069;0.567121
0.367084;0.567122
0.368993;0.566956
0.371352;0.56674
0.373796;0.566496
0.378709;0.566032
0.381149;0.5658
0.385875;0.56532
0.388308;0.565061
0.39071;0.564803
0.395503;0.56429
0.397868;0.56403
0.400157;0.563776
0.404589;0.563285
0.409285;0.562724
0.411639;0.56245
0.413863;0.56217
0.422565;0.56111
0.424748;0.560833
0.42863;0.560324
0.43065;0.560062
0.432619;0.559818
0.436502;0.559319
0.438425;0.559073
0.442187;0.55858
0.444082;0.558329
0.447921;0.557805
0.451841;0.557269
0.453819;0.556989
0.455632;0.556726
0.45741;0.556489
0.460905;0.555999
0.462797;0.555735
0.464707;0.55546
0.468558;0.554918
0.470493;0.554641
0.474153;0.554104
0.476009;0.553871
0.477923;0.553595
0.481791;0.553007
0.483739;0.55272
0.487401;0.552171
0.489241;0.551907
0.490974;0.551648
0.49473;0.551101
0.496665;0.550815
0.498574;0.550525
0.502312;0.549937
0.504083;0.549663
0.50762;0.549119
0.511326;0.548534
0.513211;0.548245
0.515085;0.547956
0.518627;0.5474
0.520435;0.547102
0.522094;0.546835
0.523912;0.546544
0.527606;0.545943
0.529473;0.545646
0.532962;0.545051
0.5364;0.544502
0.538132;0.544227
0.539831;0.543958
0.541619;0.543676
0.545226;0.543107
0.547015;0.542818
0.550372;0.542269
0.552032;0.541991
0.553906;0.541687
0.557626;0.541079
0.559505;0.540776
0.561283;0.540479
0.56479;0.539887
0.566503;0.539596
0.570147;0.538985
0.573689;0.538389
0.573689;0.538389
0.577153;0.537795
0.580658;0.537205
0.582399;0.536906
0.58255;0.536903
0.584011;0.536635
0.587608;0.536016
0.58941;0.535693
0.592949;0.535058
0.594648;0.534746
0.596497;0.534405
0.60031;0.533725
0.602244;0.533374
0.604061;0.533046
0.607622;0.532408
0.609422;0.532091
0.613102;0.531452
0.614958;0.531133
0.616807;0.530819
0.620305;0.530207
0.622022;0.529912
0.625409;0.529334
0.627253;0.52903
0.629078;0.528717
0.632705;0.528106
0.634509;0.527792
0.638008;0.527184
0.641284;0.526647
0.642923;0.526375
0.644697;0.526085
0.646438;0.525789
0.646508;0.525804
0.646505;0.525814
0.647984;0.52556
0.651532;0.524961
0.653608;0.524612
0.657686;0.523935
0.659686;0.523595
0.661704;0.523251
0.665273;0.522648
0.667251;0.522303
0.67123;0.521637
0.673182;0.52131
0.673289;0.521312
0.673297;0.521326
0.676513;0.520776
0.678494;0.520436
0.682682;0.519737
0.684779;0.51937
0.686775;0.519049
0.690682;0.518412
0.692608;0.5181
0.696605;0.51744
0.698622;0.517116
0.702509;0.516492
0.704464;0.516156
0.708084;0.515583
0.709825;0.515311
0.711486;0.515051
0.714739;0.514557
0.716371;0.514309
0.71952;0.513842
0.720959;0.513629
0.72232;0.51343
0.724971;0.513047
0.726292;0.512866
0.72754;0.512695
0.729892;0.512382
0.731004;0.512238
0.733046;0.511988
0.734019;0.511871
0.73492;0.511764
0.736609;0.511575
0.737402;0.511489
0.738791;0.511352
0.739467;0.511288
0.740099;0.511222
0.741297;0.511107
0.741864;0.511055
0.74236;0.51101
0.7433;0.51094
0.744154;0.510876
0.744571;0.510852
0.744967;0.510831
0.745708;0.510795
0.74604;0.510783
0.746332;0.510771
0.746832;0.510757
0.747086;0.51075
0.747522;0.510749
0.747733;0.510753
0.747911;0.510752
0.748215;0.510755
0.748361;0.510755
0.748495;0.510757
0.748739;0.510766
0.748859;0.510771
0.749086;0.510776
0.749195;0.510784
0.749273;0.510786
0.749432;0.510793
0.749503;0.510801
0.749571;0.510809
0.749614;0.510811
0.749652;0.51081
0.74977;0.510828
0.749808;0.510831
0.749808;0.510832
0.749817;0.510837
0.749812;0.510834
0.749738;0.510825
0.749708;0.51082
0.749689;0.510817
0.749671;0.510806
0.749617;0.510797
0.749538;0.51079
0.749517;0.510787
0.749444;0.510766
0.749099;0.510669
0.74866;0.510546
0.747799;0.510325
0.747369;0.510194
0.746986;0.510071
0.746274;0.509828
0.745745;0.509647
0.744728;0.50928
0.744198;0.50909
0.743735;0.508919
0.742862;0.508617
0.742521;0.508484
0.742179;0.508348
0.741407;0.508034
0.741098;0.507901
0.740532;0.507652
0.740364;0.507571
0.740273;0.507519
0.740031;0.507421
0.739962;0.507389
0.739956;0.507384
0.740049;0.507423
0.740143;0.507469
0.740446;0.507628
0.740594;0.507708
0.740816;0.507822
0.741388;0.508139
0.741689;0.508314
0.742046;0.508536
0.742897;0.509037
0.743364;0.509316
0.744459;0.509969
0.745029;0.51032
0.745637;0.510698
0.746925;0.511514
0.747606;0.511952
0.748375;0.512455
0.75003;0.513559
0.750947;0.51415
0.751855;0.514763
0.753671;0.516026
0.753701;0.516065
0.754414;0.516564
0.755162;0.517088
0.757471;0.518748
0.758662;0.519615
0.759848;0.520491
0.762281;0.522312
0.762343;0.52231
0.763294;0.522971
0.765849;0.524941
0.767232;0.526012
0.768643;0.527116
0.771455;0.529352
0.773012;0.530617
0.776249;0.533283
0.777869;0.534638
0.779479;0.535994
0.782645;0.538743
0.784213;0.540139
0.785936;0.541658
0.789425;0.544769
0.791213;0.546392
0.794786;0.549654
0.796529;0.551252
0.798249;0.552858
0.801804;0.556208
0.803693;0.558008
0.807466;0.561662
0.809321;0.563471
0.811125;0.565237
0.814663;0.56872
0.814702;0.56873
0.814704;0.568735
0.814708;0.568739
0.818427;0.572453
0.820472;0.574494
0.824547;0.578606
0.826748;0.58085
0.831188;0.585404
0.833395;0.587747
0.83553;0.589973
0.837584;0.592133
0.841614;0.59639
0.843784;0.598673
0.848066;0.603215
0.848123;0.603294
0.848123;0.603294
0.849475;0.604676
0.850822;0.606129
0.850813;0.606212
0.855052;0.610539
0.857413;0.613057
0.859751;0.61557
0.864353;0.620547
0.866548;0.622942
0.871118;0.627909
0.873398;0.630383
0.8756;0.632777
0.87993;0.637452
0.881976;0.639685
0.88394;0.641766
0.890026;0.648342
0.892029;0.650544
0.89408;0.652768
0.895929;0.654782
0.89949;0.658634
0.901211;0.66049
0.902986;0.662388
0.906558;0.666219
0.908346;0.668119
0.910042;0.669943
0.913281;0.673374
0.914833;0.675016
0.918053;0.678419
0.918058;0.678416
0.919042;0.679441
0.920381;0.680855
0.923199;0.683777
0.924662;0.685284
0.927761;0.688473
0.929332;0.69008
0.929412;0.690105
0.930358;0.690974
0.932947;0.693589
0.934363;0.69502
0.937341;0.698011
0.938856;0.699521
0.940306;0.700974
0.943095;0.703712
0.944452;0.705038
0.947111;0.707624
0.948437;0.708898
0.949703;0.710098
0.952256;0.712497
0.953473;0.713631
0.955832;0.71583
0.956959;0.716877
0.958056;0.717872
0.960271;0.719853
0.961383;0.720833
0.962445;0.72176
0.964545;0.72359
0.965582;0.724482
0.967589;0.726184
0.968582;0.727006
0.970557;0.728631
0.97149;0.729385
0.972393;0.730118
0.974163;0.731533
0.975067;0.732241
0.976851;0.733609
0.97775;0.734292
0.978608;0.734942
0.979496;0.735596
0.980063;0.736007
0.980821;0.736569
0.982456;0.737725
0.983357;0.738364
0.985134;0.739611
0.986836;0.7408
0.987653;0.741367
0.988503;0.741934
0.989304;0.742475
0.990935;0.743564
0.991765;0.744104
0.993385;0.74515
0.994199;0.745661
0.994878;0.746085
0.996359;0.746985
0.997106;0.747429
0.998708;0.748356
0.999518;0.748813
1.00032;0.749266
1.00181;0.750105
1.00256;0.750515
1.0041;0.751345
1.00492;0.75177
1.00574;0.752189
1.00741;0.753033
1.00817;0.753399
1.00965;0.754115
1.01043;0.754483
1.01118;0.754827
1.01278;0.755562
1.0136;0.755929
1.01504;0.756551
1.01578;0.756852
1.01736;0.757493
1.01817;0.757807
1.01907;0.75816
1.02091;0.758836
1.02173;0.759134
1.02254;0.75942
1.02427;0.760015
1.02519;0.760318
1.02712;0.760923
1.02812;0.761225
1.02898;0.761476
1.03071;0.761968
1.03346;0.762703
1.03439;0.762933
1.03596;0.763306
1.03676;0.763479
1.03772;0.763692
1.03867;0.763901
1.04064;0.764298
1.04171;0.764505
1.04398;0.764922
1.0452;0.765119
1.04626;0.765281
1.04837;0.765588
1.04949;0.765732
1.05197;0.766026
1.05325;0.766171
1.0546;0.766313
1.05712;0.766525
1.0583;0.766611
1.0608;0.766758
1.06212;0.766815
1.06358;0.766869
1.06665;0.766953
1.07057;0.766964
1.07189;0.766942
1.07293;0.766918
1.07539;0.766847
1.07693;0.766778
1.08017;0.766605
1.0816;0.766508
1.08304;0.766394
1.08611;0.76612
1.08769;0.765949
1.08936;0.765763
1.09449;0.765071
1.09622;0.764806
1.09778;0.76456
1.09943;0.764277
1.10284;0.763643
1.10294;0.763638
1.10422;0.763357
1.10734;0.762682
1.10895;0.762308
1.11229;0.761495
1.11413;0.761017
1.11604;0.760505
1.12002;0.759386
1.1224;0.758667
1.12461;0.757973
1.12866;0.75665
1.13063;0.755959
1.13458;0.754532
1.1366;0.753765
1.13905;0.752816
1.14374;0.750998
1.14601;0.750105
1.14824;0.74914
1.1522;0.74734
1.1541;0.746424
1.15889;0.744093
1.16128;0.742887
1.1633;0.741845
1.16718;0.739763
1.16906;0.738724
1.16909;0.738693
1.17353;0.736234
1.17605;0.734743
1.17824;0.73341
1.18207;0.731042
1.18388;0.729881
1.18748;0.727502
1.18988;0.725858
1.1922;0.724229
1.19643;0.721179
1.1983;0.719791
1.20182;0.71708
1.20356;0.715696
1.20796;0.712136
1.21016;0.710294
1.21197;0.708734
1.21526;0.705845
1.21686;0.704384
1.21849;0.702873
1.22268;0.698866
1.22475;0.6968
1.22803;0.693435
1.22961;0.691794
1.23116;0.690198
1.2343;0.686788
1.2362;0.684633
1.23951;0.680807
1.24105;0.678965
1.24402;0.675358
1.24544;0.673579
1.24686;0.671793
1.25017;0.66747
1.25175;0.6653
1.25317;0.66336
1.2559;0.659504
1.25721;0.657586
1.25982;0.653651
1.26123;0.651471
1.26269;0.649169
1.26556;0.644478
1.26701;0.642047
1.27262;0.632361
1.27397;0.629923
1.27672;0.624852
1.27811;0.622246
1.27945;0.619689
1.28207;0.614625
1.28333;0.612142
1.28575;0.60727
1.28701;0.604727
1.29068;0.597127
1.29298;0.592267
1.29407;0.589936
1.29508;0.587772
1.29707;0.583429
1.2981;0.58118
1.29913;0.578928
1.30114;0.574468
1.30212;0.572321
1.30394;0.568261
1.30481;0.566312
1.30575;0.564237
1.30761;0.560093
1.31036;0.553985
1.31221;0.550036
1.31309;0.548101
1.3139;0.546327
1.31549;0.542862
1.31628;0.541165
1.31702;0.539561
1.31837;0.536682
1.31904;0.535247
1.32036;0.532492
1.32105;0.531031
1.32174;0.529625
1.32304;0.527009
1.32368;0.525722
1.3249;0.523306
1.32544;0.522263
1.32603;0.521155
1.32717;0.518956
1.32771;0.517964
1.32871;0.516142
1.32919;0.515276
1.32958;0.514578
1.33042;0.513139
1.33084;0.512423
1.3316;0.511178
1.33194;0.510633
1.33221;0.51019
1.33265;0.50948
1.33292;0.509074
1.33315;0.508725
1.33346;0.508274
1.33363;0.508039
1.33388;0.507654
1.33394;0.507583
1.33354;0.508106
1.33346;0.508213
1.33309;0.508655
1.33273;0.509101
1.33198;0.510006
1.33157;0.510466
1.33066;0.511495
1.33017;0.51205
1.32969;0.512585
1.32875;0.513628
1.32831;0.514094
1.32748;0.514979
1.32667;0.515803
1.32627;0.516212
1.32593;0.516559
1.32559;0.5169
1.32507;0.517408
1.32485;0.517629
1.32446;0.517992
1.32427;0.518174
1.32413;0.518307
1.32386;0.518552
1.32383;0.518581
1.32383;0.518578
1.32392;0.518501
1.324;0.518428
1.32415;0.518304
1.32446;0.518049
1.32462;0.517907
1.32493;0.517642
1.32508;0.517519
1.3253;0.517336
1.32588;0.516871
1.32621;0.516615
1.32688;0.516089
1.32725;0.5158
1.32766;0.515484
1.32856;0.514804
1.32904;0.514442
1.32953;0.514076
1.33051;0.513329
1.33102;0.512949
1.33159;0.512533
1.33282;0.511661
1.33347;0.511205
1.3341;0.510762
1.33541;0.509866
1.33606;0.509425
1.33891;0.507537
1.34037;0.506584
1.3411;0.506116
1.34247;0.505253
1.34316;0.504841
1.34455;0.503984
1.34533;0.503507
1.34612;0.503017
1.34777;0.502063
1.34864;0.501551
1.34949;0.501057
1.35123;0.500064
1.35215;0.49954
1.35408;0.498453
1.35606;0.497356
1.35705;0.496818
1.35803;0.496285
1.35896;0.495805
1.361;0.49472
1.36209;0.494152
1.36317;0.493594
1.36537;0.492476
1.36649;0.491915
1.36982;0.490293
1.37092;0.489762
1.37092;0.489762
1.37329;0.488638
1.37447;0.488085
1.37566;0.487519
1.3781;0.486415
1.37943;0.485815
1.3821;0.484613
1.38344;0.484027
1.38616;0.48286
1.38751;0.482282
1.38887;0.481709
1.39154;0.480613
1.39295;0.480045
1.39578;0.47892
1.39722;0.478355
1.39867;0.477792
1.4015;0.476714
1.40302;0.47615
1.40613;0.475002
1.4077;0.474442
1.41077;0.473367
1.41231;0.472835
1.41384;0.472316
1.41697;0.471268
1.41862;0.470731
1.42026;0.470195
1.42355;0.469142
1.42519;0.468664
1.42833;0.467715
1.42993;0.467232
1.43148;0.466783
1.43634;0.465376
1.43797;0.464932
1.43955;0.46449
1.44242;0.463702
1.44386;0.463319
1.44389;0.463336
1.44502;0.46303
1.44748;0.46238
1.44748;0.46238
1.44997;0.461742
1.45118;0.461437
1.4523;0.46119
1.4545;0.460667
1.45555;0.460416
1.45749;0.45996
1.45842;0.45974
1.45928;0.459539
1.46089;0.459179
1.46164;0.459006
1.46237;0.458847
1.46381;0.458527
1.4645;0.458378
1.46581;0.458092
1.46643;0.457967
1.46701;0.457849
1.46811;0.457636
1.46857;0.457542
1.46905;0.457445
1.46999;0.457253
1.47092;0.457075
1.47137;0.456983
1.47182;0.456902
1.47267;0.45674
1.47306;0.456668
1.47344;0.456598
1.47414;0.456469
1.47448;0.45641
1.47482;0.456358
1.47546;0.456254
1.47576;0.456202
1.47636;0.4561
1.47663;0.456064
1.47694;0.456017
1.47752;0.455921
1.47775;0.455884
1.47801;0.455844
1.47849;0.455775
1.47872;0.455745
1.47921;0.455674
1.47944;0.455638
1.47991;0.455562
1.48012;0.455539
1.48032;0.45551
1.48046;0.455496
1.48081;0.45545
1.48098;0.455426
1.48132;0.455388
1.4815;0.455361
1.48185;0.455313
1.48205;0.455291
1.48222;0.455265
1.48256;0.455224
1.48272;0.455204
1.48288;0.45518
1.48321;0.455153
1.48336;0.455136
1.48365;0.455104
1.48379;0.455086
1.48393;0.455066
1.48421;0.455036
1.48434;0.45502
1.4846;0.454987
1.48472;0.454975
1.48483;0.454971
1.48501;0.454953
1.48509;0.454939
1.48529;0.45491
1.48541;0.454893
1.48554;0.45488
1.48577;0.454852
1.48589;0.454836
1.48614;0.454812
1.48626;0.454801
1.48638;0.454791
1.4866;0.454782
1.48659;0.45478
1.48665;0.454773
1.48675;0.454762
1.48685;0.454756
1.48697;0.454745
1.48718;0.454725
1.48723;0.454717
1.48727;0.454717
1.48739;0.454709
1.48746;0.454705
1.48765;0.454679
1.48776;0.454671
1.48786;0.454662
1.48808;0.454643
1.48818;0.454637
1.48827;0.454631
1.48843;0.454616
1.48853;0.454609
1.48871;0.4546
1.48883;0.454589
1.48895;0.45458
1.48912;0.454572
1.48919;0.454569
1.4894;0.454546
1.4895;0.454535
1.48961;0.454519
1.48983;0.454484
1.48991;0.45448
1.48995;0.454468
1.49006;0.45445
1.49013;0.454436
1.49026;0.454434
1.49027;0.454429
1.49035;0.454431
1.49042;0.454428
1.49047;0.454425
1.49057;0.454428
1.49065;0.45443
1.49072;0.454433
1.49088;0.45444
1.49099;0.45443
1.49116;0.454407
1.49125;0.454401
1.49136;0.454396
1.49152;0.454399
1.49166;0.454399
1.49172;0.454398
1.49186;0.45439
1.49193;0.454387
1.49202;0.454379
1.49216;0.454376
1.49231;0.454359
1.49247;0.454353
1.49258;0.454357
1.49257;0.45436
1.49256;0.454361
1.49255;0.454353
1.49254;0.45434
1.49254;0.45433
1.4925;0.454318
1.49247;0.454297
1.49243;0.454284
1.49242;0.454272
1.49235;0.454254
1.49236;0.454257
1.49238;0.454256
1.49244;0.454261
1.49249;0.454265
1.49255;0.454264
1.49258;0.454257
1.49258;0.454236
1.49259;0.454234
1.49265;0.454226
1.49271;0.45421
1.49275;0.45421
1.49276;0.454211
1.4928;0.454225
1.49285;0.454214
1.49289;0.45421
1.49293;0.454202
1.49294;0.4542
1.49299;0.454209
1.49301;0.454209
1.49302;0.454219
1.49298;0.454238
