1.67192e-06;0.00321195
1.43329e-05;0.0031891
1.76563e-05;0.00252257
8.01637e-06;0.000462363
1.82858e-05;-0.000295708
1.0363e-05;-0.000660694
8.31476e-06;-0.00129448
-1.44844e-06;-0.0016216
-1.73497e-05;-0.00222227
-3.02264e-05;-0.00274961
-3.40847e-05;-0.00300794
-4.32672e-05;-0.00338126
-6.00312e-05;-0.00374449
-6.84221e-05;-0.00401556
-7.84968e-05;-0.00415219
-8.3237e-05;-0.00435336
-8.77205e-05;-0.00445366
-0.000106557;-0.00464871
-8.602e-05;-0.00473298
-9.29252e-05;-0.00486539
-9.52362e-05;-0.00493108
-0.00010165;-0.00501426
-0.000108158;-0.00510307
-0.000113313;-0.00515767
-0.000118862;-0.00526581
-0.000119476;-0.00531471
-0.000133879;-0.00539653
-0.000133854;-0.0054199
-0.00014742;-0.00547042
-0.000159553;-0.00557359
-0.000181985;-0.00562733
-0.000179715;-0.0055925
-0.000180539;-0.00557965
-0.000177161;-0.00555637
-0.000177588;-0.00556519
-0.000177314;-0.0056157
-0.000181687;-0.00565048
-0.000190912;-0.0056912
-0.000224139;-0.00577883
-0.000231494;-0.00580031
-0.000228123;-0.00577553
-0.000232981;-0.00577176
-0.000228225;-0.00575843
-0.000220764;-0.00572442
-0.000217146;-0.00568387
-0.000204434;-0.00566023
-0.000202268;-0.00564744
-0.000192292;-0.00563673
-0.00020768;-0.00569543
-0.000213705;-0.00571113
-0.000208761;-0.00567602
-0.000193193;-0.0056402
-0.000183791;-0.00560905
-0.000197088;-0.00563946
-0.000216904;-0.00569848
-0.000221237;-0.00570919
-0.000227802;-0.00572757
-0.00023659;-0.00574437
-0.000231632;-0.00571793
-0.000205642;-0.00567827
-0.000177584;-0.00560249
-0.000153496;-0.00553039
-7.87051e-05;-0.00534943
-1.05483e-05;-0.00517488
0.00017979;-0.00466424
0.00028364;-0.00441042
0.000726259;-0.00335577
0.000872298;-0.00300065
0.00130649;-0.0019741
0.00234301;0.00029116
0.00260113;0.000849496
0.00283692;0.00128453
0.00318265;0.00199988
0.00396617;0.00358884
0.00440671;0.00445561
0.00530717;0.00624227
0.00580036;0.00721359
0.00904904;0.0131668
0.00960949;0.0141692
0.0108674;0.0163121
0.0114942;0.0174045
0.0128366;0.0196034
0.0143478;0.021988
0.0151269;0.023208
0.0167659;0.0256958
0.0176528;0.0270186
0.0194638;0.0297048
0.0213945;0.0324845
0.0234212;0.0353207
0.0244215;0.0367114
0.0255004;0.0381901
0.027788;0.0412262
0.0301672;0.044263
0.0352861;0.0505032
0.0365696;0.0520606
0.0365654;0.052065
0.0384873;0.0542794
0.0398031;0.0557975
0.0427603;0.0591337
0.045821;0.0625196
0.0473885;0.0642396
0.048524;0.0653999
0.0496816;0.0666286
0.0496993;0.0666051
0.049705;0.0665978
0.052673;0.0697138
0.0567197;0.0738828
0.0587973;0.0759839
0.0630618;0.0801686
0.0656878;0.0827173
0.0705613;0.087259
0.0730087;0.0893909
0.0777892;0.0936321
0.0806336;0.0961445
0.0858527;0.100639
0.0884182;0.102823
0.0911141;0.105072
0.0933973;0.106957
0.0960544;0.109122
0.101559;0.113514
0.104335;0.115697
0.107688;0.11828
0.113966;0.123042
0.120103;0.127545
0.123193;0.129772
0.12617;0.131866
0.132326;0.13613
0.135425;0.138226
0.138571;0.140323
0.145203;0.144662
0.148547;0.146814
0.158417;0.152987
0.168236;0.158906
0.171517;0.160815
0.173591;0.162023
0.179159;0.165221
0.182188;0.166935
0.185426;0.168734
0.192055;0.172389
0.202103;0.177778
0.208758;0.181237
0.211972;0.182882
0.215124;0.18448
0.218396;0.186124
0.218363;0.186124
0.220537;0.187205
0.223625;0.188737
0.23039;0.19205
0.233874;0.193724
0.237465;0.195446
0.244695;0.19886
0.25195;0.202205
0.255624;0.203881
0.259201;0.205492
0.266395;0.208669
0.269974;0.210237
0.276797;0.213183
0.280355;0.214695
0.283863;0.21617
0.290912;0.219109
0.294364;0.22053
0.301326;0.22336
0.304854;0.224785
0.308336;0.226172
0.311723;0.227522
0.318758;0.230271
0.322291;0.231644
0.325747;0.232969
0.332582;0.235582
0.336094;0.237044
0.343054;0.239679
0.346482;0.240958
0.349712;0.242165
0.356459;0.244654
0.363314;0.247146
0.363314;0.247146
0.366754;0.24839
0.369844;0.249383
0.373143;0.250553
0.379868;0.252979
0.383259;0.254224
0.386702;0.255434
0.393598;0.25784
0.397016;0.259013
0.40028;0.260154
0.407082;0.262494
0.410519;0.263673
0.413831;0.264808
0.417043;0.265898
0.423674;0.268136
0.427101;0.26929
0.433713;0.271546
0.436903;0.272631
0.44345;0.27484
0.446707;0.275936
0.449831;0.276974
0.455928;0.279017
0.459138;0.280104
0.465438;0.282205
0.46852;0.283234
0.474398;0.285188
0.477335;0.286171
0.479337;0.286821
0.48127;0.287466
0.486931;0.289359
0.490112;0.290403
0.496394;0.29246
0.4995;0.293505
0.505482;0.295447
0.508451;0.296433
0.511478;0.297449
0.517496;0.299426
0.520437;0.300404
0.520557;0.300377
0.522515;0.301068
0.528076;0.302886
0.531114;0.303883
0.534323;0.304954
0.540911;0.307149
0.544222;0.308251
0.550472;0.310338
0.553691;0.311405
0.559989;0.313505
0.563078;0.314557
0.566008;0.315544
0.572152;0.317642
0.575269;0.3187
0.578266;0.319717
0.584232;0.321747
0.587285;0.322812
0.590268;0.323819
0.596085;0.32585
0.598962;0.326839
0.604791;0.328889
0.607793;0.329936
0.610681;0.330936
0.616297;0.332879
0.619302;0.333912
0.622222;0.334921
0.627977;0.336917
0.630786;0.337885
0.63369;0.338894
0.639558;0.340941
0.642483;0.341964
0.648048;0.343928
0.650889;0.344932
0.656586;0.346943
0.659432;0.347946
0.664844;0.349873
0.66751;0.350831
0.673134;0.352852
0.675908;0.353854
0.678551;0.354789
0.683978;0.356739
0.686835;0.357782
0.689555;0.358783
0.69492;0.360763
0.697753;0.361815
0.7034;0.363943
0.709017;0.366037
0.711823;0.367096
0.714527;0.368122
0.719986;0.370182
0.722649;0.371221
0.727906;0.373236
0.730614;0.374273
0.733315;0.375314
0.738684;0.377378
0.741306;0.378394
0.746773;0.380495
0.749529;0.381574
0.754753;0.383604
0.757347;0.384607
0.760055;0.38566
0.762822;0.386735
0.768332;0.388888
0.771039;0.389944
0.773888;0.391051
0.779566;0.393299
0.785176;0.395513
0.787956;0.396617
0.790692;0.397682
0.796188;0.399852
0.798925;0.400951
0.804312;0.403086
0.809801;0.40533
0.81255;0.406432
0.81529;0.407533
0.820347;0.409533
0.823044;0.410623
0.828324;0.412779
0.830939;0.413845
0.833564;0.414907
0.838876;0.417101
0.841599;0.418233
0.846932;0.420431
0.849527;0.421501
0.852239;0.422619
0.857678;0.424887
0.860368;0.426023
0.865693;0.428254
0.868457;0.42942
0.873882;0.43174
0.879227;0.434031
0.881902;0.435167
0.884447;0.436258
0.889729;0.438539
0.892354;0.439673
0.89485;0.440766
0.900159;0.443076
0.902879;0.444259
0.905511;0.445409
0.910719;0.447661
0.913481;0.448881
0.918972;0.451335
0.921687;0.452549
0.92691;0.454904
0.929464;0.456052
0.934811;0.458442
0.93746;0.459638
0.940041;0.4608
0.945416;0.463248
0.948162;0.464492
0.953451;0.466918
0.956041;0.468098
0.958754;0.469339
0.964171;0.471859
0.966838;0.473123
0.971923;0.475517
0.974649;0.476784
0.977305;0.47803
0.982644;0.480528
0.985277;0.4817
0.988008;0.482947
0.993532;0.485545
0.993627;0.485601
0.9936;0.485596
0.993563;0.485578
0.995535;0.48654
0.998322;0.487888
1.0014;0.489377
1.00811;0.492614
1.01148;0.494234
1.01165;0.494259
1.01581;0.496196
1.01885;0.49768
1.02557;0.500969
1.029;0.502649
1.0323;0.504266
1.03898;0.50758
1.04237;0.509264
1.04896;0.512522
1.05212;0.514103
1.05531;0.515709
1.06489;0.520532
1.06489;0.520532
1.07095;0.523579
1.07401;0.525119
1.08004;0.52817
1.08301;0.529659
1.08864;0.532497
1.09161;0.533991
1.09746;0.536941
1.1003;0.538382
1.10297;0.539738
1.10582;0.541186
1.1116;0.544146
1.11445;0.545615
1.11984;0.548403
1.12269;0.549867
1.1283;0.552786
1.13106;0.554215
1.13363;0.555568
1.13896;0.558351
1.14176;0.55981
1.14718;0.562622
1.1498;0.563998
1.15521;0.566821
1.15797;0.568203
1.16059;0.569575
1.16572;0.572275
1.16845;0.573717
1.17389;0.576576
1.17656;0.577987
1.18176;0.580734
1.18429;0.582063
1.18606;0.582989
1.19004;0.585164
1.19256;0.586502
1.19507;0.587842
1.2006;0.590783
1.20342;0.592286
1.20882;0.595168
1.21165;0.596679
1.21723;0.599675
1.21997;0.601155
1.22511;0.603923
1.22785;0.605403
1.23051;0.606854
1.23579;0.609719
1.23841;0.611144
1.24382;0.614064
1.24924;0.61703
1.25195;0.61852
1.25514;0.620293
1.25514;0.620293
1.25672;0.621158
1.2608;0.623441
1.26579;0.626187
1.26859;0.627738
1.27421;0.630838
1.27697;0.63239
1.28229;0.635352
1.28506;0.636885
1.29052;0.639936
1.29323;0.641451
1.30095;0.645755
1.30351;0.647169
1.30608;0.648592
1.30775;0.649484
1.31226;0.651991
1.31487;0.653434
1.32017;0.656344
1.3228;0.657807
1.32784;0.660613
1.33052;0.662103
1.33581;0.665025
1.33844;0.666472
1.34339;0.669213
1.34603;0.67066
1.35121;0.673463
1.35378;0.674889
1.35865;0.677567
1.36124;0.678989
1.36381;0.680388
1.36887;0.683189
1.37395;0.685977
1.37652;0.687387
1.37902;0.688768
1.384;0.6915
1.38647;0.692859
1.39155;0.695634
1.39661;0.698404
1.39913;0.699773
1.40151;0.70106
1.40637;0.703727
1.41134;0.706463
1.41386;0.707795
1.41856;0.710354
1.42108;0.711719
1.42603;0.714423
1.42849;0.715751
1.43085;0.717025
1.43547;0.71953
1.43564;0.719558
1.43828;0.721099
1.43967;0.721861
1.4437;0.724078
1.44788;0.726361
1.44991;0.727457
1.45373;0.729559
1.45551;0.730535
1.45888;0.732352
1.46051;0.733236
1.46344;0.734811
1.46478;0.735525
1.46725;0.736846
1.4684;0.737456
1.4705;0.738575
1.47148;0.739085
1.47316;0.739967
1.47393;0.740367
1.47534;0.741106
1.47732;0.742132
1.47798;0.742474
1.47856;0.742784
1.47882;0.742924
1.47942;0.743231
1.47977;0.743421
1.48049;0.743789
1.48089;0.743994
1.48153;0.744316
1.48183;0.744465
1.48213;0.744617
1.4826;0.744851
1.4828;0.74495
1.48318;0.745141
1.48337;0.745231
1.48371;0.745396
1.48386;0.745467
1.48412;0.745592
1.48424;0.745654
1.48447;0.745763
1.48458;0.745815
1.48476;0.745901
1.48485;0.745942
1.48493;0.745982
1.48492;0.745978
1.48498;0.746004
1.48504;0.746032
1.4851;0.74607
1.48521;0.746116
1.48527;0.746143
1.48538;0.746191
1.48543;0.746216
1.48551;0.746248
1.48555;0.746268
1.4856;0.74629
1.48564;0.746305
1.4857;0.746328
1.48572;0.746338
1.48578;0.746362
1.48584;0.746386
1.48587;0.746398
1.48593;0.746424
1.48597;0.746439
1.48599;0.746448
1.48605;0.74647
1.48612;0.746493
1.48615;0.746503
1.48615;0.746507
1.48621;0.746526
1.48624;0.746537
1.4863;0.746559
1.48642;0.746602
1.48642;0.746602
1.48646;0.746619
1.48648;0.746631
1.48649;0.746632
1.48648;0.74663
1.48649;0.746632
1.48652;0.74664
1.48651;0.746635
1.48653;0.746637
1.48654;0.746636
1.48657;0.746645
1.48657;0.746644
1.48658;0.746646
1.48667;0.746671
1.48669;0.74668
1.48671;0.746688
1.48671;0.746687
1.48672;0.746692
1.48672;0.746691
1.48671;0.746687
1.48669;0.746683
1.48671;0.746687
1.48673;0.746691
1.48678;0.746703
1.48679;0.746706
1.48681;0.746711
1.48682;0.746715
1.48686;0.746724
1.48689;0.746733
1.48696;0.746753
1.487;0.74676
1.48704;0.746774
1.48706;0.746779
1.48711;0.74679
1.48717;0.746811
1.4872;0.746818
1.48723;0.746825
1.4872;0.746819
1.48718;0.746813
1.48717;0.746817
1.48718;0.74682
1.48718;0.746818
1.4872;0.746822
1.4872;0.746823
1.4872;0.746827
1.48721;0.746827
1.48721;0.746825
1.48719;0.746826
1.48719;0.746825
1.48719;0.746825
1.48718;0.746825
1.48718;0.746825
1.48718;0.746823
1.48719;0.746828
1.48719;0.746829
1.4872;0.746831
1.48722;0.746838
1.48723;0.746841
1.48725;0.746842
1.48728;0.74685
1.48731;0.746859
1.48726;0.746847
1.48703;0.746804
1.48697;0.746793
1.48695;0.746788
1.48697;0.746788
1.48698;0.7468
1.48702;0.746806
1.48704;0.746812
1.48704;0.74681
1.48705;0.746813
1.48706;0.746817
1.4871;0.746825
1.48712;0.746827
1.48716;0.746834
1.48715;0.746832
1.48716;0.746833
1.48717;0.746837
1.48719;0.746837
1.48721;0.746844
1.48722;0.746846
1.48723;0.746843
1.48721;0.746843
1.48721;0.746841
1.48718;0.746836
1.48717;0.746835
1.48717;0.746834
1.48718;0.746837
1.48716;0.746834
1.48718;0.746837
1.48717;0.746837
1.48711;0.746827
1.48711;0.746827
1.48709;0.746822
1.48705;0.746814
1.48705;0.746814
1.48705;0.746813
1.48706;0.746811
1.48708;0.746819
1.48715;0.746831
1.48717;0.746833
1.4872;0.746837
1.48717;0.746832
1.48719;0.746834
1.48722;0.746841
1.48726;0.746843
1.48732;0.746859
1.48736;0.746863
1.48737;0.746864
1.4874;0.746868
1.48746;0.746886
1.48744;0.74689
1.48743;0.746888
1.48741;0.746889
1.48742;0.746889
1.48746;0.746894
1.48749;0.746897
1.48753;0.746899
1.48755;0.746906
1.48754;0.746905
1.48748;0.746899
1.48747;0.7469
1.48749;0.746902
1.4875;0.74692
1.4875;0.746924
1.48742;0.746919
1.48742;0.746919
1.48737;0.746921
1.48735;0.746917
1.48736;0.746924
1.48738;0.746931
1.48739;0.746933
1.4874;0.746927
1.48744;0.746925
1.48745;0.746925
1.48746;0.746926
1.48746;0.746928
1.48746;0.746928
1.48748;0.746931
1.48749;0.746933
1.48749;0.746934
1.48743;0.746926
1.48738;0.746923
1.48735;0.74692
1.48736;0.746925
1.4874;0.746938
1.4874;0.746941
1.48739;0.746972
1.48738;0.746978
1.48732;0.746973
1.48732;0.746975
1.4873;0.74698
1.48719;0.746983
1.48715;0.746978
1.48714;0.746987
1.48711;0.746979
1.48708;0.746979
1.48707;0.746977
1.48706;0.746983
1.48706;0.746982
1.48704;0.746978
1.48704;0.746967
1.48702;0.746959
1.487;0.746951
1.487;0.746939
1.48695;0.746934
1.48683;0.746919
1.48682;0.746918
1.48676;0.746911
1.48676;0.746911
1.48678;0.746911
1.48679;0.746905
1.48683;0.746919
1.48685;0.746919
1.48687;0.746925
1.48694;0.746927
1.48696;0.746929
1.487;0.74693
1.48705;0.746934
1.48706;0.746933
1.48712;0.746945
1.48712;0.746946
1.48714;0.74695
1.48715;0.746955
1.48719;0.746953
1.48723;0.746948
1.48725;0.746929
1.48727;0.746919
1.48729;0.746912
1.48733;0.746902
1.48735;0.746893
1.48739;0.746873
1.48742;0.746862
1.48748;0.746843
1.4875;0.746842
1.4875;0.74685
1.48754;0.74685
1.48755;0.746847
1.48753;0.746846
1.48747;0.74684
1.48749;0.746836
1.48753;0.746843
1.48757;0.746846
1.4876;0.746837
1.48759;0.746831
1.48758;0.746817
1.48766;0.746835
1.48775;0.746851
1.48781;0.746851
1.48782;0.746852
1.48781;0.746849
1.48778;0.74685
1.48776;0.746851
1.48775;0.746865
1.48773;0.746861
1.48769;0.746861
1.48769;0.746861
1.48767;0.746863
1.48766;0.746871
1.48765;0.746882
1.48764;0.746888
1.48763;0.746897
1.48765;0.746907
1.48776;0.74693
1.48776;0.74693
1.48784;0.746939
1.48793;0.746955
1.48794;0.746956
1.48791;0.746952
1.48792;0.746952
1.48789;0.746951
1.48791;0.746946
1.48789;0.746947
1.48787;0.74695
1.48784;0.746954
1.48782;0.746968
1.48781;0.746967
1.48781;0.74696
1.48778;0.746945
1.48777;0.746947
1.48775;0.746944
1.48784;0.746954
1.48787;0.746959
1.48783;0.74695
1.48782;0.746949
1.4877;0.746924
1.48768;0.746912
1.48767;0.746917
1.48767;0.746921
1.48769;0.746889
1.48774;0.746873
1.48774;0.746873
1.4877;0.746894
1.4877;0.746907
1.48773;0.746928
1.48792;0.746936
1.48796;0.746951
1.48801;0.746948
1.48804;0.746938
1.48802;0.746936
1.48799;0.746938
1.48796;0.746927
1.48791;0.74692
1.48787;0.746932
1.48785;0.746938
1.48783;0.746937
1.48784;0.746935
1.48787;0.746931
1.48783;0.746941
1.48779;0.746951
1.48774;0.746962
1.48766;0.746985
1.48767;0.747
1.48767;0.747004
1.48767;0.747
1.4877;0.747002
1.48772;0.746992
1.48775;0.746985
1.48774;0.746982
1.48767;0.746978
1.48766;0.74698
1.4877;0.746968
1.48772;0.74696
1.48773;0.746945
1.48779;0.746941
1.48779;0.746939
1.48776;0.746936
1.48772;0.746937
1.48768;0.746936
1.48767;0.746936
1.48768;0.746937
1.48757;0.746938
1.48751;0.74694
1.48749;0.746944
1.48749;0.746946
1.48748;0.746954
1.4874;0.74698
1.48736;0.746987
1.48735;0.746992
1.48736;0.746989
1.48734;0.746976
1.48732;0.746971
1.4873;0.746988
1.4873;0.746991
1.48728;0.746978
1.48729;0.746976
1.48729;0.746976
1.48732;0.746992
1.48734;0.746993
1.48732;0.746992
1.48732;0.746989
1.48735;0.746988
1.48736;0.746985
1.48739;0.746984
1.48738;0.746983
1.48738;0.746983
1.48739;0.746989
1.48738;0.746994
1.48737;0.746998
1.48737;0.747014
1.48737;0.747014
1.48738;0.747025
1.48739;0.74703
1.4874;0.74703
1.48739;0.747023
1.48737;0.74702
1.48739;0.747024
1.48739;0.747027
1.48736;0.747021
1.48734;0.747022
1.48736;0.747025
1.48739;0.747019
1.48739;0.747009
1.4874;0.746998
1.48741;0.747011
1.48745;0.747016
1.48748;0.747019
1.48747;0.747015
1.48745;0.747013
1.48743;0.747009
1.48739;0.746992
1.48734;0.746971
1.48731;0.74703
1.4873;0.747037
1.4873;0.74704
1.48731;0.747043
1.48735;0.747048
1.48734;0.747051
1.48735;0.747053
1.4874;0.747046
1.4874;0.74704
1.48744;0.747031
1.48746;0.74703
1.48748;0.747026
1.48753;0.747008
1.48758;0.747001
1.48759;0.746998
1.48764;0.747016
1.48765;0.747023
1.48762;0.747037
1.48761;0.747038
1.48757;0.747024
1.48755;0.747022
1.48758;0.747035
1.48758;0.747039
1.48752;0.747048
1.4875;0.747049
1.48753;0.747031
1.48752;0.747026
1.48749;0.747027
1.48733;0.747035
1.48731;0.747038
1.48726;0.747055
1.48723;0.747062
1.48719;0.747087
1.48719;0.747091
1.48717;0.747091
1.48719;0.747092
1.48721;0.747093
1.48726;0.747109
1.48728;0.747113
1.48723;0.747111
1.48723;0.747117
1.48722;0.74712
1.48717;0.747115
1.4872;0.747125
1.4872;0.747125
1.48722;0.74711
1.48721;0.747096
1.48722;0.747097
1.48721;0.747097
1.4872;0.747086
1.48714;0.747075
1.48717;0.747076
1.4872;0.747075
1.48723;0.747064
1.48731;0.747062
1.48734;0.747076
1.48735;0.747084
1.48733;0.74708
1.4873;0.747071
1.4873;0.747063
1.4873;0.747054
1.48733;0.747049
1.48732;0.747052
1.48728;0.747039
1.48725;0.747028
1.48723;0.747022
1.48723;0.747013
1.48725;0.747016
1.48731;0.747009
1.48734;0.747016
1.48734;0.747022
1.48733;0.747032
1.4873;0.747042
1.48727;0.747048
1.48726;0.74704
1.48724;0.747032
1.48726;0.747035
1.48722;0.747042
1.48718;0.747043
1.48715;0.747034
1.48715;0.747026
1.4872;0.747025
1.48721;0.747036
1.48726;0.747064
1.4873;0.747061
1.48734;0.747063
1.48737;0.747064
1.48738;0.74706
1.48734;0.747043
1.48731;0.747039
1.48727;0.747039
1.48724;0.747038
