0.0290335
0.0402945
0.0167402
0.0166755
0.0197367
0.0245966
0.0356412
0.0569573
0.0278292
0.0966706
0.0303025
0.059573
0.0740147
0.0741389
0.0175878
0.0183121
0.017745
0.0171088
0.0203151
0.0192156
0.0163301
0.0193731
0.0250566
0.0220846
0.0277849
0.0234753
0.0222532
0.020211
0.0477484
0.0250891
0.0215213
0.0423727
0.0221808
0.0220499
0.0299207
0.0326854
0.0211044
0.0702487
0.0216457
0.0184823
0.0218258
0.0242242
0.0204955
0.021755
0.025395
0.0228805
0.0354507
0.0794307
0.018142
0.0161091
0.0190783
0.0678623
0.0230139
0.0463823
0.0361
0.019765
0.0280752
0.0296351
0.0171401
0.0334365
0.0312682
0.0329721
0.0199826
0.0203977
0.0198622
0.0200299
0.0152489
0.0170542
0.0207566
0.0274657
0.0143249
0.0313331
0.0274745
0.0252297
0.04946
0.0216127
0.0671334
0.0489293
0.0294438
0.0454959
0.0237602
0.0168432
0.057691
0.0306762
0.0444961
0.0286967
0.0246463
0.029911
0.0268123
0.0196903
0.0316984
0.032847
0.0445197
0.0227616
0.0470829
0.0511954
0.0333087
0.0227673
0.0470915
0.0460976
0.0323222
0.0246819
0.0437794
0.0126509
0.0119082
0.0129372
0.0199056
0.0172394
0.0301009
0.0188876
0.0189168
0.0130705
0.0208208
0.0209267
0.0423942
0.0219639
0.0300121
0.0200464
0.0216312
0.0193989
0.0395264
0.373891
0.025712
0.0465008
0.0351725
0.0181938
0.0192315
0.065861
0.0405993
0.0408783
0.0182437
0.0867873
0.0244833
0.0792626
0.0522858
0.0697007
0.0685296
0.238736
0.0339325
0.0396249
0.0273529
0.039251
0.0341652
0.0518814
0.0333687
0.0287633
0.0277059
0.0334426
0.0345542
0.0262691
0.0283099
0.0258231
0.0280634
0.0514453
0.0302104
0.0245825
0.0227352
0.0213367
0.0211268
0.0232747
0.0184063
0.0252043
0.0312498
0.0328053
0.020788
0.0236339
0.032804
0.0208666
0.0259013
0.0226935
0.0303771
0.0214371
0.0270934
0.0237081
0.0286118
0.0346313
0.0356365
0.0246053
0.0298061
0.025755
0.0253838
0.0262417
0.0349105
0.0261539
0.0275372
0.022126
0.0228212
0.0297999
0.0219702
0.0255659
0.025999
0.0225208
0.018904
0.0209558
0.0215141
0.0209959
0.0372667
0.0204666
0.0259147
0.0203682
0.028544
0.0187627
0.0421992
0.0178644
0.0179368
0.0244672
0.0243839
0.0164588
0.0169151
0.0146124
0.0211019
0.0270228
0.0169819
0.0175995
0.0189939
0.0209773
0.0137411
0.01273
0.0142869
0.0152702
0.0122784
0.0120345
0.0113395
0.0107078
0.0170728
0.0112351
0.0106584
0.0112916
0.0127355
0.0144457
0.0141019
0.0128517
0.0148731
0.0151149
0.0154045
0.0126882
0.0164055
0.0154225
0.0164951
0.0149356
0.013875
0.017374
0.0159789
0.0142475
0.0137935
0.0332265
0.0165625
0.0131953
0.0132284
0.0130063
0.0132248
0.0140009
0.0203029
0.0113692
0.0129233
0.0173228
0.0122418
0.010781
0.0174139
0.013482
0.0124927
0.0142529
0.0126858
0.0130154
0.0143409
0.0123487
0.0166922
0.0205179
0.0134219
0.0177498
0.0167253
0.0138319
0.0136678
0.0159459
0.0184903
0.015735
0.0181109
0.0225012
0.0352501
0.0221782
0.0234835
0.0320776
0.142095
0.157319
0.016373
0.0243188
0.0229325
0.118919
0.0244623
0.0192734
0.0514042
0.0177832
0.0189342
0.0273537
0.0288922
0.0262136
0.133062
0.0321988
0.0552373
0.026426
0.031577
0.0202493
0.0210866
0.01964
0.021915
0.0220777
0.104267
0.0182441
0.024825
0.0302878
0.0667338
0.0220424
0.0478725
0.0399879
0.0313473
0.0666526
0.0625925
0.020489
0.0563776
0.0380736
0.0390661
0.0304263
0.0542709
0.0265062
0.0222517
0.132896
0.0356567
0.0374194
0.0310723
0.02609
0.0478358
0.0343624
0.0423523
0.0335292
0.0221159
0.0332101
0.0309605
0.0724531
0.0316803
0.0294399
0.0268796
0.0409447
0.0333097
0.0293243
0.0256303
0.0310304
0.0300106
0.0363709
0.0318748
0.0337301
0.0370092
0.0311369
0.0285627
0.021351
0.0227201
0.0201822
0.0238366
0.017799
0.0228916
0.0316634
0.0184688
0.0309898
0.0191127
0.0196726
0.0254438
0.0256802
0.0222241
0.0236433
0.0262405
0.0183616
0.0211905
0.0205029
0.025475
0.0222381
0.0206166
0.0270594
0.0245132
0.0240977
0.0234482
0.0246308
0.0203287
0.0284718
0.019782
0.0308279
0.029494
0.0450314
0.0264851
0.0301645
0.0215221
0.028839
0.0246848
0.0227081
0.0225835
0.0221876
0.0304114
0.0217522
0.0184401
0.0194232
0.0211746
0.0214699
0.0199028
0.0213405
0.0208354
0.0207393
0.0219584
0.0212195
0.0188856
0.0324859
0.0200823
0.0233698
0.0225799
0.02241
0.0231276
0.0194565
0.0173301
0.024338
0.0182889
0.0186213
0.0353584
0.022098
0.0212595
0.0232639
0.0177403
0.0183709
0.0175508
0.0204452
0.0197589
0.0229372
0.0272993
0.0188117
0.0232975
0.0215059
0.0217074
0.0203826
0.0300986
0.0174052
0.0209339
0.0227849
0.0205787
0.0197961
0.0278965
0.0286483
0.0211106
0.0217608
0.0222873
0.0187572
0.0215581
0.0180928
0.0233146
0.0182401
0.0286281
0.0215067
0.0175362
0.0196058
0.0249803
0.0234915
0.0160341
0.0155623
0.0181348
0.0159321
0.0123169
0.0146104
0.016051
0.0232353
0.0150364
0.0164493
0.0161381
0.0135589
0.0160833
0.0140235
0.01512
0.0202032
0.0162371
0.0153584
0.0129169
0.0175483
0.0151857
0.0124425
0.0117181
0.0121552
0.0108989
0.0119614
0.0108571
0.0111916
0.0130365
0.00960749
0.0119926
0.0113145
0.0104774
0.0112086
0.00972268
0.00976172
0.00982232
0.0110235
0.0118474
0.0124824
0.0100892
0.0185593
0.010992
0.00974508
0.011565
0.0108453
0.0120824
0.0155019
0.0160492
0.0178591
0.0174597
0.0179649
0.0129624
0.0156676
0.0285567
0.0225099
0.0141071
0.0129631
0.0129777
0.0240031
0.108727
0.02066
0.0170558
0.0197021
0.0107621
0.0126439
0.076622
0.101443
0.195226
0.0996875
0.0260825
0.0214698
0.0167588
0.0253666
0.0388158
0.0177665
0.0285391
0.0168971
0.0162426
0.0205731
0.0227949
0.0217028
0.0259893
0.0629549
0.0254782
0.0270822
0.0557482
0.0283521
0.0229688
0.0159333
0.0183246
0.0433323
0.0518226
0.0158406
0.0158118
0.0156516
0.0203858
0.0220784
0.0171849
0.0395908
0.122689
0.0172285
0.0171255
0.0204389
0.0522457
0.0213884
0.0438495
0.0466905
0.373406
0.027198
0.0612792
0.123277
0.0376512
0.0890374
0.0298403
0.0290431
0.0999475
0.0399051
0.0307229
0.0244803
0.0969677
0.144825
0.03547
0.0237037
0.142958
0.0236817
0.0678969
0.0354708
0.0444239
0.0391195
0.0480981
0.0487961
0.0679626
0.0595401
0.169535
0.0238617
0.0538185
0.0435532
0.0682268
0.0224429
0.720508
0.0868885
0.0294561
0.0378592
0.0570827
0.0539038
0.0398816
0.0921447
0.0356938
0.0297928
0.0277135
0.0314772
0.0661846
0.0334
0.104244
0.113202
0.0290199
0.14912
0.121706
0.0342308
0.0262011
0.113818
0.236105
0.0416689
0.0477426
0.0483806
0.0475561
0.0447097
0.153479
0.0382827
0.0697297
0.0985209
0.0494955
0.0966692
0.109899
0.0474745
0.0470537
0.0416347
0.0657172
0.0560251
0.312812
0.0451147
0.0788438
0.0358577
0.128278
0.0993555
0.121187
0.106823
0.0435023
0.0427057
0.0485922
0.0395411
0.0984746
0.0715766
0.0744033
0.0665446
0.0740961
0.0156841
0.0849836
0.0546022
0.0561798
0.046892
0.034302
0.126195
0.0601144
0.0257595
0.0428776
0.0163412
0.0613616
0.136026
0.0163154
0.0882349
0.0558183
0.0176886
0.0825221
0.0285694
0.0253402
0.0347255
0.027238
0.0270685
0.0250717
0.0258812
0.0316515
0.841914
0.0569921
0.0254273
0.0243147
0.0253378
0.0372534
0.0248079
0.0278963
0.0631171
0.0437964
0.0684291
0.0565557
0.0521729
0.0250431
0.0684662
0.0537366
0.106219
0.0539302
0.0692056
0.0495758
0.0471149
0.0467071
0.0459777
0.0338098
0.0466296
0.0430347
0.0652432
0.0268022
0.0653972
0.0273298
0.0527735
0.0613223
0.0349064
0.029696
0.0345975
