-0.000230643;0.502087
-0.000238317;0.502093
-0.0001982;0.504351
4.64029e-06;0.509112
0.000679195;0.515227
0.00203235;0.522261
0.00299661;0.525857
0.00550918;0.533028
0.00869215;0.540151
0.0124386;0.547085
0.0167333;0.553851
0.0216119;0.5604
0.0242152;0.563604
0.0298335;0.56987
0.0358352;0.575902
0.0422188;0.58172
0.0489429;0.587266
0.0559837;0.592551
0.0596107;0.595097
0.0670542;0.600018
0.0747758;0.604701
0.0826944;0.609153
0.0908044;0.613398
0.0949161;0.615433
0.103287;0.619353
0.111819;0.623081
0.120496;0.626601
0.124858;0.628297
0.133709;0.631557
0.138165;0.633136
0.147148;0.636149
0.156198;0.639017
0.165339;0.641724
0.169933;0.643042
0.179191;0.645626
0.188492;0.64802
0.197858;0.6503
0.202553;0.651393
0.211988;0.653509
0.216713;0.65453
0.226199;0.656489
0.235721;0.658335
0.245273;0.660111
0.250064;0.660976
0.25966;0.662609
0.269287;0.664165
0.278938;0.665648
0.28861;0.667061
0.293449;0.667721
0.303139;0.669015
0.312858;0.670267
0.317719;0.670869
0.327467;0.672013
0.332342;0.672563
0.342109;0.673629
0.346986;0.674141
0.35188;0.674641
0.361671;0.675597
0.366561;0.676061
0.376369;0.676964
0.381264;0.677396
0.391095;0.678204
0.395998;0.678609
0.405809;0.679368
0.41072;0.679733
0.420561;0.680433
0.425481;0.680768
0.43531;0.681393
0.440227;0.681696
0.450067;0.682253
0.454985;0.682516
0.464834;0.683021
0.474676;0.683493
0.479601;0.683697
0.489461;0.684086
0.499327;0.684444
0.509191;0.684788
0.514112;0.684928
0.523978;0.685206
0.533836;0.685431
0.538772;0.685534
0.548641;0.685722
0.558513;0.685851
0.563457;0.685907
0.573325;0.686005
0.583196;0.68609
0.593052;0.686114
0.597996;0.686126
0.607877;0.686105
0.617756;0.686019
0.627635;0.685911
0.632575;0.685858
0.642457;0.685698
0.652339;0.6855
0.662211;0.685248
0.667144;0.685104
0.677013;0.684799
0.686884;0.684452
0.696756;0.68407
0.706611;0.683645
0.711547;0.683415
0.721407;0.682932
0.726331;0.682677
0.736193;0.682129
0.74605;0.681563
0.750973;0.681255
0.760818;0.680619
0.770663;0.679935
0.780503;0.679208
0.790335;0.678444
0.795249;0.67805
0.805072;0.677226
0.814893;0.676365
0.81981;0.675923
0.829357;0.674965
0.838625;0.673857
0.847879;0.67253
0.852485;0.671771
0.861186;0.670119
0.869873;0.668064
0.874238;0.666898
0.883157;0.66432
0.887679;0.66292
0.896884;0.659962
0.906238;0.65688
0.915632;0.653775
0.925078;0.650588
0.92977;0.648999
0.939096;0.64588
0.948478;0.642785
0.957933;0.639718
0.962677;0.63819
0.972167;0.635115
0.98165;0.632023
0.991142;0.628909
0.995896;0.627342
1.00536;0.624194
1.01479;0.621043
1.02424;0.617863
1.02896;0.616274
1.03843;0.613079
1.0479;0.609879
1.05738;0.606712
1.06208;0.605126
1.07151;0.601918
1.08093;0.598691
1.09032;0.595466
1.09973;0.592224
1.10444;0.590612
1.11383;0.587349
1.1232;0.584073
1.13258;0.580791
1.13724;0.579158
1.14661;0.575898
1.15598;0.572588
1.16534;0.569271
1.17;0.567606
1.17933;0.564244
1.18864;0.560855
1.19792;0.557439
1.20257;0.55573
1.21185;0.552292
1.2211;0.548799
1.2257;0.547047
1.23492;0.543501
1.24414;0.539928
1.25334;0.536319
1.26251;0.532687
1.26709;0.530857
1.27624;0.527161
1.28538;0.523436
1.29448;0.519669
1.29903;0.517774
1.30811;0.513952
1.31718;0.510078
1.32171;0.50813
1.33075;0.504205
1.33977;0.50024
1.34425;0.498238
1.35322;0.49421
1.36212;0.490145
1.37086;0.486067
1.37514;0.484042
1.38305;0.480255
1.38689;0.478374
1.39404;0.474826
1.40145;0.471082
1.40818;0.467585
1.41122;0.465982
1.417;0.462877
1.42208;0.460094
1.42639;0.457675
1.42842;0.456511
1.43226;0.454288
1.43554;0.452327
1.43849;0.450526
1.4398;0.449708
1.44206;0.448322
1.44391;0.447128
1.44554;0.446057
1.4463;0.445546
1.44762;0.444664
1.44877;0.443857
1.44927;0.443499
1.45013;0.442871
1.45089;0.442309
1.45149;0.441864
1.45199;0.441477
1.45222;0.4413
1.45259;0.441019
1.45288;0.440781
1.45299;0.440694
1.45315;0.440561
1.45325;0.440471
1.45331;0.440416
1.45332;0.440403
1.45334;0.44041
1.45331;0.440444
1.45328;0.440476
1.45324;0.440504
1.45313;0.440612
1.45298;0.440752
1.45282;0.440916
1.45273;0.441008
1.4525;0.441248
1.45226;0.441511
1.45213;0.441636
1.45188;0.441909
1.45161;0.442214
1.45132;0.442545
1.45117;0.442721
1.45086;0.443072
1.45055;0.443441
1.45023;0.443814
1.44992;0.444191
1.44977;0.444387
1.44943;0.444804
1.4491;0.44522
1.44877;0.445663
1.44844;0.446102
1.44811;0.446541
1.44795;0.446764
1.44761;0.447222
1.44728;0.447692
1.44712;0.447932
1.44678;0.448418
1.44644;0.448922
1.44627;0.449177
1.44592;0.449715
1.44558;0.450236
1.44526;0.45074
1.44497;0.451215
1.44483;0.451453
1.44453;0.451941
1.44423;0.45245
1.44391;0.452984
1.44376;0.453246
1.44346;0.453768
1.44318;0.454266
1.44291;0.454754
1.44277;0.454995
1.44249;0.455508
1.44221;0.456039
1.44192;0.456574
1.44181;0.456802
1.44157;0.457253
1.44133;0.457737
1.44109;0.458243
1.44096;0.458497
1.4407;0.459017
1.44046;0.459506
1.44023;0.460009
1.44011;0.46026
1.43992;0.460664
1.43973;0.461089
1.43953;0.461552
1.43942;0.461784
1.43921;0.462272
1.439;0.462778
1.43881;0.463245
1.43871;0.463479
1.43851;0.463961
1.43832;0.46442
1.43814;0.464889
1.43805;0.465116
1.43788;0.465544
1.43772;0.465987
1.43754;0.466437
1.43738;0.466858
1.4373;0.467058
1.43715;0.467478
1.43699;0.467906
1.43685;0.46829
1.4368;0.468466
1.43666;0.468856
1.43651;0.46926
1.43638;0.469678
1.43624;0.470076
1.4361;0.470474
1.43603;0.470682
1.4359;0.471088
1.43578;0.471473
1.43572;0.471674
1.43559;0.472069
1.43547;0.472439
1.43536;0.472824
1.4353;0.473016
1.4352;0.473351
1.4351;0.473707
1.435;0.474072
1.43494;0.474255
1.43486;0.474583
1.43476;0.474905
1.43467;0.475237
1.43458;0.47558
1.43453;0.475755
1.43444;0.476076
1.43439;0.476259
1.43431;0.476586
1.43423;0.476926
1.43419;0.477086
1.43411;0.477422
1.43403;0.477747
1.434;0.477898
1.43393;0.478211
1.43385;0.478538
1.43382;0.478667
1.43378;0.478934
1.43372;0.47922
1.43366;0.479503
1.43362;0.479649
1.43355;0.479951
1.4335;0.48024
1.43344;0.48053
1.43341;0.480677
1.43335;0.480939
1.4333;0.481224
1.43324;0.481493
1.43322;0.48162
1.43316;0.481872
1.43311;0.482134
1.43309;0.482248
1.43305;0.482497
1.43298;0.48275
1.43293;0.48299
1.43291;0.483115
1.43286;0.48334
1.43283;0.483547
1.4328;0.483768
1.43278;0.483891
1.43273;0.484132
1.4327;0.484334
1.43268;0.48443
1.43264;0.484652
1.4326;0.484876
1.43257;0.485078
1.43256;0.485172
1.43253;0.485383
1.43251;0.485578
1.4325;0.485658
1.43247;0.485843
1.43245;0.486006
1.43242;0.486196
1.43241;0.486283
1.4324;0.486373
1.43237;0.486554
1.43234;0.486713
1.43232;0.486793
1.4323;0.486965
1.43228;0.487101
1.43225;0.487264
1.43222;0.487434
1.43221;0.48752
1.43219;0.487682
1.43216;0.487851
1.43215;0.487953
1.43212;0.488153
1.4321;0.488339
1.43208;0.488508
1.43207;0.488595
1.43204;0.488786
1.43203;0.488975
1.43203;0.489049
1.43202;0.489207
1.432;0.489338
1.432;0.489394
1.43198;0.489537
1.43197;0.489688
1.43196;0.489841
1.43195;0.489908
1.43194;0.490033
1.43192;0.490144
1.43191;0.490196
1.43188;0.490319
1.43187;0.490441
1.43186;0.490543
1.43185;0.490661
1.43184;0.490739
1.43182;0.490871
1.43181;0.490941
1.43179;0.491037
1.43179;0.49115
1.43179;0.491266
1.43179;0.491339
1.43178;0.491451
1.43177;0.491565
1.43176;0.491622
1.43175;0.491751
1.43174;0.491837
1.43173;0.491924
1.43173;0.491976
1.43174;0.492033
1.43174;0.492116
1.43174;0.492147
1.43174;0.492201
1.43173;0.492235
1.43172;0.492314
1.43171;0.492397
1.43171;0.492435
1.4317;0.492478
1.4317;0.492566
1.4317;0.492648
1.4317;0.492679
1.43169;0.492753
1.43168;0.492874
1.43167;0.492911
1.43167;0.492989
1.43166;0.493053
1.43166;0.493128
1.43166;0.493169
1.43166;0.493247
1.43165;0.493305
1.43164;0.493327
1.43162;0.493394
1.43161;0.493478
1.43161;0.493516
1.43159;0.493578
1.43158;0.493624
1.43156;0.493699
1.43155;0.493729
1.43154;0.49375
1.43153;0.493803
1.43153;0.493845
1.43153;0.493887
1.43152;0.493907
1.43151;0.493949
1.43152;0.493969
1.43151;0.494023
1.4315;0.494105
1.4315;0.49411
1.4315;0.494167
1.4315;0.494233
1.4315;0.494284
1.4315;0.494312
1.4315;0.494354
1.43149;0.494407
1.43149;0.494458
1.43148;0.494505
1.43148;0.494571
1.43149;0.49463
1.4315;0.494665
1.43151;0.494708
1.43151;0.49474
1.43151;0.494729
1.43151;0.494712
1.43151;0.494678
1.43149;0.494705
1.43148;0.494728
1.43148;0.494744
1.43147;0.494774
1.43148;0.494781
1.43148;0.494785
1.43148;0.494821
1.43148;0.494858
1.4315;0.49491
1.4315;0.494914
1.43149;0.494916
1.43147;0.494882
1.43146;0.494883
1.43146;0.4949
1.43146;0.494904
1.43145;0.494913
1.43145;0.494908
1.43145;0.494905
1.43147;0.494904
1.43147;0.494899
1.43148;0.494891
1.43148;0.494885
1.43148;0.494876
1.43147;0.494837
1.43147;0.494828
1.43147;0.494806
1.43147;0.494827
1.43146;0.494863
1.43144;0.494909
1.43143;0.494932
1.43143;0.494925
1.43143;0.494893
1.43144;0.49487
1.43144;0.494873
1.43145;0.494842
1.43145;0.494823
1.43145;0.494839
1.43147;0.494815
1.43147;0.49481
1.43148;0.494838
1.43148;0.494845
1.4315;0.494865
1.43151;0.494917
1.43152;0.494956
1.43152;0.494958
1.43152;0.494951
1.43152;0.494942
1.43153;0.494937
1.43153;0.494909
1.43153;0.494873
1.43153;0.494861
1.43153;0.494856
1.43154;0.494837
1.43152;0.494848
1.43152;0.494844
1.43151;0.49484
1.43151;0.494832
1.43151;0.494844
1.43151;0.494814
1.4315;0.494805
1.43148;0.494788
1.43147;0.494788
1.43145;0.494789
1.43144;0.494844
1.43144;0.494853
1.43145;0.494837
1.43146;0.494846
1.43146;0.49482
1.43146;0.494822
1.43147;0.494857
1.43148;0.494882
1.43148;0.494922
1.43148;0.494948
1.43147;0.494981
1.43145;0.495017
1.43145;0.495009
1.43145;0.495043
1.43144;0.495118
1.43144;0.495145
1.43144;0.495177
1.43144;0.495215
1.43144;0.495292
1.43144;0.495369
1.43144;0.495393
1.43144;0.495435
1.43145;0.495463
1.43145;0.495476
1.43144;0.49549
1.43143;0.495479
1.43142;0.495436
1.43142;0.495417
1.43142;0.495386
1.43141;0.495361
1.43139;0.495337
1.43139;0.495323
1.43138;0.495381
1.43139;0.495439
1.43139;0.495519
1.43138;0.495548
1.43139;0.495618
1.43137;0.495683
1.43137;0.495697
1.43137;0.495695
1.43137;0.495694
1.43137;0.495727
1.43137;0.495784
