0.0251314
0.0264176
0.0351631
0.0832092
0.0297328
0.0998083
0.0247581
0.0290498
0.0381951
0.0275755
0.0246177
0.0281337
0.0247043
0.0230862
0.0216296
0.0298602
0.0244837
0.0301344
0.0273267
0.0383049
0.0210679
0.0255026
0.0238159
0.0256881
0.027069
0.0346099
0.0284976
0.00661015
0.027233
0.0251558
0.0212963
0.0285616
0.0233726
0.0215737
0.033648
0.0267272
0.0351222
0.0281597
0.0409783
0.0269183
0.0275925
0.0293904
0.0208521
0.0205905
0.0195022
0.032783
0.0334795
0.0227648
0.0354275
0.00984264
0.0171068
0.0311504
0.0323782
0.00617948
0.0255947
0.0210969
0.0332796
0.0321519
0.00666041
0.0218892
0.0410208
0.0594608
0.0262814
0.0274863
0.0379356
0.0357195
0.0284607
0.0231345
0.00741272
0.0318367
0.0340364
0.0334687
0.0320184
0.0320456
0.0350117
0.0291855
0.0334116
0.00674297
0.0348967
0.0274239
0.0352872
0.0067431
0.00443323
0.0350929
0.0369295
0.0435473
0.00834082
0.0413456
0.00747104
0.0367798
0.0114628
0.0532257
0.00932831
0.0371843
0.0143601
0.0687178
0.00919781
0.0510443
0.0111805
0.008248
0.00788597
0.00856685
0.00584605
0.00820905
0.0116243
0.00718729
0.0088637
0.00843223
0.013188
0.00896727
0.0215396
0.00967083
0.00743238
0.00936311
0.0096489
0.00816377
0.00757701
0.0086393
0.0165799
0.00873267
0.00787021
0.0168978
0.0165467
0.0137705
0.0107917
0.0100602
0.0138984
0.00691474
0.015678
0.0136423
0.00895385
0.00686909
0.0131112
0.0104619
0.0104707
0.00876387
0.0150304
0.0179877
0.00717607
0.00756804
0.0131843
0.0158299
0.00678791
0.0291082
0.011102
0.010459
0.0107284
0.0338347
0.0154246
0.0552524
0.0109778
0.071223
0.0904468
0.0996353
0.0120813
0.0994611
0.0539666
0.099925
0.0999637
0.0996321
0.0997733
0.049255
0.0474011
0.0297485
0.0717015
0.0383899
0.0351221
0.0349093
0.080827
0.0448454
0.0516662
0.0431652
0.040507
0.0396645
0.0359694
0.0353905
0.0309108
0.0350811
0.0402778
0.0388781
0.0357301
0.0348613
0.0343031
0.0363691
0.0270283
0.0410031
0.0507542
0.0340656
0.0308359
0.0325038
0.0414329
0.0319662
0.0279103
0.0373162
0.033048
0.0361472
0.0415795
0.039629
0.0350239
0.0285609
0.0364828
0.0253358
0.0279945
0.0332086
0.0371874
0.0245416
0.0311379
0.0332695
0.0285198
0.0262451
0.0309934
0.0271492
0.0306187
0.0257474
0.0280786
0.0267982
0.0253073
0.030775
0.033168
0.0266626
0.0318466
0.0247264
0.0265325
0.0268912
0.0291975
0.0280261
0.02991
0.0295969
0.0298692
0.0354303
0.0276731
0.0329427
0.0271795
0.0279653
0.0276866
0.0182597
0.0314923
0.0482114
0.0323266
0.0309229
0.0209337
0.0304684
0.027329
0.0279649
0.0294909
0.028293
0.0301397
0.0287546
0.0340945
0.0241191
0.0255838
0.0256202
0.0250367
0.0295493
0.032383
0.0322638
0.030155
0.0261217
0.0366387
0.0166097
0.0203849
0.0218605
0.0219302
0.0196204
0.0283921
0.0191388
0.0133724
0.01457
0.0151749
0.0145374
0.0158536
0.0148784
0.0135324
0.0136342
0.057321
0.00542279
0.00607658
0.00522148
0.00828422
0.00711839
0.00764199
0.00683777
0.0105934
0.0221499
0.0325574
0.0110217
0.00728157
0.0127272
0.00566458
0.00384063
0.00386654
0.0126327
0.00418298
0.0117485
0.00365529
0.0123528
0.00386361
0.00374816
0.00372789
0.00397044
0.00388915
0.00364556
0.00380734
0.0121733
0.00371159
0.00367139
0.00370253
0.003928
0.00370521
0.0157584
0.00376201
0.00428795
0.00359701
0.00379617
0.00380617
0.00366609
0.00365712
0.00363602
0.00409802
0.00360173
0.00400341
0.0036336
0.0041481
0.00368927
0.00387136
0.00365962
0.00368552
0.00389795
0.00376383
0.00375738
0.00375023
0.00379599
0.00375595
0.0039359
0.012739
0.00395391
0.00378715
0.00381333
0.00385901
0.00381116
0.00592746
0.00393203
0.00381683
0.0038178
0.00380366
0.00379585
0.00388793
0.00387702
0.00386879
0.0041265
0.00407886
0.00378372
0.00387832
0.00939814
0.00912814
0.00405039
0.00383076
0.00391843
0.00395236
0.0041056
0.00385329
0.00399258
0.00405686
0.00390833
0.00377817
0.00377482
0.00400127
0.00390677
0.00379759
0.00389792
0.00509318
0.00382728
0.0038171
0.00380187
0.00385157
0.00503137
0.00394584
0.00387939
0.00383118
0.00393885
0.00559243
0.00382513
0.00385661
0.0039344
0.00429788
0.00388208
0.00380981
0.00872917
0.00404914
0.00384141
0.00704994
0.00597039
0.00720786
0.00615511
0.0149591
0.0062215
0.00736149
0.00622191
0.00627387
0.0061267
0.00621841
0.00395506
0.0584724
0.0264374
0.0453536
0.0291511
0.0483603
0.0385783
0.0436331
0.0291462
0.0446937
0.0276205
0.0208124
0.0319219
0.028419
0.0212398
0.0227422
0.0223051
0.0171805
0.0163415
0.0164615
0.0166266
0.0165333
0.0150886
0.0149637
0.0151101
0.0147598
0.0152744
0.016608
0.0148695
0.0148358
0.0152132
0.0142113
0.0136378
0.0145571
0.00603168
0.0737971
0.0340373
0.0113935
0.00549368
0.0123125
0.00890889
0.0246441
0.0168533
0.0280014
0.00974711
0.00943361
0.00700961
0.00724082
0.00730804
0.00849082
0.0084871
0.0102279
0.00889327
0.0189793
0.0133581
0.0168136
0.012414
0.0137595
0.00801176
0.0134053
0.0123906
0.0156992
0.0184856
0.0125192
0.0120609
0.00967859
0.00885202
0.0129256
0.0094665
0.0109005
0.0170165
0.0139295
0.0167429
0.0224347
0.0150957
0.0201009
0.0132596
0.0142465
0.0131463
0.0125505
0.0108711
0.0139248
0.0133385
0.0145711
0.0150651
0.0151283
0.0147206
0.0170626
0.0155126
0.0190713
0.0216103
0.0170866
0.0486761
0.00825994
0.027151
0.0363448
0.0126514
0.023867
0.0147361
0.0453036
0.0137308
0.0494009
0.0117963
0.0301091
0.0128454
0.0268509
0.0387836
0.0322007
0.00892606
0.069701
0.0339042
0.0110517
0.0490886
0.0470767
0.0167509
0.0822403
0.0663676
0.0115286
0.00640059
0.00641556
0.00617208
0.00630403
0.00612372
0.00609175
0.00615357
0.00605476
0.00628734
0.00620556
0.00722198
0.00686915
0.0082431
0.0334038
0.0385871
0.0348222
0.0484384
0.0299903
0.0363292
0.0270502
0.0326145
0.0493271
0.0271956
0.0289604
0.0381833
0.0267806
0.0367802
0.0274573
0.0253764
0.0238559
0.0244826
0.0218076
0.0255526
0.0185708
0.0256916
0.0265673
0.0328676
0.0246474
0.0061655
0.00719763
0.00550156
0.00583954
0.00485989
0.0048431
0.00575293
0.00487277
0.00480385
0.00514082
0.0047932
0.00481851
0.00421468
0.00429524
0.00420785
0.0042091
0.00462578
0.0042645
0.00743169
0.00565654
0.00426654
0.0080909
0.030471
0.00546864
0.00541486
0.00475678
0.00491701
0.0048479
0.00492293
0.00416105
0.0042745
0.00414562
0.00829969
0.00800036
0.00558512
0.0047877
0.00480165
0.00495639
0.00437973
0.00429824
0.0041963
0.00440545
0.00419953
0.026525
0.00630286
0.00606876
0.00618089
0.00546202
0.0054932
0.00480834
0.00481777
0.00430197
0.00515211
0.004106
0.00414989
0.00421211
0.0240352
0.00499049
0.00473373
0.00558454
0.00412537
0.0045625
0.00408094
0.00407535
0.0297805
0.0048826
0.00408409
0.00469526
0.0255187
0.00405769
0.00414054
0.00399376
0.00406808
0.00408706
0.0049832
0.00421103
0.0276314
0.00462998
0.00415341
0.00403178
0.021014
0.00624381
0.00470877
0.00788317
0.00405708
0.00397326
0.00406063
0.00406274
0.00400988
0.0040501
0.0264128
0.00665623
0.00403003
0.0049813
0.00470292
0.00396151
0.00408765
0.00472605
0.00604301
0.00408667
0.00405629
0.0251431
0.0520139
0.00645191
0.00393361
0.00404131
0.00518512
0.0040385
0.0299349
0.0437214
0.00516416
0.00400274
0.00396402
0.0246515
0.0856131
0.00687515
0.00408506
0.0040461
0.0247217
0.0370356
0.00698345
0.00417277
0.00400452
0.0321966
0.0385159
0.00764793
0.00519756
0.00399906
0.00400271
0.00414039
0.0254989
0.0298583
0.0281871
0.00748675
0.00950735
0.00399812
0.00734721
0.0333971
0.0257463
0.0383061
0.00576195
0.00540259
0.00394984
0.0272427
0.0237135
0.00869949
0.00539513
0.00447475
0.00404567
0.00401565
0.00413432
0.0256601
0.0251228
0.0246492
0.0272196
0.00902715
0.00398887
0.0329125
0.0229395
0.0235325
0.0256541
0.0307205
0.00513337
0.00398656
0.023285
0.0235485
0.0222178
0.0250353
0.0294824
0.028094
0.00518005
0.0045441
0.0253036
0.00514908
0.0212266
0.0250765
0.0204333
0.0236115
0.0244555
0.0270624
0.0284567
0.00403195
0.0206266
0.022904
0.00464869
0.0196443
0.0166042
0.019383
0.0181134
0.0193163
0.0305047
0.0235264
0.0289058
0.0239072
0.0244643
0.024475
0.0229293
0.0290947
0.0229458
0.0207293
0.0209117
0.0263655
0.0413931
0.00397658
0.00339698
0.020285
0.0131868
0.0209532
0.0254613
0.026962
0.0234816
0.0322461
0.0238072
0.023106
0.0258365
0.0265376
0.0243825
0.0266043
0.0278069
0.029083
0.0254338
0.0237668
0.0230609
0.027263
0.00411365
0.0214796
0.0203317
0.016086
0.0195297
0.0205497
0.0230133
0.0213487
0.020055
0.0265246
0.0225616
0.0202513
0.0219109
0.00424104
0.00368834
0.0207687
0.0186925
0.0171842
0.0206459
0.00415556
0.00463169
0.00346225
0.0185169
0.0251934
0.022445
0.0262025
0.0242685
0.0271455
0.0272901
0.0252366
0.026891
0.0214602
0.0221221
0.0326469
0.020681
0.0211885
0.0236162
0.0173485
0.0216395
0.0169476
0.0198888
0.0200714
0.03132
0.0335464
0.0241825
0.0214856
0.0226837
0.0228536
0.0286113
0.0221102
0.0285784
0.022616
0.0246956
0.0343004
0.0051979
0.015165
0.0105053
