0.00627428
0.00443014
0.00106784
0.00137052
0.00151186
0.00155145
0.00148373
0.00160886
0.0015228
0.00152425
0.00155459
0.00150165
0.00160067
0.00151959
0.00167787
0.00154253
0.00159546
0.001524
0.00165619
0.0015841
0.00147564
0.00173321
0.00152911
0.00157959
0.00162623
0.00155594
0.00149521
0.00155126
0.0015613
0.00147727
0.00158665
0.0014554
0.00148492
0.00155941
0.00145748
0.00194381
0.00149245
0.00153245
0.00161877
0.0017933
0.00144565
0.00125936
0.00121405
0.00107205
0.00107717
0.00120193
0.00108366
0.00111177
0.00111114
0.00119345
0.00111829
0.00103198
0.00106208
0.0011328
0.00113781
0.00105163
0.0011979
0.00112856
0.00112109
0.00111002
0.00114416
0.00110329
0.0012834
0.00115342
0.00111162
0.00108173
0.00105534
0.00107605
0.00150058
0.00111105
0.0012903
0.00118647
0.00112737
0.00106754
0.00115707
0.00107928
0.00118265
0.00114076
0.00114475
0.00115412
0.00105838
0.00110561
0.00164815
0.00119342
0.00113242
0.00112205
0.00116548
0.00110411
0.00112062
0.00113609
0.00115687
0.00123985
0.00115611
0.0011436
0.0023809
0.0010782
0.00112293
0.00111043
0.00111254
0.00115996
0.00110632
0.00108438
0.00110718
0.00107417
0.00138504
0.00171017
0.00120545
0.00118478
0.00111087
0.00107603
0.00108891
0.00114216
0.00111938
0.0010431
0.00116051
0.00114816
0.00111658
0.00106192
0.00102279
0.00167475
0.00110948
0.00107189
0.00110039
0.00112287
0.00113339
0.00107361
0.00130505
0.00134113
0.00142039
0.00239423
0.00132977
0.00131587
0.00136
0.00136485
0.0127078
0.0034567
0.00129533
0.00132986
0.00136513
0.00133821
0.00131147
0.00166486
0.001552
0.00150354
0.00154926
0.00177169
0.00150572
0.0015079
0.00148199
0.00145287
0.00169879
0.00144223
0.00157517
0.00140168
0.0014975
0.00143297
0.00265787
0.00153279
0.00153893
0.00239604
0.00193102
0.00379916
0.00301793
0.00357268
0.00312613
0.00335999
0.00335731
0.00335044
0.00347852
0.00443162
0.00535869
0.00467822
0.00350323
0.00490596
0.00376446
0.00381477
0.00429687
0.00452131
0.00632251
0.00425899
0.00384931
0.0348507
0.00402014
0.00653984
0.00588729
0.012213
0.0110973
0.00711525
0.0123222
0.0110758
0.0079907
0.00862216
0.00695476
0.0116644
0.00833181
0.00975444
0.00845761
0.0102086
0.00888533
0.00317292
0.00329555
0.00333004
0.00343596
0.00336798
0.0123048
0.00810398
0.0139302
0.0138227
0.00199555
0.0241817
0.00198403
0.00410016
0.0020601
0.00216908
0.00385569
0.00869481
0.00913018
0.00239297
0.00220456
0.002159
0.00896468
0.0123686
0.0112437
0.00236545
0.0112373
0.00232745
0.00362092
0.00228895
0.0030178
0.00213457
0.00192654
0.00184695
0.00984181
0.00905348
0.00825613
0.011945
0.00144334
0.00814459
0.0018332
0.00164668
0.0107835
0.00903267
0.00855915
0.00848192
0.00841461
0.00786761
0.00870435
0.0116204
0.0085969
0.0190982
0.00142718
0.0056573
0.00179684
0.00189376
0.0104015
0.00191256
0.00731677
0.011584
0.00576798
0.00655899
0.00737197
0.00719979
0.00757302
0.00795277
0.00663894
0.00671297
0.0063299
0.00595884
0.00677266
0.00641522
0.00638551
0.00790776
0.00920653
0.00593473
0.00631825
0.00653739
0.00825318
0.00608626
0.0113949
0.00703844
0.00671668
0.00811625
0.00701601
0.00666205
0.00747236
0.0090293
0.00864038
0.00919824
0.0071158
0.00741168
0.0110904
0.00753652
0.00739895
0.00822948
0.00698195
0.00804191
0.00733808
0.00874324
0.00802206
0.00622414
0.00943959
0.00788358
0.00917083
0.00677854
0.00952234
0.00649658
0.00642312
0.00636763
0.00805315
0.00717432
0.00681128
0.00722747
0.00751147
0.00615417
0.00820264
0.00794512
0.0123293
0.00644033
0.00742077
0.00829647
0.0067035
0.00659899
0.00692959
0.00521701
0.0046208
0.00523184
0.00153791
0.00503301
0.00404584
0.00416167
0.00415136
0.0035116
0.00616984
0.00721747
0.00508999
0.00394335
0.00426787
0.00363729
0.00430791
0.00450402
0.00406217
0.00389626
0.00488404
0.00528838
0.00526488
0.00523188
0.00624351
0.00503093
0.00587853
0.00564889
0.00604675
0.00932715
0.00652906
0.00619851
0.00686631
0.00635355
0.00540585
0.00446897
0.00504128
0.00582634
0.00596032
0.00523827
0.0059442
0.00558142
0.0056814
0.0079384
0.00652988
0.00803596
0.00672421
0.00675529
0.00674196
0.00597363
0.00715714
0.00715906
0.00915849
0.00723667
0.00795441
0.00772493
0.00712941
0.00742534
0.00713075
0.00670908
0.00756591
0.00728025
0.00704476
0.00693142
0.00751713
0.00689736
0.00748269
0.00751168
0.00767048
0.0115039
0.00156796
0.00600004
0.00439008
0.00946964
0.00113592
0.00447046
0.00479599
0.00448743
0.00108731
0.00739774
0.00845267
0.00363967
0.00406804
0.00451197
0.00422752
0.0038164
0.00108709
0.00107719
0.000959068
0.00114148
0.00108612
0.00110744
0.000929022
0.00556818
0.00322444
0.00401743
0.00377715
0.00337788
0.00387542
0.00625215
0.00533493
0.00667392
0.00402951
0.00404833
0.00450393
0.00352691
0.00640712
0.00444816
0.00484889
0.00501599
0.00588083
0.00598107
0.00746405
0.00829539
0.00586331
0.00834757
0.00735498
0.00680887
0.00568879
0.00814046
0.00546877
0.00520077
0.00550274
0.00480489
0.00437918
0.00743363
0.00467064
0.00591639
0.0043224
0.00596081
0.0049434
0.00852247
0.00565788
0.0106755
0.0101524
0.0071549
0.0153501
0.00599156
0.005468
0.0042849
0.00378713
0.00437687
0.00357681
0.00757099
0.00742475
0.00355313
0.00629141
0.00732568
0.00476507
0.00534503
0.00507712
0.0083687
0.00587563
0.00518094
0.00570604
0.00600623
0.00595944
0.00509392
0.0057507
0.005606
0.00513732
0.00498804
0.00406041
0.0113359
0.00691393
0.00439491
0.00999198
0.00609858
