0.0676768
0.0804856
0.0787436
0.0680011
0.0634989
0.065912
0.0727226
0.0761675
0.0644031
0.0724503
0.0682017
0.0660025
0.0882813
0.0741379
0.0657129
0.0745095
0.0678974
0.0734288
0.0671658
0.0643802
0.0955068
0.0809564
0.0713807
0.0757068
0.075172
0.0779726
0.0860512
0.0958036
0.0675175
0.0786855
0.0692904
0.0790149
0.0675589
0.081073
0.0734723
0.0668252
0.0665867
0.0728571
0.0689093
0.0636845
0.0854741
0.0820834
0.0720146
0.0791436
0.0739119
0.0663255
0.0673493
0.0688085
0.0646114
0.066089
0.0685655
0.0772937
0.0719939
0.0716028
0.0663024
0.0648218
0.071922
0.0649363
0.0656229
0.0591801
0.0663971
0.063534
0.060192
0.0628595
0.0629474
0.0700592
0.0631224
0.0627643
0.0801425
0.0774968
0.0600693
0.0595122
0.0585765
0.066892
0.0596652
0.0753085
0.0656379
0.0661084
0.0575773
0.0592905
0.0648613
0.0674898
0.0602733
0.0630013
0.0613211
0.0595965
0.0586867
0.0797284
0.0735323
0.0594532
0.06076
0.0667865
0.0681669
0.0685754
0.0584275
0.0754425
0.074892
0.0754088
0.073201
0.0761582
0.0745806
0.0684884
0.0875064
0.0815061
0.0796904
0.0707815
0.0700793
0.0802321
0.0984225
0.0655617
0.0770643
0.0745154
0.0738633
0.0784776
0.0873942
0.084787
0.0812237
0.0875764
0.0842127
0.0812895
0.0814116
0.071492
0.0733847
0.0814137
0.0758264
0.0843213
0.076062
0.0910277
0.0696052
0.0895656
0.0662199
0.0830881
0.0853629
0.0578681
0.0579332
0.0659972
0.0776934
0.0718338
0.0561366
0.0813841
0.0851326
0.0783854
0.0734794
0.0632481
0.0636302
0.0696166
0.0843336
0.0641497
0.0659796
0.0673201
0.070841
0.0803815
0.0667698
0.0845908
0.0683841
0.0767513
0.0650239
0.0694915
0.0616507
0.0697094
0.0693749
0.0740797
0.0749295
0.0851896
0.0682537
0.0597074
0.0603232
0.0590388
0.0659388
0.0684014
0.0605679
0.0959141
0.069892
0.0774677
0.0672083
0.0822605
0.0709873
0.0683858
0.0565143
0.0673722
0.0647182
0.0666964
0.0657307
0.0628537
0.0654883
0.05659
0.0699948
0.075143
0.0698755
0.0727533
0.0666893
0.0646584
0.0655001
0.0669089
0.0612567
0.0747702
0.0649583
0.0614533
0.0623172
0.0635878
0.065509
0.062952
0.0695609
0.060474
0.0435916
0.0681736
0.0627108
0.0679094
0.0695915
0.0775511
0.0775265
0.0814141
0.116495
0.112947
0.100633
0.0781213
0.107586
0.103182
0.105624
0.095142
0.0822655
0.0938391
0.0771324
0.0755571
0.0772528
0.0821684
0.0920767
0.0893253
0.0783611
0.0792416
0.0796177
0.0955932
0.0893073
0.0910538
0.0863515
0.105332
0.0972304
0.0903235
0.096677
0.0952738
0.0755291
0.0961611
0.0870843
0.0892681
0.0798557
0.0699908
0.0895882
0.0756419
0.0723356
0.089835
0.0701528
0.0983788
0.106175
0.0905697
0.0796972
0.0932342
0.105892
0.0913502
0.098279
0.0876167
0.0880725
0.0950893
0.0726875
0.0805215
0.103692
0.117845
0.0857174
0.0920285
0.101305
0.0859966
0.0808118
0.0994424
0.0994438
0.105159
0.0964305
0.0920493
0.0923373
0.099012
0.10565
0.0801773
0.0856269
0.0879886
0.102197
0.0929706
0.0723762
0.0913611
0.0815492
0.0916118
0.105834
0.0868977
0.109121
0.0857748
0.101304
0.100012
0.0898939
0.0927542
0.094689
0.111055
0.0913775
0.0880457
0.0841406
0.0929059
0.0925203
0.105032
0.0909085
0.0870432
0.0919918
0.0926293
0.103393
0.0967619
0.0908328
0.099439
0.0935837
0.0824634
0.0787013
0.0811648
0.0890098
0.083848
0.0937362
0.0836617
0.0937629
0.087771
0.0888474
0.090735
0.076757
0.0977522
0.090512
0.097514
0.0901656
0.0835255
0.0920897
0.0964691
0.101097
0.105281
0.109854
0.106385
0.115719
0.113455
0.109316
0.113155
0.126281
0.131534
0.109734
0.116064
0.109843
0.108125
0.113232
0.107772
0.1079
0.0920082
0.100648
0.0764448
0.0773181
0.069231
0.083206
0.080686
0.0722752
0.0514651
0.0720952
0.0836795
0.0766412
0.0760569
0.0696764
0.0690483
0.0736718
0.0965366
0.0671376
0.0676654
0.0706962
0.0639854
0.0761389
0.0659635
0.0720137
0.0516301
0.0556111
0.073404
0.0701863
0.09313
0.0802851
0.0616926
0.0871211
0.0813738
0.0726461
0.0753551
0.0820521
0.0681291
0.0737079
0.0747448
0.0788022
0.0740303
0.0823726
0.0747174
0.0771633
0.0873316
0.0743944
0.077713
0.0856571
0.0705183
0.0830026
0.0643544
0.0571662
0.0955471
0.11575
0.0758846
0.0816994
0.0713823
0.0726091
0.0830949
0.0739154
0.0732016
0.0730213
0.0847379
0.0763949
0.0886834
0.0970387
0.0854362
0.0754536
0.074296
0.0645382
0.0752846
0.0685555
0.0814234
0.0824169
0.0771663
0.0714099
0.074386
0.0856581
0.0863676
0.0792062
0.0837997
0.0676377
0.096212
0.0680604
0.0669243
0.0767674
0.0886298
0.0699607
0.0687135
0.0688199
0.0671934
0.072239
0.0747609
0.0880456
0.0684047
0.0834329
0.0717229
0.0647608
0.0778135
0.0686047
0.0926951
0.0734978
0.0698227
0.0798868
0.0840476
0.0955853
0.0767761
0.0760621
0.0564789
0.076224
0.0730915
0.0796063
0.0770856
0.0746163
0.0755641
0.0747866
0.0924161
0.0884183
0.0749388
0.0685072
0.0719385
0.0698807
0.0730263
0.0710673
0.0737816
0.0747096
0.079956
0.0641971
0.0747055
0.0766977
0.0726519
0.0674046
0.0795922
0.067374
0.0726942
0.0672918
0.0736215
0.0662595
0.0732739
0.0717407
0.0609895
0.0631035
0.0659055
0.0696775
0.0723544
0.0736206
0.0754386
0.0665699
0.070857
0.0762937
0.0717267
0.075662
0.0749789
0.0652864
0.066
0.075158
0.0771172
0.0634883
0.0729089
0.0731699
0.0708023
0.0690834
0.071159
0.0745971
0.083565
0.0723687
0.0984675
0.0896547
0.103672
0.0910604
0.104079
0.112184
0.0927628
0.0888687
0.0950054
0.102946
0.117528
0.115671
0.113038
0.10062
0.107433
0.104135
0.128839
0.110855
0.0833349
0.0892243
0.0952366
0.0923571
0.10631
0.0874966
0.0834043
0.0757877
0.0831904
0.0757532
0.0847969
0.0820736
0.0768061
0.0784003
0.0931862
0.0761678
0.0922292
0.113254
0.102348
0.0820418
0.085738
0.0669404
0.0915941
0.104685
0.0826192
0.0833719
0.0886949
0.0995327
0.0987515
0.0974239
0.0878856
0.0907946
0.0973102
0.0852895
0.100421
0.102226
0.0900654
0.123005
0.0988135
0.110829
0.108962
0.0950954
0.0925957
0.102686
0.0977793
0.0994907
0.101819
0.0971394
0.108457
0.0927144
0.104795
0.101714
0.107606
0.116088
0.112073
0.110232
0.106858
0.104172
0.10084
0.101254
0.103448
0.112735
0.108189
0.0931762
0.114217
0.0968032
0.095332
0.0996478
0.0917172
0.0905939
0.0990707
0.101562
0.105727
0.0952166
0.100904
0.103992
0.119242
0.105839
0.107268
0.103897
0.0981534
0.0940569
0.102883
0.102708
0.0998588
0.0848379
0.0888368
0.0985582
0.112457
0.11488
0.120167
0.0943426
0.087379
0.112791
0.0866263
0.0960904
0.0915966
0.091111
0.0988687
0.0878777
0.0758195
0.0753775
0.0699524
0.0825944
0.0781751
0.0969907
0.0711253
0.0911654
0.0647215
0.0767428
0.0745273
0.0753008
0.0841756
0.0735419
0.0791102
0.0866575
0.0912596
0.075887
0.0725517
0.0750734
0.0719422
0.0854046
0.0710635
0.0947172
0.0755643
0.0732206
0.0806118
0.0904443
0.100411
0.0731615
0.104512
0.0678111
0.0733998
0.0806467
0.0655743
0.0664346
0.0587325
0.0789128
0.0623312
0.0739156
0.0655762
0.0908577
0.0610103
0.0793568
0.0642618
0.0769097
0.0898937
0.0802814
0.0834486
0.0603423
0.0782793
0.105201
0.0765322
0.073894
0.0628227
0.0689831
0.0619918
0.0700541
0.0715877
0.0747441
0.0701723
0.059079
0.0599381
0.0682132
0.0906517
0.0658453
0.059612
0.071233
0.061774
0.0612045
0.0595599
0.0661051
0.0707815
0.0667024
0.0606519
0.0612026
0.0655164
0.0612135
0.0660059
0.0709191
0.0588016
0.0682193
0.0602471
0.06202
0.0886254
0.0779319
0.0696522
0.0662726
0.0731188
0.093738
0.0892045
0.0788999
0.0698989
0.0642
0.0826399
0.0778411
0.0763465
0.0730746
0.0725839
0.0737746
0.0845104
0.0798445
0.0795013
0.071583
0.0751445
0.0707651
0.0647828
0.0756129
0.0654234
0.0674762
0.0791346
0.0667228
0.0724865
0.0660776
0.0638682
0.0727592
0.0835571
0.0771826
0.0784306
0.0755622
0.0683432
0.0756668
0.0711638
0.0723761
0.0734453
0.066655
0.0644819
0.074543
0.0664443
0.0722437
0.0668552
0.0726667
0.0882971
0.0754173
0.067164
0.0912935
0.0751684
0.0618288
0.070733
0.0661726
0.0700049
0.0774145
0.0685975
0.0847413
0.0681234
0.065704
0.0666428
0.0703625
0.0690331
0.0796231
0.079137
0.073955
0.0789385
0.0690124
0.0637201
0.08232
0.0751786
0.0777738
0.0690424
0.0711106
0.0664167
0.06588
0.0718297
0.0796038
0.0695793
0.0700572
0.0755412
0.0743264
0.0838106
0.0777921
0.0803061
0.0924408
0.0685029
0.0819675
0.0722723
0.0800168
0.0766612
0.0713158
0.0654976
0.062745
0.0647518
0.0774339
0.0713532
0.0655204
0.0717052
0.0667112
0.0743724
0.0710975
0.0727581
0.0722549
0.0695837
0.0730943
0.0730461
0.0772465
0.0663283
0.0648345
0.0664305
0.0736902
0.0869101
0.0751497
0.0726352
0.0717362
0.0763895
0.0634878
0.0733597
0.0811747
0.0638255
0.0679018
0.084484
0.0662151
0.0768957
0.0818879
0.0752564
0.0849067
0.0667642
0.0757271
0.0905009
0.0922506
0.0888617
0.0655484
0.0743824
0.0739888
0.0808271
0.0709593
0.0905299
0.0996855
0.06894
0.0720959
0.0780888
0.0700821
0.0779904
0.06375
0.085954
0.0829678
0.0798392
0.0903995
0.0673379
0.0770568
0.0799931
0.0656335
0.0705592
0.064715
0.0746592
0.0716234
0.0857505
0.0753888
0.0666971
0.0670582
0.0701705
0.0667629
0.0675521
0.0775439
0.0772828
0.070283
0.0785763
0.0758832
0.0744784
0.0712449
0.0753241
0.0687688
0.0797546
0.0681253
0.0615514
0.0683303
0.0741875
0.0759977
0.0758183
0.0709198
0.0663236
0.068282
0.0687929
0.0757095
0.0703706
0.0744501
0.082493
0.0741141
0.0843169
0.0640209
0.066523
0.0677209
0.0845734
0.0772376
0.0706922
0.0806797
0.0681538
0.0713984
0.0733837
0.0969147
0.0771786
0.079103
0.071901
0.0662063
0.0658547
0.0740222
0.0721822
0.0725152
0.0698101
0.0725666
0.0768834
0.0682018
0.0730434
0.0813555
0.0685493
0.0734728
0.068041
0.0748833
0.061262
0.065321
0.0830984
0.0682194
0.0686021
0.0734511
0.0718126
0.0643869
0.0684546
0.0768581
0.0736312
0.0787956
0.0752264
0.0617135
0.0659232
0.0830161
0.0694067
0.0658571
0.0793546
0.0649563
0.0666514
0.0826784
0.0656635
0.0647652
0.0648357
0.0729078
0.0617479
0.0646395
0.0687811
0.0615479
0.0676723
0.0692109
0.0652502
0.0642778
0.0758446
0.0759367
0.0730102
0.0696989
0.0756547
0.0661662
0.0683426
0.0703584
0.0796205
0.0696629
0.070851
0.0653359
0.0720538
0.0721751
0.0736309
0.0714751
0.0645455
0.0721515
0.0700515
0.0609319
0.0728424
0.0755321
0.0671695
0.0674267
0.0717473
0.0638166
0.0644525
0.061732
0.0755824
0.0840558
0.0665496
0.0612828
0.0814213
