0.0986751
0.0412496
0.0264943
0.0182428
0.0295751
0.0821664
0.106102
0.030009
0.0277526
0.0162115
0.0248801
0.0290347
0.0219706
0.0222989
0.0214275
0.0158172
0.0219069
0.0721977
0.0724205
0.132517
0.0584425
0.0222928
0.039275
0.0687443
0.0735968
0.106968
0.271023
0.0174698
0.0167388
0.10619
0.0824621
0.0879637
0.0294763
0.0321995
0.0443371
0.0188594
0.0387322
0.0313105
0.042382
0.0998869
0.0315964
0.0221711
0.0251794
0.0309805
0.0285973
0.026185
0.0335087
0.0362779
0.0338337
0.0610504
0.048306
0.0250714
0.0287636
0.0341053
0.0401292
0.158823
0.0425798
0.0245394
0.079127
0.072256
0.0435124
0.0302084
0.0254205
0.116401
0.0341916
0.0346344
0.0666758
0.104723
0.0564171
0.0713531
0.114823
0.0695623
0.168464
0.0359422
0.129305
0.0227621
0.0337409
0.0289863
0.0347674
0.109517
0.0201245
0.0486768
0.0210187
0.0250465
0.165491
0.0262151
0.0218338
0.180435
0.221294
0.0280882
0.280607
0.0608992
0.0415932
0.0630136
0.0380248
0.0334675
0.0505097
0.0481235
0.0251855
0.0611613
0.022079
0.0320292
0.0276499
0.0181025
0.0317287
0.0726514
0.0274626
0.0634752
0.0752333
0.0356528
0.0781656
0.0510938
0.269717
0.0342572
0.0212394
0.0788083
0.0241131
0.0435486
0.0437158
0.0210483
0.152084
0.0401052
0.0245213
0.0545838
0.0473577
0.0617267
0.064259
0.0511082
0.0679221
0.0238983
0.0910499
0.167744
0.0241695
0.0322136
0.0221018
0.0342902
0.130412
0.0430658
0.0663161
0.01875
0.0244208
0.0225938
0.0683444
0.0187734
0.0175789
0.0255317
0.0245577
0.0269792
0.0410278
0.022674
0.0225894
0.0304588
0.0361126
0.0259867
0.0238731
0.0367634
0.0390845
0.0244034
0.0227166
0.030057
0.0193471
0.0423041
0.0499415
0.0178476
0.0232433
0.0341246
0.0526478
0.0305211
0.028234
0.137347
0.0269205
0.0213986
0.0377515
0.0264738
0.0273807
0.0305667
0.025961
0.0703812
0.138453
0.058406
0.133072
0.0349666
0.0472254
0.0650292
0.0228443
0.0154266
0.023708
0.0260609
0.0243002
0.0275175
0.0631278
0.0204687
0.0472542
0.0861856
0.0268328
0.0155518
0.0578739
0.0174348
0.150941
0.050078
0.0170995
0.0152742
0.0222799
0.0593625
0.059254
0.0138741
0.0193052
0.0486014
0.0142209
0.0142369
0.0181966
0.0175926
0.0299071
0.0145508
0.0136007
0.0693697
0.0134703
0.0674484
0.0281916
0.0689666
0.0216665
0.0151163
0.0149108
0.0487065
0.0149302
0.0195091
0.0179929
0.0307175
0.0182552
0.069565
0.0141586
0.0222789
0.013459
0.0154749
0.0264682
0.149254
0.0139248
0.0579458
0.0198722
0.0161423
0.015528
0.0399601
0.0145018
0.0163293
0.0143091
0.0155022
0.0231998
0.0149686
0.0150119
0.0729587
0.0136797
0.0152868
0.0147176
0.0161151
0.0353356
0.0169712
0.0153633
0.0197418
0.0174126
0.0495493
0.0145482
0.0185834
0.0337093
0.0140525
0.014289
0.0221035
0.0137523
0.0500366
0.0399873
0.0125007
0.0194568
0.0162487
0.0146169
0.0973747
0.0260584
0.0781919
0.0313884
0.0499841
0.0863067
0.0547539
0.0319593
0.156654
0.0245829
0.0314909
0.0251212
0.131928
0.0176675
0.0179121
0.123963
0.0252376
0.0756722
0.0147775
0.0323297
0.0147537
0.127468
0.0456286
0.0211711
0.0154655
0.0223579
0.0264106
0.016861
0.0162353
0.0197388
0.0194131
0.0233123
0.0961494
0.0131904
0.0177166
0.0151109
0.0613652
0.0219515
0.0198862
0.0332566
0.0123523
0.0164763
0.129531
0.0137639
0.0561426
0.0228535
0.0206709
0.0632068
0.0349757
0.0387955
0.0818798
0.239568
0.0441163
0.0261172
0.0232699
0.16118
0.0140582
0.0256279
0.0196537
0.0235356
0.0138463
0.13901
0.198705
0.0647404
0.022656
0.0137011
0.0294484
0.0308803
0.0138613
0.0625288
0.0336123
0.0231991
0.0198849
0.0133277
0.0208905
0.0193101
0.0438666
0.0221306
0.0715035
0.0209892
0.0159852
0.0211163
0.0417229
0.0266007
0.0137169
0.0129069
0.0210078
0.0299333
0.0362809
0.0442634
0.117528
0.0138889
0.0469348
0.0177658
0.0924148
0.0380605
0.0542857
0.0342788
0.0484666
0.0324235
0.0245577
0.0262086
0.0954532
0.0288486
0.0336008
0.0133901
0.016077
0.100864
0.172203
0.0184318
0.0181912
0.0287512
0.0242725
0.0164596
0.0156908
0.0281116
0.0739867
0.0130045
0.0149027
0.0176793
0.0201483
0.01507
0.0160319
0.102114
0.0136803
0.0287814
0.0159874
0.0178169
0.0407977
0.0184352
0.0250178
0.033874
0.0148637
0.148891
0.0168421
0.0138545
0.0320529
0.0187784
0.0149102
0.0369124
0.0163178
0.0172304
0.0252495
0.0231187
0.0136427
0.174176
0.0136727
0.0474509
0.0139351
0.125347
0.0885547
0.0512737
0.0336927
0.0146549
0.0342449
0.0549675
0.0219938
0.0132244
0.0504707
0.0213369
0.0137791
0.0330194
0.0346973
0.0225812
0.0320552
0.0149291
0.0344599
0.0766943
0.132419
0.0672679
0.0295894
0.0282387
0.112756
0.0194105
0.0382352
0.0267622
0.0466102
0.0303171
0.0140118
0.0299672
0.0187639
0.0146087
0.019711
0.0723193
0.049006
0.126163
0.0279904
0.0538241
0.0858005
0.0230577
0.0289765
0.0222002
0.224439
0.0248884
0.0214023
0.0371314
0.131292
0.0523883
0.126677
0.0747245
0.0217949
0.155899
0.0154099
0.0438064
0.0186717
0.126663
0.0305847
0.0210983
0.0205189
0.0218553
0.0216239
0.415876
0.0334719
0.0229608
0.0587898
0.0183265
0.0170361
0.248526
0.0447265
0.0319931
0.0216166
0.0636243
0.0288212
0.0214085
0.0181295
0.0198397
0.0169414
0.0208385
0.0170999
0.0269127
0.0164934
0.022514
0.030759
0.0164602
0.0149659
0.0218223
0.0208777
0.0184086
0.0159368
0.0159434
0.0180255
0.0257217
0.024146
0.0311973
0.0248156
0.0822537
0.081247
0.250897
0.0219629
0.022498
0.0255702
0.0821249
0.0245383
0.0323139
0.0286301
0.029524
0.0294522
0.0582176
0.0898662
0.0320128
0.0267645
0.0272944
0.099506
0.119069
0.109642
0.263777
0.0581331
0.0311193
0.0358265
0.0235288
0.221838
0.034361
0.0831728
0.029726
0.027517
0.0315885
0.0370929
0.0372165
0.0306955
0.0376617
0.0191353
0.034882
0.0182871
0.0282296
0.0209471
0.0700528
0.0286886
0.0295057
0.0178124
0.0237797
0.0383394
0.034549
0.0208246
0.0215601
0.0310553
0.0216831
0.0262499
0.0230164
0.0522738
0.0220706
0.0225878
0.0204055
0.0202894
0.0225323
0.0396613
0.210066
0.0518357
0.0272946
0.0265898
0.0310247
0.0324136
0.0194257
0.0387536
0.0657506
0.0621465
0.0374836
0.0472704
0.0346821
0.0957941
0.046419
0.0318961
0.0988559
0.0359305
0.0233185
0.0236176
0.023089
0.029222
0.0644791
0.0343636
0.028959
0.170432
0.0408413
0.0451505
0.0244528
0.0392834
0.0490308
0.04716
0.0215003
0.0358714
0.026746
0.0240136
0.0334799
0.0276037
0.0283626
0.028437
0.0230467
0.0393384
0.0360524
0.0274258
0.0326538
0.0739776
0.020485
0.0290875
0.0430497
0.0426962
0.03304
0.0249334
0.0279109
0.0257573
0.0216803
0.0288193
0.0793699
0.050466
0.0188701
0.0396329
0.0146969
0.0169475
0.387024
0.0552337
0.0148765
0.0190607
0.0868809
0.0182841
0.0192982
0.115203
0.0251792
0.0132421
0.0181614
0.020759
0.041584
0.0149089
0.0146037
0.016496
0.0284254
0.013785
0.0134231
0.0717865
0.214856
0.012985
0.135893
0.0890367
0.0898088
0.0129327
0.0138078
0.127055
0.042849
0.0144128
0.0170282
0.0133868
0.144308
0.0142922
0.0146185
0.0136731
0.0408545
0.0135309
0.0488568
0.165255
0.0205528
0.0181951
0.017512
0.0163245
0.0190291
0.019149
0.0157523
0.0210319
0.0346812
0.0276181
0.0171599
0.0188068
0.0389406
0.0612705
0.117888
0.0468591
0.0923295
0.0132782
0.037293
0.0467553
0.179635
0.20529
0.0589247
0.0300346
0.034386
0.0560706
0.0663139
0.0563763
0.0633009
0.0771673
0.0997441
0.185945
0.0121548
0.0189542
0.10863
0.138693
0.206096
0.0598186
0.0407115
0.0575567
0.270481
0.0755041
0.0716154
0.0549214
0.107782
0.0573933
0.200302
0.0459595
0.134753
0.0991048
0.144973
0.0251525
0.309035
0.110906
0.169257
0.0501154
0.0892808
0.0579983
0.0757013
0.066591
0.0514071
0.055493
0.0796385
0.0963929
0.053628
0.19082
0.129928
0.150847
0.0118368
0.0164392
0.0183467
0.0270411
0.0808913
0.0574811
0.153977
0.0329065
0.0622913
0.190076
0.0771107
0.0426236
0.152172
0.0477147
0.111289
0.0529154
0.037847
0.0609765
0.183957
0.0128757
0.0176506
0.0283899
0.0810358
0.0751097
0.101202
0.0591688
0.0452207
0.0708245
0.0753912
0.0512445
0.119509
0.0785902
0.0931308
0.217215
0.157975
0.1003
0.153849
0.0592572
0.0557959
0.0322472
0.0616395
0.0528942
0.0376998
0.0674005
0.0294258
0.140215
0.229163
0.0356027
0.103701
0.112077
0.0650741
0.0496612
0.0826179
0.0894736
0.058378
0.0581932
0.0714164
0.0195686
0.0434442
0.0471025
0.350541
0.0489109
0.0989551
0.0201377
0.020058
0.0208444
0.0332057
0.0227267
0.0251394
0.0313813
0.019428
0.0244031
0.0196744
0.0234364
0.0318296
0.0197345
0.0232923
0.0211294
0.0213422
0.0212391
0.0208711
0.0254668
0.021875
0.0211643
0.0253513
0.0215066
0.021098
0.0279112
0.0188819
0.0226627
0.022568
0.0357686
0.0199832
0.0238225
0.0223569
0.0209809
0.0212171
0.0209208
0.0188517
0.0210954
0.0228149
0.0237226
0.0206423
0.0270822
0.0247415
0.0197746
0.0216197
0.0204177
0.0211725
0.0213144
0.0197833
0.0204778
0.0233975
0.0196628
0.0206823
0.0239295
0.0216148
0.0207636
0.0197133
0.0205991
0.031943
0.0198337
0.0216744
0.0200205
0.0200845
0.0196054
0.0270948
0.017856
0.0180121
0.017964
0.0187208
0.0181503
0.0195931
0.0207109
0.0238369
0.0164404
0.0204996
0.0204766
0.0210491
0.0209541
0.0222619
0.0308198
0.0236284
0.0199101
0.0202738
0.0207651
0.0191407
0.0194135
0.0161993
0.0184966
0.0194407
0.0251059
0.0183516
0.018795
0.0303322
0.0224591
0.0186246
0.0190963
0.0198043
0.0190543
0.0183751
0.0329156
0.0164544
0.0166657
0.0131439
0.0145967
0.0136454
0.0145146
0.0150365
0.0181869
0.0148855
0.0155289
0.0119228
0.01412
0.0176404
0.0118286
0.013994
0.0118333
0.0129116
0.014638
0.0117965
0.0145942
0.0122549
0.0143146
0.0177155
0.0120961
0.0234266
0.0125568
0.0118815
0.0125347
0.0124001
0.0118591
0.0136151
0.0124891
0.0120497
0.0201802
0.0165149
0.0119834
0.0122928
0.0145532
0.0132083
0.0123248
0.0119257
0.0144654
0.017873
0.0144882
0.0179159
0.0142563
0.0208264
0.0121836
0.0127804
0.0135733
0.0129763
0.0127083
0.0183654
0.0165569
0.0121771
0.0135944
0.0223422
0.0119592
0.0125532
0.0161238
0.0199178
0.0119147
0.018091
