0.0927036
0.0413166
0.0293493
0.0240966
0.018428
0.162453
0.0160033
0.0156503
0.0188814
0.0174027
0.0203695
0.0178458
0.0313182
0.0705046
0.0455087
0.0165631
0.0224094
0.0626236
0.0413475
0.14453
0.0346097
0.160927
0.0218768
0.0691823
0.0277657
0.0268614
0.0232922
0.0224311
0.0240115
0.344086
0.101706
0.0696045
0.135936
0.0281233
0.0224408
0.0258433
0.0241678
0.026393
0.0233899
0.0252839
0.0269874
0.018762
0.0523917
0.0332942
0.0744744
0.237555
0.118135
0.0304667
0.0244627
0.0236754
0.0192468
0.0377483
0.0211586
0.0230211
0.0622175
0.112923
0.107178
0.0251526
0.0208786
0.0340519
0.0229753
0.031142
0.0231931
0.077125
0.133191
0.0359955
0.0417782
0.117949
0.0732121
0.0231036
0.0344084
0.0922886
0.046016
0.0262321
0.0349114
0.0931228
0.0455046
0.0479762
0.0910332
0.035388
0.0265713
0.0994126
0.0620185
0.0474649
0.0423378
0.0294003
0.0324191
0.0410042
0.0449617
0.0214416
0.0238205
0.10128
0.040348
0.0378233
0.0698977
0.0153534
0.0213878
0.0574468
0.0311845
0.0472134
0.0290929
0.103672
0.0285333
0.0313816
0.0186249
0.0393486
0.0313155
0.0271288
0.0358827
0.0348935
0.0287393
0.0351919
0.0363601
0.020077
0.130216
0.0371783
0.0268833
0.031674
0.0692595
0.0910874
0.0228197
0.026255
0.0219885
0.0442977
0.0674239
0.0717974
0.0238212
0.0203822
0.0196222
0.0646588
0.0255048
0.0795213
0.0403103
0.0206175
0.0778755
0.0200989
0.0218586
0.0210238
0.0246704
0.150913
0.0323055
0.0742783
0.0984024
0.0429184
0.0395021
0.0226851
0.060949
0.0294845
0.0966921
0.0195585
0.0821074
0.149785
0.0308701
0.0275645
0.0574912
0.0942832
0.0209609
0.201824
0.16812
0.0249792
0.132814
0.0378726
0.127401
0.0856655
0.0246844
0.0587416
0.0223172
0.0258497
0.0297705
0.0244783
0.0261491
0.023726
0.187091
0.0224234
0.0234425
0.0216187
0.0205544
0.0249438
0.0294104
0.0298223
0.0220242
0.022213
0.0566302
0.0309986
0.0611045
0.0237111
0.0255686
0.021373
0.0245647
0.0236182
0.0253297
0.0199434
0.024279
0.160054
0.0140964
0.0207764
0.025151
0.0254431
0.0204289
0.026515
0.0139611
0.0198124
0.0199238
0.0212745
0.0294925
0.0199568
0.0205851
0.0231051
0.02326
0.0154367
0.0176853
0.0255627
0.0161653
0.0218428
0.0245353
0.0180937
0.0158086
0.0637636
0.136093
0.0494339
0.0235979
0.0133006
0.0214284
0.0190113
0.0188308
0.0148032
0.0185628
0.0295979
0.0558916
0.0153332
0.0270268
0.0160176
0.152724
0.0153505
0.0236686
0.268786
0.0252548
0.0586147
0.0354525
0.0304234
0.0395806
0.014453
0.107913
0.0244965
0.0580845
0.143881
0.0251397
0.0227211
0.0713672
0.0312598
0.0244975
0.0343977
0.0251548
0.0261145
0.0564593
0.0271815
0.0341181
0.0245512
0.0352015
0.0320603
0.025805
0.0292345
0.0540889
0.022699
0.032063
0.0565944
0.0267187
0.0198551
0.169849
0.0286331
0.0215346
0.149477
0.0221935
0.0216695
0.0328493
0.086616
0.0246196
0.0211463
0.132213
0.0962412
0.0638806
0.0309653
0.0246234
0.0387971
0.0203691
0.0338445
0.0338809
0.0676204
0.0209578
0.041383
0.0200439
0.0263008
0.0875241
0.140376
0.0347775
0.0361198
0.124537
0.050821
0.019133
0.0255605
0.0841751
0.0159778
0.0456517
0.028387
0.0393312
0.0252817
0.0177276
0.0183731
0.0189056
0.105101
0.0147417
0.0133227
0.059331
0.014514
0.0908035
0.0374129
0.040543
0.0203748
0.113757
0.0348467
0.0497918
0.141574
0.0186468
0.0571609
0.0313798
0.105531
0.014536
0.088806
0.0243825
0.0193135
0.0331266
0.0884299
0.0202659
0.0305355
0.0894711
0.0576596
0.0295935
0.0942975
0.018788
0.0239041
0.0268373
0.0230885
0.0447431
0.0740164
0.0695102
0.0268987
0.0253883
0.0328116
0.0844366
0.0211358
0.0207863
0.0378628
0.0216254
0.0329755
0.0425841
0.0443971
0.0291927
0.0248581
0.0192969
0.01919
0.0206828
0.0206779
0.0392337
0.0218307
0.0188053
0.0183211
0.0205583
0.0197289
0.0200324
0.0194445
0.0256008
0.0360494
0.0410584
0.0297391
0.0414003
0.150072
0.0531584
0.0183977
0.0207601
0.0203684
0.0176857
0.0222661
0.0173241
0.0182273
0.0193606
0.0122157
0.0183247
0.0161156
0.0624557
0.042888
0.0194155
0.0308122
0.0183838
0.0520518
0.0304791
0.0118809
0.0181457
0.0910058
0.0357362
0.0340422
0.0442789
0.0352957
0.0353428
0.0189949
0.109623
0.0425717
0.0182661
0.020785
0.0195746
0.0139146
0.0881656
0.0153839
0.0244934
0.0214769
0.0454789
0.0261755
0.0317775
0.0233413
0.0208227
0.0294145
0.0202819
0.0495037
0.0485935
0.110356
0.0237266
0.0229804
0.0830776
0.0327825
0.0297519
0.0389877
0.0420617
0.021572
0.0204371
0.0209902
0.0215368
0.0216649
0.0299168
0.0209135
0.025689
0.025398
0.0292384
0.023534
0.0205516
0.0205624
0.0216474
0.0222058
0.0271462
0.0167113
0.0220817
0.0244172
0.0209251
0.0166937
0.0457568
0.0731408
0.103506
0.0205729
0.0310343
0.0213523
0.0187279
0.0728904
0.0262759
0.030785
0.0365533
0.0204716
0.039492
0.0241692
0.0248883
0.0197017
0.0302775
0.0311828
0.0658803
0.032921
0.0310744
0.0213758
0.0678908
0.0254302
0.065511
0.0681066
0.0266387
0.0298417
0.0419971
0.0232755
0.0191124
0.0418162
0.0309847
0.0761642
0.0207073
0.0401945
0.0379756
0.0434695
0.0988518
0.0625642
0.0209523
0.0225382
0.0414975
0.0477739
0.0281898
0.072412
0.146831
0.0317279
0.136429
0.0196349
0.0329796
0.0173917
0.0223085
0.0460826
0.0363236
0.0308997
0.0450041
0.0557006
0.0498819
0.0200827
0.0206921
0.0248942
0.187968
0.0285346
0.0202141
0.0221753
0.0245275
0.0185674
0.0298371
0.0377579
0.0192823
0.0265186
0.024918
0.0322312
0.0564881
0.0439272
0.0420645
0.0541803
0.0141892
0.0122761
0.0211991
0.0351069
0.0244426
0.0135938
0.045236
0.0178192
0.0211302
0.0361632
0.020125
0.0273011
0.1114
0.0284432
0.022438
0.0220411
0.0236878
0.0541711
0.0237293
0.0251295
0.0271389
0.0213421
0.0386161
0.0424909
0.0908968
0.0202658
0.0302293
0.0363132
0.0301856
0.0309801
0.0236958
0.027246
0.0175532
0.0264422
0.0246912
0.0944598
0.0360504
0.0148581
0.0731626
0.0547271
0.0225194
0.116529
0.16757
0.025709
0.0282584
0.0266817
0.0480567
0.0291741
0.132931
0.022112
0.0305553
0.102592
0.0520975
0.116878
0.0476938
0.0225748
0.0521409
0.0496857
0.0274673
0.0254591
0.0346655
0.0271393
0.066845
0.0698695
0.0317835
0.0328982
0.0330643
0.0368199
0.121863
0.086987
0.112912
0.0284125
0.0633608
0.0398367
0.0281306
0.021672
0.0264447
0.0275364
0.0471326
0.0496008
0.0251018
0.0346861
0.207879
0.020809
0.124698
0.0270105
0.0254648
0.0310932
0.0274532
0.0274696
0.0372359
0.0288845
0.0358702
0.0222738
0.0362231
0.0210536
0.021828
0.0203897
0.0362676
0.0269892
0.0344064
0.0377368
0.0200156
0.0274299
0.210701
0.0208785
0.0347968
0.0251556
0.0218992
0.0367194
0.0350225
0.0243619
0.0186074
0.0148383
0.0252942
0.149126
0.0285546
0.0156591
0.0377056
0.0816177
0.0284902
0.0160231
0.0141243
0.0923741
0.0679777
0.0294234
0.0230424
0.0206437
0.0135502
0.0145374
0.0275645
0.0536386
0.0415947
0.0138683
0.0136294
0.0153287
0.0947125
0.0445009
0.0459796
0.013248
0.013706
0.014644
0.0351199
0.0410771
0.0429968
0.019962
0.0139528
0.0148785
0.0139586
0.0190344
0.0413337
0.0165054
0.0138281
0.014377
0.0158087
0.0271659
0.124991
0.0119756
0.0136657
0.0158411
0.0177382
0.0304727
0.0295208
0.0130228
0.0145973
0.0273282
0.0138675
0.0310919
0.0155518
0.015559
0.0140666
0.0141287
0.0778189
0.148378
0.0295685
0.0121464
0.0141541
0.0136734
0.0621453
0.09611
0.0376494
0.0202057
0.0481406
0.0229756
0.0517189
0.0747579
0.233383
0.0213178
0.0279326
0.0216724
0.0212056
0.0228582
0.0371842
0.0229015
0.0345101
0.206076
0.0180308
0.0254978
0.0168778
0.0162497
0.0452606
0.0137018
0.0128145
0.0138205
0.0229811
0.0137261
0.0407507
0.0306805
0.202105
0.140183
0.105953
0.0237903
0.0209399
0.018312
0.0194372
0.0521114
0.0850949
0.021712
0.0196438
0.0332593
0.0212803
0.0586774
0.0245573
0.0205314
0.0598133
0.0212314
0.0665375
0.119083
0.0221348
0.0494568
0.0286229
0.0248192
0.0584179
0.0454557
0.0390654
0.0286827
0.0294221
0.0305235
0.0354817
0.0852662
0.0634611
0.0215559
0.350375
0.0978581
0.0158039
0.0418152
0.0522765
0.050225
0.0428021
0.0454064
0.0914782
0.0339385
0.0496774
0.0206558
0.173021
0.0749111
0.0455632
0.0519401
0.0356027
0.0260076
0.101409
0.115715
0.024773
0.0271162
0.0426182
0.0209486
0.0274725
0.0205607
0.0399805
0.0602749
0.0622722
0.149787
0.0465761
0.0521753
0.040635
0.0195849
0.0306358
0.0266656
0.0292966
0.0322883
0.0521641
0.0881242
0.0315894
0.0282933
0.0289897
0.0232917
0.0276491
0.028096
0.0253279
0.0964047
0.281959
0.0359022
0.021433
0.101164
0.0249242
0.0216203
0.0586953
0.0820147
0.0469942
0.0309078
0.0428271
0.0214555
0.0192804
0.0223025
0.173468
0.0212276
0.0214831
0.0251333
0.0272221
0.0222343
0.0376901
0.0438105
0.0885721
0.164446
0.0767423
0.0601473
0.0350812
0.0214374
0.016832
0.0382952
0.0840392
0.105578
0.0461523
0.0272849
0.0565223
0.0225169
0.0838574
0.0463458
0.146606
0.0204268
0.0196921
0.019276
0.0213376
0.025248
0.0182515
0.150312
0.0274252
0.024316
0.0288423
0.024512
0.0684618
0.0289172
0.034445
0.0784358
0.0204083
0.0480428
0.174545
0.0364268
0.0260723
0.151054
0.117172
0.0274575
0.161474
0.0959397
0.0174797
0.0402111
0.0293713
0.0638879
0.0478601
0.026914
0.0555436
0.0328169
0.0175309
0.018688
0.0307829
0.0238102
0.0245786
0.0209858
0.0353943
0.0315203
0.0204759
0.0217785
0.0206826
0.0309611
0.0208605
0.116035
0.0220387
0.0219023
0.063084
0.031219
0.0259086
0.0282289
0.0210245
0.0228752
0.0490479
0.0511608
0.0199687
0.022912
0.091812
0.0371973
0.0216631
0.0264999
0.0206114
0.0236043
0.0707089
0.022025
0.0363952
0.0205267
0.0200554
0.0205225
0.0206583
0.0454702
0.0313608
0.0181033
0.0409407
0.0215743
0.0193188
0.0255271
0.0246974
0.0335546
0.0503893
0.040713
0.0576711
0.025766
0.0814205
0.035603
0.0244934
0.0335838
0.0290881
0.0333441
0.100338
0.0675721
0.0488174
0.0269459
0.097751
0.0330314
0.0834677
0.118261
0.0351494
0.0726239
0.0631012
0.011697
0.0161943
0.0213682
0.0367928
0.0587913
0.0485801
0.0179992
0.0198024
0.0211579
0.0182031
0.0454183
0.0231462
0.0382736
0.0226022
0.0200529
0.0220551
0.0237071
0.0215573
0.0551096
0.0201692
0.0306254
0.014836
0.0217977
0.0216518
0.0204837
0.0211714
0.0211768
0.0163347
0.0199684
0.0485279
0.0198478
0.0160892
0.0505519
0.0347348
0.0476122
0.0946635
0.0342614
0.0195254
0.0771741
0.0821438
0.0554702
0.0659443
0.0419445
0.0251653
0.118209
0.152674
0.0497695
0.113977
0.0297101
0.0611874
0.0180922
0.174693
0.158112
0.0202122
0.0156594
0.0273713
0.016967
0.0529805
0.020018
0.0154634
0.0306241
0.016155
0.0211035
0.0209063
0.016781
0.0356144
0.0211999
0.0173841
0.0142879
0.0614005
0.136241
0.0916478
0.0288834
0.0166225
0.110074
0.0154929
0.0141989
0.0287343
0.0142418
0.0291723
0.0226152
0.0291687
0.0143785
0.0292075
0.0158896
0.0287697
0.0155233
0.0569489
0.0150559
0.0445388
0.0142459
0.0296553
0.0147003
0.0389504
0.0143777
0.0396131
0.0144053
0.0422875
0.015435
0.0466226
0.0158473
0.0418017
0.0159631
0.0386681
0.0145509
0.0290895
0.0144891
0.0222305
0.0389624
0.0162505
0.0239024
0.0179108
0.0181051
0.0173434
0.0171448
0.0171719
0.018458
0.0164344
0.0199225
0.0153389
0.0347104
0.0160713
0.063138
