-0.000189656;0.00316583
-0.000191491;0.00316371
-0.000189678;0.00305217
-0.000195082;0.00295301
-0.000185829;0.00271664
-0.000192603;0.00260078
-0.000198174;0.00232252
-0.000200779;0.00205471
-0.000200073;0.00194382
-0.000209285;0.00173042
-0.000206103;0.00162547
-0.000208709;0.00143706
-0.000212444;0.00134547
-0.000217645;0.00117161
-0.000211745;0.00108198
-0.000222804;0.000944526
-0.000232033;0.000815403
-0.000231393;0.000759589
-0.000225359;0.000628702
-0.000234964;0.000562423
-0.000247355;0.000465465
-0.000261321;0.000432511
-0.000256097;0.000359965
-0.000258093;0.000259391
-0.000259049;0.000199553
-0.000266331;0.000109856
-0.000279561;7.99213e-05
-0.000280164;2.09631e-05
-0.000282391;-1.24208e-05
-0.000282656;-8.85042e-05
-0.000287738;-0.000166309
-0.00029094;-0.000199902
-0.000291009;-0.000238054
-0.000293203;-0.000245881
-0.000293851;-0.00025617
-0.000308191;-0.000309628
-0.000311703;-0.000342629
-0.000316926;-0.000387982
-0.000328857;-0.000396153
-0.000325674;-0.000420507
-0.000326562;-0.000435948
-0.000337063;-0.00046624
-0.000330428;-0.000497963
-0.000325843;-0.000503202
-0.000337946;-0.000519603
-0.000337707;-0.000537571
-0.000335768;-0.000538974
-0.000334847;-0.000559662
-0.000333861;-0.000569377
-0.000341209;-0.000579085
-0.000337389;-0.000577024
-0.000340641;-0.000579018
-0.000339245;-0.000584472
-0.000277552;-0.000342132
-0.000154945;9.01548e-05
-8.96742e-05;0.000321698
6.32908e-05;0.000850509
0.000181623;0.00126048
0.000445984;0.00215914
0.000808785;0.00323662
0.000986364;0.00378303
0.00143485;0.00516865
0.00169618;0.00594532
0.00224833;0.0075385
0.00252936;0.00834441
0.00320388;0.010213
0.00396305;0.0122457
0.00436056;0.0132767
0.00515986;0.0153428
0.00562651;0.0165111
0.00660385;0.0189097
0.00761261;0.0213121
0.00812861;0.0225272
0.00930947;0.0252303
0.00991222;0.0266056
0.0110911;0.0292097
0.0116863;0.0305075
0.0130441;0.0334096
0.0137723;0.0349509
0.0152512;0.0380001
0.0167745;0.0410465
0.0176183;0.0426863
0.0193205;0.045978
0.0201752;0.0476351
0.0218758;0.0508504
0.0228163;0.0526024
0.0247279;0.0561142
0.0267028;0.0595907
0.0277024;0.0613351
0.0298861;0.0650329
0.0321212;0.0687204
0.0332305;0.0705181
0.0354697;0.074065
0.0366419;0.0759082
0.0390495;0.0795995
0.0402776;0.0814494
0.0425978;0.0849254
0.0438271;0.0867307
0.0464619;0.0905727
0.04773;0.0923809
0.0503398;0.0960354
0.0532975;0.100096
0.0548235;0.10215
0.0577448;0.106022
0.060805;0.110005
0.0624055;0.112053
0.0654944;0.115943
0.0670181;0.117833
0.0702632;0.121789
0.0737545;0.125969
0.0755741;0.128061
0.0783057;0.131247
0.0797604;0.132888
0.0831942;0.136777
0.0849957;0.138754
0.0886508;0.142712
0.0923918;0.146787
0.094342;0.148865
0.0984773;0.153149
0.100578;0.155277
0.104753;0.15944
0.106928;0.161591
0.111254;0.165769
0.115534;0.169833
0.117669;0.171825
0.122381;0.176096
0.124838;0.178211
0.129404;0.182261
0.131587;0.184257
0.13643;0.188467
0.141522;0.192792
0.143809;0.194688
0.148382;0.198436
0.150777;0.200366
0.155495;0.204102
0.157798;0.205955
0.162594;0.209625
0.165092;0.211508
0.169817;0.214984
0.172235;0.216739
0.17707;0.220194
0.17957;0.221937
0.184665;0.225439
0.190037;0.229073
0.192743;0.230862
0.198352;0.234486
0.201216;0.236302
0.206769;0.239784
0.209508;0.24148
0.211819;0.242875
0.212304;0.243158
0.214405;0.244368
0.215594;0.245033
0.216465;0.245526
0.21613;0.245355
0.21429;0.24438
0.213481;0.243964
0.211115;0.242775
0.209549;0.242006
0.207632;0.241071
0.203847;0.239291
0.201711;0.238316
0.199578;0.237359
0.195217;0.235406
0.193845;0.234817
0.193569;0.2347
0.193547;0.234674
0.193954;0.23485
0.194373;0.235028
0.194665;0.235134
0.195131;0.235316
0.195192;0.235336
0.195105;0.235298
0.194796;0.235193
0.194638;0.235138
0.194466;0.235074
0.194427;0.235061
0.194416;0.235059
0.194413;0.235062
0.194428;0.235071
0.194448;0.235076
0.194458;0.235083
0.194454;0.235079
0.194447;0.235086
0.194449;0.235087
0.194434;0.235084
0.194442;0.23509
0.194459;0.235094
0.194484;0.235098
0.1945;0.235103
0.194538;0.235114
0.194568;0.235125
0.194607;0.235136
0.194643;0.235142
0.194659;0.235145
0.194718;0.235158
0.194758;0.235168
0.194786;0.235172
0.194822;0.23518
0.194894;0.235193
0.19494;0.235201
0.195016;0.235219
0.19506;0.235226
0.195115;0.235234
0.195176;0.235246
0.195273;0.235263
0.19531;0.235272
0.195358;0.235281
0.19548;0.235302
0.195549;0.235311
0.195628;0.235324
0.195801;0.235348
0.195898;0.235363
0.196;0.235378
0.196205;0.235404
0.196309;0.235417
0.196403;0.235431
0.196592;0.235461
0.196695;0.235475
0.196801;0.235491
0.19703;0.235514
0.197143;0.235527
0.197261;0.235541
0.197386;0.235552
0.197643;0.235576
0.197775;0.235583
0.19791;0.235594
0.198201;0.235617
0.198351;0.235627
0.198493;0.235643
0.198644;0.235649
0.19895;0.235669
0.199111;0.235678
0.199266;0.235687
0.199584;0.235703
0.199747;0.23571
0.199925;0.23572
0.200279;0.235731
0.200468;0.235737
0.200671;0.235744
0.200872;0.235749
0.201292;0.235752
0.20151;0.235753
0.20174;0.235754
0.201976;0.235756
0.202455;0.235755
0.202701;0.235752
0.202954;0.23575
0.203218;0.235745
0.203753;0.235743
0.204037;0.235726
0.204324;0.235711
0.204932;0.23569
0.205272;0.235673
0.205644;0.235656
0.206038;0.235633
0.206456;0.235611
0.207297;0.23555
0.207738;0.235515
0.208223;0.23547
0.208731;0.235426
0.20978;0.235323
0.210392;0.235258
0.211079;0.235184
0.212576;0.23499
0.21338;0.234888
0.214288;0.23476
0.215301;0.234609
0.217511;0.234243
0.218855;0.234012
0.220702;0.233668
0.223079;0.233179
0.229373;0.23177
0.233466;0.230764
0.237883;0.22961
0.24666;0.227078
0.251026;0.22571
0.255418;0.224274
0.264402;0.221133
0.26892;0.219505
0.273511;0.217812
0.278155;0.216091
0.287465;0.212634
0.29212;0.21092
0.296718;0.209229
0.305843;0.205942
0.310397;0.204346
0.314827;0.202841
0.323606;0.20003
0.328263;0.198638
0.332701;0.19738
0.341716;0.194996
0.346192;0.193898
0.350717;0.192848
0.359817;0.190919
0.364372;0.190035
0.36897;0.189203
0.378169;0.187691
0.382752;0.187025
0.387388;0.186405
0.396656;0.185332
0.401317;0.184874
0.405994;0.184461
0.410709;0.184085
0.420172;0.183484
0.424915;0.183242
0.429674;0.183036
0.439096;0.18277
0.443825;0.1827
0.448582;0.18268
0.458137;0.182739
0.462915;0.182821
0.467708;0.182934
0.477284;0.183266
0.48207;0.183481
0.486868;0.183732
0.491652;0.184012
0.501231;0.184689
0.506025;0.18507
0.510812;0.18548
0.520401;0.186394
0.525187;0.186894
0.529979;0.187437
0.539534;0.188587
0.544314;0.189211
0.549084;0.189853
0.558647;0.191253
0.563438;0.192001
0.568209;0.192753
0.572991;0.193554
0.582535;0.195201
0.587317;0.196067
0.592067;0.196965
0.601597;0.198814
0.606359;0.199788
0.611094;0.200774
0.620613;0.202846
0.625353;0.2039
0.630103;0.204994
0.63955;0.207236
0.644277;0.208392
0.648985;0.209559
0.658413;0.211991
0.663119;0.213224
0.667835;0.21448
0.672544;0.215749
0.681926;0.218383
0.686615;0.219722
0.691269;0.221085
0.700616;0.223869
0.705285;0.225305
0.709948;0.226737
0.714609;0.228212
0.723913;0.231199
0.728561;0.232721
0.733195;0.234264
0.742462;0.237388
0.747094;0.238973
0.751709;0.240576
0.760942;0.243839
0.765543;0.245499
0.770142;0.247165
0.779339;0.250544
0.783932;0.252264
0.788523;0.253986
0.797697;0.257491
0.802269;0.259272
0.806833;0.261065
0.811409;0.262866
0.820527;0.266519
0.825077;0.268367
0.829648;0.270227
0.838723;0.273981
0.843262;0.275884
0.847805;0.27778
0.856838;0.281649
0.861342;0.283605
0.865879;0.285576
0.874884;0.289533
0.879371;0.291527
0.883891;0.293526
0.892866;0.297593
0.897342;0.29964
0.90182;0.301688
0.910775;0.305835
0.915223;0.30792
0.919697;0.310012
0.924157;0.312115
0.933068;0.316352
0.937513;0.318495
0.941944;0.320642
0.950806;0.324966
0.955255;0.327138
0.959677;0.329319
0.964091;0.331515
0.972933;0.335922
0.977333;0.338141
0.981746;0.340363
0.990541;0.344852
0.994932;0.347114
0.99932;0.349377
1.0037;0.35165
1.00807;0.35394
1.01681;0.358546
1.02117;0.360863
1.02556;0.363157
1.03429;0.367814
1.03863;0.370175
1.04297;0.372529
1.04733;0.374872
1.05167;0.377237
1.06033;0.381991
1.06466;0.384377
1.06899;0.386768
1.07486;0.390022
1.07726;0.391352
1.07822;0.391891
1.07866;0.392126
1.07854;0.392061
1.07841;0.391991
1.0784;0.39199
1.07904;0.392322
1.07959;0.392593
1.08032;0.392957
1.08215;0.393834
1.08316;0.394314
1.08433;0.394843
1.08556;0.395404
1.08828;0.396555
1.09001;0.397267
1.0923;0.398179
1.09804;0.40037
1.10167;0.401677
1.106;0.403171
1.11034;0.404594
1.1191;0.407243
1.12353;0.408476
1.12804;0.409664
1.13727;0.411964
1.14191;0.413052
1.14678;0.414168
1.15641;0.416406
1.16121;0.417542
1.16589;0.418666
1.1707;0.419858
1.1753;0.42102
1.18446;0.423458
1.189;0.424747
1.19355;0.426071
1.20258;0.428872
1.2071;0.430334
1.21162;0.431845
1.22063;0.434972
1.22513;0.436591
1.22962;0.438242
1.23409;0.439939
1.24299;0.44342
1.24743;0.44521
1.25184;0.447031
1.26062;0.450783
1.26501;0.452698
1.26937;0.454649
1.27372;0.45664
1.28244;0.460736
1.28679;0.462818
1.29111;0.464931
1.2997;0.469235
1.30397;0.471427
1.30823;0.473651
1.31671;0.478171
1.32093;0.480468
1.32516;0.482803
1.32937;0.485168
1.33774;0.489956
1.3419;0.492398
1.34606;0.494868
1.3502;0.497365
1.35847;0.502418
1.36257;0.50497
1.36666;0.507551
1.3748;0.512766
1.37884;0.515409
1.38287;0.518078
1.39092;0.523499
1.39492;0.526227
1.39892;0.529002
1.40291;0.531789
1.41086;0.537414
1.41482;0.540254
1.41877;0.543106
1.42663;0.548858
1.43055;0.551767
1.43446;0.554688
1.43833;0.557626
1.44607;0.563535
1.44993;0.566523
1.45377;0.569528
1.45762;0.572554
1.46146;0.575581
1.4691;0.581689
1.47289;0.584749
1.47668;0.587828
1.48397;0.593785
1.48757;0.596737
1.49098;0.599556
1.49775;0.60513
1.50094;0.607768
1.50394;0.610238
1.50958;0.614913
1.5123;0.617153
1.51483;0.619208
1.51722;0.621153
1.52178;0.624864
1.52394;0.626609
1.52596;0.628228
1.52978;0.63129
1.53159;0.63274
1.53328;0.634084
1.53659;0.636695
1.5381;0.637872
1.5395;0.63897
1.54082;0.639988
1.5432;0.641825
1.54436;0.642713
1.54552;0.643597
1.54743;0.645051
1.54836;0.64575
1.54923;0.646403
1.55004;0.646998
1.55147;0.648049
1.55217;0.648554
1.5528;0.649012
1.55393;0.649816
1.55448;0.650201
1.55497;0.650548
1.55585;0.651155
1.55628;0.651451
1.55665;0.651708
1.55724;0.652252
1.55754;0.65246
1.55781;0.652636
1.55803;0.652792
1.55846;0.653081
1.55864;0.653194
1.55879;0.653287
1.55906;0.653459
1.55916;0.653521
1.55923;0.653569
1.55936;0.653649
1.55939;0.653669
1.5594;0.65368
1.55942;0.653685
1.55939;0.65367
1.55935;0.653649
1.5593;0.653618
1.55915;0.653535
1.55907;0.653487
1.55897;0.653431
1.55876;0.653311
1.55863;0.653242
1.5585;0.653168
1.55835;0.653086
1.55803;0.65291
1.55785;0.652818
1.55767;0.652722
1.55748;0.652618
1.55708;0.652406
1.55688;0.652299
1.55666;0.652189
1.55622;0.651959
1.55599;0.651841
1.55575;0.651726
1.55551;0.651602
1.55501;0.651361
1.55475;0.651236
1.55449;0.651113
1.55422;0.650986
1.55368;0.650728
1.55341;0.6506
1.55313;0.65047
1.55285;0.65034
1.55227;0.650081
1.55198;0.649948
1.55169;0.649815
1.5514;0.649692
1.55079;0.649425
1.55049;0.649295
1.55018;0.649163
1.54988;0.649042
1.54926;0.648781
1.54894;0.648645
1.54863;0.64853
1.548;0.648275
1.54772;0.648163
1.54746;0.648061
1.5469;0.647854
1.54662;0.647746
1.54633;0.647633
1.54571;0.647399
1.5454;0.647282
1.54509;0.647165
1.54445;0.646927
1.54413;0.646813
1.5438;0.646696
1.54348;0.64658
1.54284;0.646352
1.54252;0.646242
1.54221;0.646142
1.54157;0.645931
1.54125;0.645828
1.54096;0.645733
1.54067;0.645631
1.54005;0.645435
1.53974;0.645331
1.53942;0.64523
1.53878;0.645022
1.53847;0.644923
1.53821;0.644844
1.53765;0.644674
1.53737;0.644587
1.53707;0.644498
1.53677;0.64441
1.53616;0.644232
1.53586;0.644142
1.53556;0.644054
1.53526;0.643969
1.53467;0.643801
1.53436;0.643715
1.53411;0.643641
1.53384;0.643569
1.53328;0.643414
1.53299;0.643337
1.53271;0.643261
1.53213;0.643112
1.53185;0.643037
1.53156;0.642962
1.531;0.642815
1.53072;0.642746
1.53044;0.642677
1.53017;0.642607
1.52961;0.642471
1.52934;0.642406
1.5291;0.642346
1.5286;0.642227
1.52836;0.642177
1.5281;0.642116
1.52757;0.642001
1.52731;0.641936
1.52706;0.641877
1.52654;0.64176
1.5263;0.641704
1.52605;0.641655
1.52581;0.641605
1.52531;0.641499
1.52506;0.641441
1.52483;0.641397
1.52459;0.641345
1.52411;0.641245
1.52387;0.641196
1.52364;0.641151
1.52341;0.641105
1.52295;0.641013
1.52271;0.640966
1.52249;0.640924
1.52227;0.640882
1.52182;0.640796
1.52159;0.640754
1.52138;0.640713
1.52094;0.640625
1.52073;0.640587
1.52051;0.640547
1.5203;0.640509
1.51988;0.640432
1.51968;0.640381
1.5195;0.640345
1.51911;0.64028
1.5189;0.640249
1.5187;0.640214
1.5185;0.640181
1.5181;0.640117
1.51789;0.640082
1.51771;0.640052
1.51733;0.639997
1.51714;0.639962
1.51695;0.639931
1.51676;0.639903
1.51638;0.639854
1.5162;0.639825
1.51584;0.639776
1.51566;0.639746
1.51549;0.639722
1.51533;0.639696
1.51499;0.639653
1.51482;0.639632
1.51465;0.639606
1.51448;0.639582
1.51414;0.639539
1.51398;0.639518
1.51382;0.639496
1.51349;0.63945
1.51332;0.63943
1.51316;0.639407
1.51284;0.63936
1.51268;0.639344
1.51253;0.639325
1.51239;0.639308
1.5121;0.639272
1.51195;0.639254
1.5118;0.639234
1.5115;0.639195
1.51134;0.639177
1.51121;0.639164
1.51107;0.639146
1.51079;0.639111
1.51065;0.639097
1.51051;0.639081
1.51036;0.639063
1.51008;0.639031
1.50994;0.639016
1.50982;0.639009
1.50969;0.638998
1.50944;0.638974
1.50931;0.638955
1.50918;0.638942
1.50904;0.638932
1.50878;0.638905
1.50867;0.6389
1.50854;0.638887
1.50842;0.638874
1.50817;0.638849
1.50805;0.63884
1.50792;0.63883
1.50772;0.638818
1.5076;0.638802
1.50748;0.638788
1.50726;0.638767
1.50714;0.638759
1.50703;0.638753
1.5068;0.638732
1.50668;0.638722
1.50657;0.638711
1.50646;0.638702
1.50624;0.638682
1.50613;0.638673
1.50601;0.638665
1.50592;0.63866
1.5057;0.638647
1.5056;0.638639
1.50549;0.638631
1.5054;0.638625
1.50517;0.638595
1.50505;0.638581
1.50495;0.638576
1.50475;0.638562
1.50465;0.638544
1.50454;0.638528
1.50438;0.638521
1.50429;0.638515
1.5042;0.638511
1.50402;0.638496
1.50394;0.63849
1.50386;0.638486
1.50378;0.63848
1.50365;0.63846
1.50361;0.638461
1.50357;0.638458
1.50352;0.638418
1.50343;0.638411
1.5034;0.638414
1.50334;0.638411
1.50331;0.638414
1.50328;0.638423
1.50319;0.638418
1.50313;0.638413
1.50309;0.638407
1.503;0.63839
1.50296;0.638385
1.50293;0.638378
1.50291;0.638372
1.50288;0.638353
1.50287;0.638339
1.50288;0.638329
1.50285;0.63831
1.50282;0.638302
1.50279;0.638296
1.50277;0.638278
1.50276;0.638273
1.5027;0.638281
1.50265;0.638286
1.5026;0.638293
1.50256;0.638296
1.50248;0.638281
1.50245;0.638283
1.50242;0.638281
1.50239;0.638277
1.50237;0.63828
1.50234;0.638281
1.50228;0.638275
1.50226;0.638271
1.50223;0.638268
1.50213;0.638269
1.50208;0.638264
1.50204;0.638256
1.50197;0.638265
1.50192;0.638281
1.5019;0.638288
1.50189;0.638294
1.50187;0.638302
1.50186;0.638301
1.50184;0.638301
1.50178;0.638289
1.50174;0.638282
1.5017;0.63828
1.50167;0.63828
1.50161;0.638276
1.50156;0.63827
1.50156;0.638269
1.50154;0.638268
1.50146;0.638251
1.50143;0.638253
1.50139;0.638242
1.5013;0.638245
1.50124;0.638243
1.50118;0.638231
1.50113;0.638222
1.50111;0.638217
1.5011;0.638206
1.50108;0.638201
1.50104;0.638206
1.501;0.638209
1.50099;0.638211
1.50096;0.638212
1.50093;0.638227
1.50089;0.63823
1.50089;0.63823
1.50086;0.638233
1.50081;0.638231
1.50076;0.638228
1.50072;0.638223
1.50066;0.638219
1.50063;0.638212
1.5006;0.638206
1.50056;0.638205
1.5005;0.638207
1.50047;0.6382
1.50045;0.638191
1.50046;0.638178
1.50042;0.638183
1.50038;0.638193
1.50035;0.638203
1.50032;0.638213
1.50027;0.638225
1.50028;0.63823
1.50029;0.638227
1.50028;0.638228
1.5003;0.63822
1.50032;0.638215
1.50032;0.638222
1.50032;0.638219
1.50037;0.638225
1.50039;0.638235
1.50039;0.638239
1.50038;0.638241
1.50037;0.638241
1.50034;0.638233
1.50033;0.638229
1.50032;0.638229
1.50038;0.638225
1.5004;0.638225
1.50042;0.638226
1.50041;0.63823
1.50041;0.638227
1.50041;0.638229
1.5004;0.638237
1.5004;0.638241
1.50039;0.63824
1.50038;0.638241
1.50037;0.63824
1.50036;0.638233
1.50037;0.638227
1.50038;0.638225
1.50039;0.638229
1.50038;0.638225
1.50037;0.638225
1.50039;0.638223
1.50035;0.638205
1.50031;0.638197
