69922
76838
63365
71455
80823
67559
71135
67723
71052
71783
79349
69261
73552
71439
75201
69138
80786
82160
74905
92183
85453
71512
70879
73123
65881
88227
70926
70362
74050
83846
72983
74309
71868
79814
67083
75955
68241
68368
70850
89071
65688
83938
67410
89280
77984
67820
70796
66970
76917
67770
69908
65120
67803
68737
69738
81671
74905
62640
61219
61024
65155
59407
65078
81290
60588
65033
66648
73477
67131
71289
75726
81318
62351
60388
58192
78337
68144
76290
96324
66912
77607
79428
74226
70780
82653
77977
57846
82581
104512
70042
70358
69448
75037
68049
67246
71525
69201
78059
70496
65827
79446
64593
66773
77492
66495
68863
86799
77492
66658
67590
63853
74849
70870
95188
73274
66723
83843
68197
78593
61572
90950
68507
68426
77040
68202
83340
79457
76555
83635
67538
81386
94162
83777
80999
78382
77522
80329
77455
118503
68123
78327
83416
77461
113304
81843
93355
76079
68368
81793
96827
71627
92227
91975
72904
79880
76322
76210
68002
76986
74423
72609
68221
78592
83935
52831
87401
68584
74556
61317
56778
60487
72325
79187
79209
70475
55514
71242
72556
65625
62294
63007
72820
73755
61889
57542
56768
71197
64883
70779
65117
74681
74362
59875
69321
61939
73893
62904
64473
64486
61203
64003
63918
61802
62023
67012
60957
78982
74892
64596
70003
65108
69310
85195
106135
112714
95296
90855
102474
110407
92290
107740
95355
99169
101895
105452
85468
89948
97083
89514
100082
79842
109096
89748
103540
101912
89615
104356
90573
90563
100649
89035
84341
114519
89532
89340
80902
79983
82210
87090
93390
77450
92239
92553
69591
108550
81552
88839
96262
90211
79017
102460
110213
91249
93170
72587
72898
85633
81874
86626
89658
92870
88854
98887
80691
76617
79307
78685
77867
94186
80325
86818
98214
83894
86990
85981
102619
96278
85936
87285
97213
92458
103673
104928
106208
86922
120255
101189
86616
103292
97447
89730
108378
102927
108835
101118
95975
94771
96540
91721
89009
80843
92796
87542
86382
93949
93364
99525
93866
93164
94892
91118
96831
96486
94188
97740
87594
87663
84842
100389
100153
100791
107950
103963
90916
99316
108390
105174
104809
112925
113576
106956
101389
115577
113649
106189
98103
96622
85353
89953
75026
96773
66405
82405
96279
76554
63206
65732
72319
76844
82406
72520
74177
66295
86077
68821
69158
86114
67722
49944
71729
63575
68303
85423
63038
66245
94105
67688
83144
69087
73332
74161
89730
81255
91234
76560
100316
89672
75283
81166
72283
114695
79747
68337
68058
74898
78122
92110
86341
75114
76959
81306
76609
75573
115370
71041
68109
102719
78756
72300
67870
81454
88701
77406
68763
98672
75842
77646
77222
80084
74458
76538
77853
70540
85049
66622
61079
72772
75578
90450
82498
75616
74397
83263
69771
66090
68738
87418
74470
87389
90366
69077
65887
75082
80409
74028
75106
70369
84673
66092
76943
76721
67442
68681
73211
76935
76299
74176
72982
79550
67363
76829
67175
67755
76331
76404
79637
78772
69817
83235
66752
66992
67902
72260
67427
72949
72691
67506
69078
74132
71934
63285
69830
72123
71143
74824
70207
69516
65233
69897
87892
65564
72578
100423
73566
65891
70059
81524
89250
68171
62042
62721
70231
62133
69226
67334
61980
65379
64439
62754
70372
72025
75245
74090
70905
78524
93230
107521
82514
79548
115044
95076
102827
117737
119398
115812
131871
112292
110050
101061
98471
88917
112584
99173
83284
79785
87113
106706
91513
98279
92604
100126
78218
94536
87682
76488
83138
81017
84544
74191
87590
103100
98091
101351
77700
82038
69762
75801
94454
114451
131296
104106
93986
88377
85830
92656
93322
85941
105322
93040
88873
87036
110204
91391
104036
104772
118605
87548
101011
100396
115918
104495
132312
112602
103582
104022
109453
96649
113347
107096
117303
107666
118605
127425
111954
107792
110213
105461
104346
109335
115767
103361
112296
87066
102110
86430
104879
87851
101967
115249
92906
101266
95909
103359
96809
97753
92726
71452
98006
82669
100470
99263
97989
102241
83477
111016
104647
92733
91616
98301
87298
92892
87065
109724
67959
71989
78932
81699
93420
75887
70998
75319
72317
66653
65657
76850
70503
78904
82010
82841
95769
73360
82176
92315
77122
89412
80502
85074
75016
94191
80538
79818
74256
91317
85779
79549
73967
81553
55986
72811
72355
69378
57363
77571
67739
85523
221380
66146
68635
79014
84742
67417
66822
65212
84612
93868
75411
70314
59906
72107
61324
68476
62140
68037
58899
59971
59210
78225
62264
65240
59645
70316
68538
66654
61203
61852
80672
70326
67828
60067
64655
61934
67929
65917
58999
57890
73587
63942
72147
66286
68178
70604
63323
64960
83305
85786
77017
66746
69783
78857
66559
74111
61180
75228
73416
69614
68248
78330
74863
73112
66026
64503
71001
77075
75743
69283
67333
85933
68058
65429
62781
65386
69145
66395
75312
72745
68769
70501
74363
65650
70892
70016
67056
68928
68784
66408
67436
73032
69430
83884
72651
67788
70667
66432
80725
70124
63771
71394
85589
73695
66111
70161
65098
80839
76544
77893
89746
66728
77428
74544
71906
76272
68794
88814
78868
72634
67118
83670
73818
62302
76868
87645
67071
72245
69329
88870
64060
66821
65840
72725
64232
70964
70227
63365
66916
76594
66920
74787
70430
72477
80008
66687
82114
82784
67517
62817
70401
78661
77920
82728
82227
74419
93900
65472
82539
73791
69237
76154
73015
72718
75051
73612
77463
69931
74821
71917
66955
77224
69904
63308
79848
68680
68854
82452
64653
81858
70265
75237
97015
69197
61555
75633
94010
74624
72528
61322
96663
71370
68797
87824
76018
63606
63269
66138
66720
69606
70958
63974
71291
70588
60911
64990
67180
89963
63752
77544
79833
86518
75861
60404
63560
69300
66741
63257
66453
70801
63959
80024
81330
75365
64221
72946
72819
77730
69810
87342
77922
74383
79900
70507
69995
83804
68993
76335
66996
77037
84656
72030
78534
64266
64790
70667
71825
78109
66935
73013
70868
66547
76332
62631
70762
68164
72600
71212
65963
70979
63041
71103
76579
65279
65060
69156
71779
70278
64439
64364
70428
65417
63744
70992
70748
63440
66591
68997
67052
66389
72340
64537
77733
71051
70757
66185
73336
80654
73097
69651
78416
63865
66918
63138
62716
72169
73958
70875
80151
65752
62370
71895
65069
72621
66126
63056
85863
62145
78197
72074
63630
71407
65521
63956
69725
65408
68631
68052
68270
62999
62208
67157
70693
70179
68734
62233
74741
68296
64684
65461
75395
65375
70310
73735
69144
63900
65817
70676
65006
67897
65321
66564
63145
68637
70935
66921
65086
64840
66778
60156
65767
70877
66953
67571
