0.0206703
0.0147102
0.0137635
0.016537
0.0215571
0.0176726
0.0260587
0.0250722
0.018105
0.0162164
0.0168228
0.0225525
0.0156186
0.0155369
0.0186368
0.0254681
0.0149487
0.0136239
0.0202334
0.0254655
0.0137132
0.0240082
0.0207633
0.0134301
0.0168232
0.0161207
0.0153959
0.0218438
0.0125857
0.0129712
0.0165219
0.015875
0.0163118
0.013977
0.0131716
0.0254787
0.0207959
0.0184486
0.0186869
0.017144
0.0181232
0.017517
0.0199295
0.0192403
0.016845
0.031113
0.0202843
0.0198172
0.0168362
0.0187277
0.0245627
0.0180811
0.020459
0.0216025
0.0230214
0.0205522
0.0145059
0.0150608
0.0184428
0.0184003
0.0166684
0.0248602
0.0134336
0.0122751
0.0117105
0.0142446
0.0167598
0.016908
0.0149606
0.0128478
0.0161053
0.0115195
0.0157108
0.0133744
0.0130048
0.0205543
0.0157813
0.0153392
0.0170084
0.0138282
0.0132833
0.0146239
0.0142757
0.0202823
0.0138706
0.0141003
0.0135408
0.0204602
0.0241989
0.0152043
0.0174221
0.0216117
0.01503
0.0278747
0.0301018
0.0204828
0.0147557
0.02653
0.0248152
0.024137
0.0179937
0.0228303
0.0221741
0.0451104
0.0484197
0.0265297
0.0280006
0.0376984
0.0421733
0.031036
0.038031
0.0289069
0.0278848
0.02799
0.0402149
0.0293592
0.0280887
0.0261743
0.0166181
0.0531576
0.0282284
0.0202917
0.0142159
0.0193203
0.0175982
0.0135315
0.0147474
0.0121895
0.0152224
0.015654
0.0122509
0.0183101
0.0173373
0.0145709
0.0141207
0.0142499
0.0164007
0.0148684
0.0113341
0.0121194
0.0171396
0.0121448
0.0133493
0.0164415
0.0119395
0.0133112
0.0179007
0.0144963
0.0137248
0.015224
0.0144174
0.0145606
0.0123286
0.0120506
0.0155336
0.0115224
0.0108911
0.00937779
0.0108738
0.0127668
0.0138602
0.0168297
0.0195736
0.0143464
0.0328242
0.0132513
0.0136209
0.0128359
0.013165
0.0167286
0.0125763
0.0143196
0.0116564
0.0132268
0.0102951
0.0150804
0.00929854
0.00978481
0.0207923
0.0203999
0.0182253
0.0149847
0.0151744
0.0160624
0.0136874
0.0101953
0.0145512
0.0185265
0.0164864
0.0252494
0.0204208
0.0478229
0.0203505
0.0212535
0.0200501
0.0930932
0.0710479
0.0312693
0.0201162
0.0214569
0.0199831
0.015904
0.0171613
0.01914
0.018083
0.0161057
0.022019
0.0174017
0.0173753
0.0239669
0.131181
0.0190635
0.0235606
0.0222516
0.0190664
0.0250526
0.02257
0.0323842
0.0373194
0.0374275
0.026908
0.0901221
0.024073
0.0225538
0.0221753
0.128707
0.0955761
0.108351
0.0330232
0.0190756
0.080591
0.0218757
0.0395122
0.0272222
0.0292795
0.0285742
0.0296727
0.0255493
0.0261
0.0243202
0.0232482
0.023768
0.0299758
0.0314398
0.0232357
0.0245286
0.0318071
0.0304629
0.0346631
0.0412286
0.0384606
0.0236912
0.0244042
0.0209746
0.0217376
0.0212256
0.0206761
0.0231951
0.0220693
0.0221269
0.025286
0.0211026
0.0362632
0.0199578
0.0390363
0.0198007
0.0459555
0.0337161
0.0520377
0.0273545
0.0263472
0.0204934
0.021182
0.0215491
0.0291318
0.0237809
0.240777
0.0195644
0.112945
0.0247179
0.0693539
0.0229084
0.0215936
0.0259873
0.0213604
0.0325284
0.0353504
0.0204159
0.0215172
0.0263341
0.0268587
0.0209118
0.029122
0.0249277
0.0249749
0.0232127
0.0219689
0.0232609
0.0386807
0.0371723
0.0457024
0.03859
0.0389469
0.0391645
0.0398294
0.0389817
0.0510795
0.0559292
0.0525794
0.0305014
0.0333004
0.0464757
0.0502052
0.0605027
0.0209013
0.141284
0.018258
0.0766203
0.0389484
0.0424799
0.0823363
0.0350369
0.0451824
0.0383731
0.12088
0.0217331
0.0295243
0.0203576
0.0307172
0.0266842
0.0207837
0.0282886
0.0298301
0.0254695
0.027875
0.0262016
0.241675
0.0192269
0.0643236
0.371503
0.0136019
0.0201428
0.0240209
0.0246981
0.0708882
0.0298832
0.0311015
0.0192988
0.0236807
0.0241864
0.0195856
0.0188826
0.02112
0.0526667
0.0201229
0.156634
0.0210746
0.0366438
0.0398219
0.0414517
0.0346777
0.0204179
0.045622
0.174241
0.0319325
0.0186262
0.0255564
0.0203671
0.0190515
0.0278035
0.0197377
0.0201155
0.0217173
0.0227788
0.0206051
0.0211282
0.0331594
0.0685368
0.207854
0.0206458
0.0236904
0.0344961
0.0295065
0.0832659
0.0252984
0.0197456
0.0267506
0.0184209
0.017927
0.0222788
0.0204105
0.0246904
0.0187503
0.0197992
0.0208415
0.0194903
0.0182646
0.0209854
0.0191716
0.0239109
0.0257327
0.0196662
0.0217101
0.0252898
0.021773
0.019126
0.0188311
0.0185598
0.023852
0.0178999
0.0214838
0.0202673
0.0190966
0.0153043
0.0177319
0.0174317
0.0153644
0.019222
0.0337333
0.0187928
0.0196216
0.0194012
0.0185031
0.0184563
0.0183615
0.0194079
0.0182773
0.0195568
0.01884
0.0189397
0.018087
0.0284875
0.0180246
0.0181806
0.0206873
0.0276815
0.0213543
0.0190924
0.0193254
0.0178087
0.0194262
0.0198985
0.02196
0.0177587
0.0194033
0.0188249
0.0265398
0.0190031
0.0231834
0.0184899
0.0280422
0.0201401
0.0218435
0.0182353
0.018161
0.0253436
0.0194856
0.0177324
0.0200115
0.0182913
0.0377058
0.0202988
0.0210485
0.0186137
0.0215292
0.0172896
0.0184
0.0196061
0.0232925
0.0183239
0.0208103
0.0176563
0.0206863
0.018272
0.020749
0.018601
0.0189936
0.0208842
0.0229471
0.023037
0.018024
0.0170442
0.0214075
0.0185301
0.0267345
0.0204645
0.0222325
0.0189727
0.0189167
0.0178823
0.017638
0.016786
0.0208217
0.0191563
0.0180502
0.0175299
0.0173578
0.0187921
0.0208859
0.0176
0.0187876
0.0189444
0.0325871
0.0181494
0.0189169
0.0192257
0.0195445
0.0199723
0.0175985
0.0207536
0.0191233
0.0238018
0.0216669
0.0171804
0.0182079
0.0279469
0.0293239
0.0283817
0.0173034
0.0173138
0.0170928
0.0199616
0.0179319
0.0225409
0.0173422
0.0169778
0.0221793
0.0265015
0.0257641
0.027223
0.0173981
0.0235728
0.0186342
0.0212236
0.0221802
0.0208826
0.028671
0.0184356
0.0165839
0.0184196
0.0190956
0.0190887
0.0158463
0.026129
0.0207016
0.0228384
0.0141468
0.0192668
0.0140344
0.0232974
0.0277109
0.0203798
0.0202769
0.0218392
0.01607
0.0175658
0.0198694
0.0233863
0.0202308
0.017567
0.0268483
0.0173867
0.0201376
0.0235737
0.0180141
0.0198242
0.0189659
0.0232385
0.0166158
0.0212263
0.0225413
0.0169748
0.0190727
0.021513
0.0262148
0.0208855
0.022051
0.0545662
0.0152352
0.0242177
0.022628
0.0249619
0.0260031
0.0280712
0.0175329
0.0256834
0.0142652
0.0228841
0.0237277
0.020001
0.0145241
0.0228362
0.0232941
0.0225608
0.0184825
0.0223605
0.0203707
0.0216521
0.0160827
0.0198177
0.0193674
0.0188089
0.022381
0.0197351
0.0172535
0.0236139
0.0214337
0.0202547
0.0193551
0.0222286
0.0192044
0.0206602
0.0183479
0.0246672
0.0212073
0.0265809
0.0196336
0.0206609
0.0258484
0.020718
0.0199013
0.0243358
0.0199156
0.0217828
0.0207141
0.0235157
0.0210998
0.019845
0.0252738
0.0260997
0.0284211
0.0275999
0.0267898
0.0253963
0.0219413
0.0208873
0.0221749
0.0210467
0.0717201
0.0197784
0.0199898
0.0198664
0.0247879
0.0253056
0.0207985
0.020462
0.0219973
0.0225013
0.0144673
0.0235569
0.0182751
0.0263092
0.0202449
0.0201904
0.0210693
0.0265133
0.019397
0.0199657
0.0217375
0.0223954
0.0145562
0.0454399
0.0197401
0.0221867
0.0226912
0.0146414
0.159704
0.0172755
0.0271157
0.0207447
0.0224891
0.0231599
0.0388489
0.0251772
0.0304269
0.0257482
0.0151427
0.0229037
0.0216329
0.0305982
0.0193459
0.0275194
0.0147256
0.0260854
0.0233118
0.0203481
0.0212087
0.0190043
0.0138469
0.0224315
0.0162005
0.0206381
0.0158058
0.0283441
0.0198048
0.0243784
0.120068
0.0366289
0.0210109
0.0195002
0.0152382
0.0163935
0.018151
0.0193698
0.0221375
0.0232285
0.0262424
0.0203658
0.0225886
0.0176332
0.0193173
0.0191837
0.0212926
0.019171
0.0195333
0.0248232
0.0194465
0.0201908
0.0195315
0.0213901
0.0214254
0.0216535
0.0215823
0.0212601
0.0229932
0.0409794
0.0776853
0.0184395
0.0310273
0.02136
0.0208313
0.0179913
0.0211876
0.0205909
0.0214037
0.0240872
0.0189285
0.0222257
0.0392292
0.0237152
0.0221033
0.0269037
0.0199789
0.0210601
0.0156798
0.0270999
0.019465
0.0223058
0.0781666
0.020497
0.0208334
0.023369
0.0183896
0.0221452
0.0249165
0.0237913
0.0283814
0.0206317
0.0290526
0.0247447
0.0382545
0.0296813
0.0222698
0.0232574
0.0233737
0.0250912
0.0197717
0.0228782
0.0219653
0.0185502
0.0221967
0.0229012
0.0238071
0.0207032
0.0254079
0.0243135
0.0244228
0.0289444
0.0277239
0.0253977
0.027468
0.0401653
0.0205527
0.0267269
0.0188798
0.0260305
0.0260105
0.0316792
0.0871361
0.0387673
0.020947
0.0202139
0.0221789
0.0271248
0.0410213
0.0549532
0.0278965
0.017856
0.0230922
0.0213786
0.0235057
0.0606452
0.0387091
0.0304503
0.0211667
0.0201293
0.0212833
0.0206787
0.0198966
0.0219806
0.0197481
0.0258823
0.0262788
0.0264969
0.0594026
0.262403
0.0208014
0.0244642
0.0219362
0.026717
0.0424684
0.024678
0.0245747
0.0473432
0.0369179
0.0300645
0.0269837
0.0198759
0.0203306
0.0352942
0.0218612
0.0434436
0.0327334
0.0191962
0.0321775
0.0403616
0.0481249
0.0462863
0.204949
0.0242621
0.031849
0.0347767
0.0558735
0.119803
0.0227786
0.0172571
0.0261591
0.0210295
0.0204271
0.0217996
0.0229544
0.0138261
0.0288322
0.0139536
0.0187926
0.0272749
0.0248662
0.0260842
