0.10524
0.020411
0.0293815
0.038058
0.0232951
0.0213811
0.0729876
0.0203916
0.0213734
0.0216871
0.194538
0.0290586
0.0179715
0.0374615
0.0205928
0.0340099
0.0352896
0.0277292
0.144864
0.0284591
0.0771598
0.0237634
0.0363744
0.0244385
0.0248616
0.0250648
0.035636
0.118378
0.0228789
0.0283649
0.0190511
0.0244632
0.0330481
0.0497266
0.0241823
0.0187163
0.0194402
0.0186019
0.0253665
0.0229252
0.020872
0.0249643
0.0200039
0.0200275
0.0291599
0.0273071
0.024319
0.117367
0.0255013
0.0211544
0.0373734
0.0189797
0.026366
0.0244192
0.0252058
0.0260905
0.0257541
0.0195044
0.0305957
0.0238371
0.0383566
0.025464
0.316279
0.0310715
0.0219329
0.0478976
0.0425263
0.086983
0.0368742
0.021115
0.187646
0.108405
0.0329027
0.0264374
0.106115
0.047549
0.0284908
0.0375184
0.0294744
0.0267442
0.189119
0.0165382
0.0199498
0.0856491
0.0625385
0.131222
0.0469571
0.134022
0.0174646
0.118554
0.0341731
0.0367838
0.25751
0.061485
0.0327217
0.0318537
0.0452015
0.02317
0.0239714
0.0287268
0.0316846
0.0441296
0.0289282
0.0283262
0.0486465
0.509042
0.0990081
0.0247714
0.0272791
0.0197373
0.0221101
0.0305146
0.0297828
0.0565789
0.024182
0.0482933
0.0220051
0.0285759
0.0260178
0.0246476
0.0555375
0.0331674
0.100799
0.105117
0.0213356
0.0453918
0.164996
0.0199636
0.0198367
0.0215367
0.129848
0.0291954
0.0203875
0.0261198
0.0377944
0.0306175
0.0429001
0.0216917
0.0208424
0.0375271
0.0202459
0.0203535
0.0203683
0.0205551
0.0360687
0.101598
0.116925
0.0377008
0.0255874
0.0219397
0.0219366
0.0910667
0.238877
0.0350802
0.0263987
0.034673
0.177447
0.145305
0.0217419
0.109612
0.0760218
0.112216
0.0431362
0.129958
0.0222927
0.0222078
0.0213828
0.213151
0.0561989
0.032156
0.115024
0.0393199
0.0214633
0.0211124
0.047746
0.0415105
0.0200605
0.224766
0.021103
0.0260106
0.0545398
0.0235709
0.0242003
0.0237319
0.023174
0.0244669
0.022542
0.0325671
0.0244701
0.020428
0.0239767
0.0239617
0.032884
0.0235902
0.018346
0.0427419
0.0197267
0.0217239
0.0278762
0.0523102
0.0198596
0.0251158
0.0201951
0.0177818
0.0192316
0.0172888
0.0255748
0.0246939
0.0149722
0.0152728
0.015253
0.0183373
0.0151582
0.0166841
0.0154947
0.0207053
0.125213
0.101753
0.0150894
0.0137763
0.0141274
0.0201875
0.0195501
0.0316056
0.0696836
0.0258318
0.0621936
0.0526917
0.0684524
0.0243535
0.198915
0.0613472
0.0173905
0.020549
0.0151365
0.0281855
0.0954917
0.0546079
0.0306671
0.0257555
0.0286264
0.513602
0.0274042
0.0171486
0.0346346
0.0849941
0.0272044
0.0259817
0.0687795
0.0255619
0.0201083
0.0265461
0.0264356
0.0295895
0.0307253
0.0696279
0.0296098
0.0491866
0.0309645
0.0383789
0.027583
0.0205267
0.040242
0.0368929
0.0498352
0.0386202
0.0344002
0.0200833
0.0502757
0.0567259
0.0199085
0.0209186
0.0201809
0.0323881
0.031166
0.0274901
0.023316
0.0209703
0.0207423
0.0284007
0.0267164
0.0237782
0.0293211
0.0219027
0.0205472
0.0317876
0.0579957
0.0359581
0.0315413
0.0189467
0.042302
0.039775
0.217449
0.0191665
0.0530226
0.0598014
0.0333011
0.0259835
0.0600879
0.0171898
0.0125512
0.025552
0.0325678
0.0269571
0.0523154
0.0701097
0.0245221
0.0537733
0.0179812
0.0275644
0.0433284
0.0553755
0.044386
0.026398
0.048062
0.0217975
0.0168691
0.0151884
0.0270805
0.0271621
0.0374541
0.0212556
0.0176416
0.0215502
0.0418508
0.18714
0.0186896
0.168187
0.0204858
0.0225932
0.0338287
0.0565603
0.02416
0.0275718
0.0246708
0.0234836
0.0463609
0.027753
0.0422318
0.0212266
0.0254251
0.0324576
0.0323414
0.0247196
0.0246965
0.0236515
0.0333588
0.0346608
0.0234553
0.0531571
0.0325846
0.0538068
0.100171
0.0279196
0.0297919
0.026518
0.0264719
0.0170506
0.0234343
0.0268855
0.0399847
0.0328336
0.0307117
0.0221997
0.0179564
0.0181808
0.0179533
0.0184183
0.0192359
0.0333581
0.045061
0.0543495
0.0460231
0.024275
0.0292239
0.0890517
0.0201354
0.0181738
0.0204961
0.0371702
0.0198872
0.0217151
0.0193651
0.0171045
0.0179737
0.0181952
0.0208419
0.0149374
0.101302
0.028403
0.0268242
0.0214704
0.176029
0.0682051
0.0377087
0.018268
0.0168532
0.0242452
0.0707823
0.0207728
0.0122178
0.0123441
0.0396012
0.0187861
0.0229806
0.022907
0.0538004
0.0424221
0.0214688
0.0140463
0.0391
0.0161954
0.0702625
0.0255218
0.0260998
0.0310445
0.0333239
0.0268559
0.0194459
0.040174
0.0269308
0.113169
0.0257701
0.198363
0.0228954
0.025452
0.0171455
0.185631
0.188935
0.0962716
0.020671
0.0665877
0.147139
0.0602754
0.0430006
0.0211278
0.055636
0.0219768
0.0228244
0.101432
0.0211523
0.138447
0.0208285
0.0215562
0.0204429
0.0219966
0.0224081
0.018695
0.0201606
0.020942
0.0241209
0.0249378
0.0195532
0.182745
0.0373617
0.0246146
0.021458
0.0309334
0.0320616
0.0206998
0.0193202
0.0775535
0.0372047
0.0195529
0.0916852
0.03646
0.0266385
0.227237
0.218381
0.023297
0.0586871
0.0293987
0.035792
0.0187284
0.0373042
0.181349
0.0344855
0.0596764
0.0802875
0.0382425
0.125955
0.0679961
0.0440433
0.0249818
0.020619
0.0445715
0.0956378
0.0197219
0.026424
0.0226449
0.0507164
0.0710189
0.0791499
0.0437335
0.0884559
0.0408632
0.0533557
0.0726828
0.0309115
0.123371
0.015308
0.081233
0.0273962
0.0832451
0.0469833
0.0378543
0.0613626
0.0671605
0.0278166
0.0244828
0.0411693
0.0271884
0.111812
0.0237894
0.0139684
0.0256794
0.0660957
0.0131029
0.021698
0.0593476
0.0143379
0.0194082
0.0377638
0.0291075
0.0294172
0.0325164
0.065724
0.0196724
0.0164859
0.0153424
0.0595327
0.0821721
0.0445905
0.0182252
0.0228002
0.020742
0.014399
0.0192708
0.0230234
0.0513165
0.0389492
0.0996698
0.0252262
0.021821
0.0232437
0.02521
0.022705
0.0526109
0.0223929
0.0179174
0.0295437
0.0316092
0.0212931
0.0218942
0.0216703
0.0241595
0.0342775
0.0319682
0.112082
0.0286961
0.0314357
0.0204082
0.024765
0.0706525
0.0282318
0.0249271
0.0284439
0.0226953
0.0544815
0.0505795
0.0512456
0.0953753
0.0216961
0.0863316
0.0224333
0.0465702
0.0526824
0.0321122
0.0390711
0.025866
0.0513012
0.0387512
0.0480304
0.0623437
0.0804158
0.0209932
0.0324205
0.0682191
0.0445543
0.0332601
0.112717
0.065881
0.103296
0.0648444
0.0915497
0.0426115
0.0499003
0.0378422
0.316814
0.0226641
0.0282924
0.0275023
0.0403855
0.0492694
0.0331376
0.02532
0.0312457
0.114508
0.0185514
0.0297006
0.039358
0.0335569
0.0251736
0.0262359
0.0319081
0.0239375
0.0350224
0.0283806
0.0667606
0.0303181
0.0382468
0.0494308
0.020157
0.0490133
0.0668369
0.036775
0.0193713
0.0211785
0.0385826
0.0347614
0.0368687
0.0281345
0.16534
0.13141
0.0921054
0.0649924
0.0295989
0.0226588
0.0643585
0.200625
0.0449353
0.212666
0.0286647
0.0689831
0.0273734
0.388485
0.0173112
0.0193398
0.0346853
0.116224
0.0258049
0.0312113
0.0263078
0.0755644
0.14018
0.0775173
0.0291786
0.0388043
0.0188009
0.0230913
0.0384493
0.0289453
0.0458425
0.0133931
0.0137648
0.0135766
0.015093
0.0688262
0.0207666
0.0185585
0.0139994
0.0132402
0.0167713
0.0431012
0.042842
0.0177149
0.013838
0.0139425
0.0148656
0.0236293
0.0236497
0.020177
0.0132012
0.0137087
0.0504666
0.137199
0.0613792
0.0191789
0.0167504
0.0148684
0.0142752
0.0165663
0.0417545
0.0127919
0.0178299
0.0134655
0.0179622
0.0273877
0.0869882
0.0143921
0.0136164
0.020057
0.014596
0.0144538
0.0697368
0.0122724
0.0146192
0.0149584
0.108085
0.197415
0.0280842
0.0285886
0.0337878
0.0261334
0.0204169
0.0878008
0.0637914
0.0424202
0.0221437
0.0317565
0.0225774
0.0229136
0.0228595
0.0389878
0.0225282
0.0213818
0.0256096
0.0348785
0.0228569
0.0772845
0.0131464
0.01376
0.0157319
0.014348
0.12568
0.0175372
0.0200939
0.0203269
0.0295034
0.0329812
0.125452
0.0732168
0.0292147
0.171742
0.0976909
0.0303916
0.0470389
0.0212887
0.109483
0.0237035
0.0393233
0.0213768
0.0405073
0.0201288
0.0138051
0.263369
0.0282626
0.0270453
0.0844366
0.0538896
0.0214754
0.0706866
0.151144
0.072011
0.0604968
0.0611369
0.0874702
0.0413094
0.0494573
0.0501503
0.042369
0.0366135
0.0430036
0.0757704
0.0256791
0.0288078
0.031334
0.0492532
0.134108
0.0230191
0.0474371
0.0473006
0.0359102
0.0158641
0.0213779
0.0215705
0.0216935
0.0216531
0.0179131
0.0694958
0.02289
0.0260965
0.0362747
0.0692522
0.0535145
0.0271988
0.0226579
0.0291929
0.0851659
0.0265564
0.0235731
0.141776
0.177356
0.0209112
0.0371663
0.0749079
0.107519
0.0243379
0.0347709
0.0633054
0.0370004
0.0437379
0.10378
0.0279352
0.121243
0.0284794
0.0526945
0.0289066
0.0226513
0.0386004
0.233496
0.0358459
0.0218712
0.0217376
0.0229821
0.0225208
0.0829734
0.17712
0.0721362
0.0206153
0.0588422
0.0197171
0.0207261
0.0211495
0.0947908
0.0754899
0.021075
0.0264457
0.0215039
0.0272503
0.0253708
0.0334891
0.0271716
0.041918
0.0237776
0.022069
0.0203944
0.0445797
0.0383716
0.0482499
0.0914405
0.0461625
0.0417448
0.0316465
0.0674521
0.0219373
0.0614647
0.0287938
0.0255915
0.0539789
0.0221364
0.024314
0.0312916
0.0397742
0.101027
0.0219361
0.0382359
0.171051
0.0814529
0.0207276
0.0248235
0.0767295
0.0230097
0.01845
0.0204763
0.112951
0.0326381
0.0199611
0.0249779
0.0514793
0.0502794
0.0351276
0.019783
0.0223488
0.0218348
0.0333826
0.0159705
0.0201259
0.0302479
0.132716
0.01622
0.0264001
0.124349
0.0725366
0.145569
0.0263191
0.0428143
0.0240983
0.0221401
0.0294051
0.0331752
0.0277774
0.0533854
0.0401692
0.0270469
0.0212255
0.0280627
0.0194792
0.0266134
0.0218946
0.0222006
0.0254064
0.0406437
0.0459636
0.0203614
0.0242948
0.0240857
0.0331798
0.0307551
0.0225001
0.0234724
0.042744
0.162005
0.0600571
0.0234159
0.0310815
0.0512158
0.0250388
0.0190587
0.0186849
0.0196469
0.0216951
0.0221848
0.0208359
0.0332361
0.0198019
0.0343818
0.0239392
0.053693
0.0282116
0.02021
0.0317775
0.0196442
0.0316925
0.029463
0.027064
0.0291351
0.0311187
0.0448171
0.0200779
0.0567546
0.0362696
0.0831201
0.0213225
0.0214925
0.206021
0.0118676
0.0243007
0.0254601
0.0576962
0.10913
0.0288286
0.0182638
0.0592698
0.0280184
0.071332
0.0174452
0.0664692
0.0352072
0.0307059
0.0310897
0.024973
0.0166098
0.0136921
0.0253737
0.081779
0.0178471
0.0205484
0.0196745
0.027021
0.0237772
0.0275544
0.0253771
0.0238792
0.0229272
0.0231408
0.0216782
0.0252557
0.0217494
0.0231718
0.0210964
0.0217758
0.0220022
0.0231061
0.0247058
0.021352
0.0285713
0.0210863
0.183703
0.0150724
0.0162716
0.0947851
0.0196861
0.0219943
0.022937
0.0203956
0.0209391
0.0220255
0.0211268
0.0835963
0.0712151
0.0655548
0.056954
0.0199476
0.0996782
0.0821299
0.0159294
0.094043
0.0956976
0.0197401
0.0356903
0.0464524
0.0156155
0.0854461
0.034623
0.0171026
0.0166197
0.0166651
0.0204336
0.0165049
0.0172742
0.0180098
0.0160592
0.018026
0.0162059
0.0167435
0.0167506
0.0159805
0.0176242
0.016474
0.0166336
0.0162933
0.0173872
0.0158206
0.0167562
0.0164045
0.0179894
0.016818
0.0160826
0.0234918
0.0176973
0.01618
0.0172652
0.01701
0.0167352
0.016477
0.0171984
0.0178843
0.0208925
0.0168022
0.0213151
0.0183142
0.0205034
0.0219004
0.0172601
0.0171497
0.0180118
0.0160899
0.0163942
0.0208326
0.016156
0.0161101
