0.0148335
0.0130331
0.0138148
0.0156722
0.0146861
0.0156632
0.0192915
0.0285133
0.0164921
0.01971
0.0165067
0.0161727
0.0214067
0.0163264
0.0137971
0.0165569
0.0187922
0.0216952
0.0144179
0.0157963
0.013718
0.0107443
0.0123429
0.0111208
0.0149115
0.0136379
0.0135032
0.011179
0.0110584
0.0109671
0.0127056
0.0114449
0.0114391
0.0115095
0.0110257
0.0120711
0.0162152
0.0125168
0.0137722
0.0114034
0.0119846
0.011102
0.0249939
0.0109822
0.010717
0.0109394
0.0149731
0.0109507
0.0106904
0.0109541
0.011708
0.0114203
0.0108568
0.0147139
0.0114929
0.0110993
0.0111228
0.0112014
0.012895
0.0118586
0.0123708
0.012208
0.0122944
0.0115127
0.0108433
0.0120726
0.011667
0.0165036
0.0108265
0.011023
0.0109222
0.011168
0.0132646
0.0118128
0.0113232
0.0117889
0.011353
0.013187
0.0138689
0.0119638
0.0161612
0.012583
0.0127984
0.0219165
0.0178606
0.0110546
0.0112568
0.0173662
0.0108714
0.0107923
0.0109405
0.0112704
0.0112907
0.0143314
0.0160612
0.0109907
0.0123767
0.0110244
0.0180118
0.0142577
0.0134012
0.0122904
0.0172986
0.0142405
0.0135914
0.012762
0.0221539
0.0111013
0.0116001
0.0110069
0.010834
0.0126748
0.0148166
0.0113657
0.0115618
0.0117659
0.0156728
0.0175958
0.013185
0.0149675
0.00938393
0.011568
0.0117233
0.0107615
0.0118191
0.0125062
0.0111256
0.0108329
0.0110445
0.0153727
0.01077
0.014647
0.0110403
0.0112123
0.0127208
0.0161663
0.0123562
0.0119602
0.011913
0.0107726
0.0105709
0.0124599
0.0135939
0.0294714
0.0237233
0.0162359
0.0182641
0.0233068
0.0216318
0.0155947
0.0194368
0.0190433
0.0139105
0.0171414
0.0142885
0.0134741
0.0146694
0.0174661
0.0210146
0.0133869
0.0167347
0.01345
0.0123016
0.0108187
0.0145555
0.0142719
0.0106419
0.0107027
0.0211926
0.0133046
0.014188
0.0138884
0.0138435
0.0131399
0.0132896
0.0127414
0.0134317
0.0121454
0.012481
0.0135631
0.0109772
0.0163517
0.0197663
0.0141009
0.0161479
0.0201799
0.0123846
0.0150314
0.0188009
0.0253116
0.0219281
0.0240589
0.0148142
0.0185184
0.0164667
0.0255755
0.0201746
0.0416882
0.0193916
0.040287
0.0972927
0.0636386
0.0240933
0.125305
0.042691
0.0173629
0.015676
0.0532864
0.0840415
0.0247489
0.0354036
0.0236947
0.0258169
0.202591
0.0249469
0.177381
0.149261
0.135647
0.0189141
0.0661509
0.0611136
0.0666595
0.0651791
0.0471678
0.0596139
0.0190927
0.0566894
0.0195633
0.111594
0.0366076
0.152622
0.161893
0.111162
0.0268741
0.174992
0.0244332
0.102775
0.0970651
0.218376
0.0616675
0.0287399
0.135818
0.0308951
0.0753878
0.0437707
0.0576537
0.0529592
0.049082
0.0563356
0.0646353
0.108195
0.0397989
0.0350261
0.0919313
0.0295739
0.0389645
0.100932
0.133862
0.0457299
0.203529
0.105916
0.0579327
0.0398644
0.0560397
0.0423164
0.0560151
0.0861856
0.123661
0.092624
0.0384906
0.102031
0.0310072
0.0175497
0.0905201
0.084015
0.0201009
0.0495855
0.0867835
0.0687316
0.0572777
0.0349671
0.114828
0.126516
0.0390164
0.0655885
0.253044
0.0628368
0.253404
0.262937
0.0412499
