-0.000698879;0.00371783
-0.000707167;0.00371673
-0.000568739;0.0122301
0.00595856;0.0480191
0.0145949;0.0667367
0.028934;0.0876907
0.0317389;0.0910893
0.0438318;0.104303
0.193259;0.221171
0.209035;0.232354
0.214083;0.236037
0.214697;0.236469
0.21195;0.234154
0.208273;0.230846
0.206463;0.229152
0.209209;0.232127
0.214953;0.238876
0.223527;0.249856
0.229118;0.257442
0.234522;0.26513
0.239707;0.272894
0.244774;0.280833
0.254699;0.297445
0.259688;0.30577
0.269692;0.321529
0.648393;0.55431
0.672482;0.564723
0.655222;0.558427
0.666173;0.560784
0.669956;0.561475
0.671374;0.561697
0.671068;0.561696
0.670189;0.561634
0.671034;0.561644
0.676499;0.561578
0.70299;0.55905
0.716156;0.556559
0.993362;0.55182
0.998173;0.552736
1.00026;0.553165
0.989826;0.550324
0.994959;0.552205
1.00176;0.555022
1.00984;0.558725
1.02496;0.566736
1.03234;0.571314
1.04633;0.581483
1.34599;0.752733
-0.000392283;0.00351648
-0.000378929;0.00788315
-0.000172065;0.0170165
0.00312131;0.0413576
0.194765;0.225494
0.206916;0.234089
0.214254;0.239239
0.217421;0.241485
0.214885;0.239506
0.209486;0.234974
0.207458;0.234072
0.213767;0.241444
0.220094;0.248989
0.22935;0.260264
0.235091;0.267497
0.245169;0.28201
0.249871;0.289811
0.254667;0.298178
0.261917;0.310926
0.271437;0.326514
0.656564;0.558477
0.663397;0.561488
0.664779;0.562141
0.662121;0.561169
0.65514;0.558702
0.657793;0.559409
0.661235;0.560264
0.664251;0.560928
0.666409;0.561342
0.667181;0.561475
0.667554;0.561524
0.667933;0.561573
0.668791;0.561637
0.675392;0.561677
0.695922;0.560201
0.704699;0.558924
0.731353;0.55297
0.981421;0.550737
0.991002;0.552303
0.995742;0.553139
0.99918;0.553783
0.998412;0.553585
0.992241;0.551997
0.992573;0.552173
0.996116;0.553462
1.00136;0.555598
1.00766;0.558436
1.0148;0.561944
1.02234;0.566063
1.03704;0.575477
1.32418;0.746361
1.41807;0.775155
1.48521;0.788889
-0.000408082;0.00352178
-0.000311723;0.00789508
0.00198482;0.0336066
0.00373801;0.0413054
0.00607425;0.0489454
0.0107684;0.060214
0.196642;0.225372
0.204716;0.231113
0.21162;0.235929
0.214878;0.238255
0.213731;0.23738
0.209924;0.234172
0.2048;0.229473
0.206414;0.231262
0.215253;0.241693
0.221277;0.24929
0.227294;0.256952
0.235772;0.268236
0.245821;0.283264
0.255578;0.299746
0.260457;0.308056
0.265326;0.315987
0.663911;0.559883
0.672272;0.563427
0.661607;0.559539
0.652291;0.55655
0.658093;0.558027
0.663681;0.559293
0.668514;0.560249
0.67217;0.560881
0.672827;0.560977
0.672389;0.560929
0.687438;0.560079
0.737837;0.550395
0.979418;0.551177
0.989106;0.552783
0.997633;0.554235
1.0033;0.555353
1.0028;0.555246
0.997131;0.553756
0.991856;0.55219
0.989008;0.551256
0.9883;0.550999
1.00855;0.560059
1.02054;0.566428
1.04659;0.583459
1.3438;0.750593
1.42423;0.774184
1.438;0.777509
-0.000356632;0.00343196
-0.000370742;0.00344122
-0.000239654;0.0122949
0.000302573;0.0208471
0.00387701;0.0406044
0.00636518;0.0482069
0.18998;0.218629
0.206057;0.230119
0.210033;0.232981
0.208518;0.231508
0.206084;0.229334
0.212816;0.236658
0.218479;0.243568
0.226801;0.2546
0.232176;0.262198
0.237392;0.270002
0.245056;0.282106
0.263191;0.311075
0.271016;0.322663
0.273694;0.326442
0.651074;0.555022
0.664373;0.560985
0.659464;0.559308
0.663776;0.560245
0.671492;0.561528
0.672279;0.561618
0.672359;0.56161
0.673316;0.561628
0.678272;0.561559
0.686817;0.561089
0.69558;0.56021
0.70873;0.558213
0.981701;0.551515
0.991197;0.55311
0.99901;0.554525
1.00254;0.555243
1.00122;0.55494
0.996821;0.553852
0.989657;0.551722
0.990796;0.552125
0.996;0.55417
1.00378;0.557505
1.01194;0.561336
1.01987;0.565418
1.0275;0.569777
1.03486;0.574525
1.10392;0.630661
-0.000302677;0.00344047
-0.000353216;0.00767975
0.000134573;0.0212495
0.00567637;0.0485288
0.203809;0.231374
0.210855;0.236364
0.214553;0.239045
0.213871;0.238496
0.210311;0.235474
0.20504;0.230724
0.206444;0.232362
0.215152;0.24275
0.221119;0.250315
0.227098;0.258011
0.232864;0.265626
0.238318;0.273136
0.243443;0.280702
0.258327;0.305107
0.263235;0.313207
0.26571;0.317151
0.664403;0.560908
0.661683;0.560103
0.656227;0.558
0.661491;0.55924
0.666635;0.560306
0.670162;0.560941
0.671542;0.561136
0.671331;0.561105
0.670799;0.561058
0.676568;0.561017
0.694168;0.559544
0.703078;0.558295
0.74442;0.548907
0.995077;0.553167
1.00152;0.554357
1.00271;0.554605
0.994249;0.5524
0.989944;0.55114
0.988767;0.550797
0.997931;0.554389
1.00622;0.558062
1.0223;0.566137
1.02985;0.570527
1.32908;0.747128
