-0.000417262;0.00350247
-0.000391722;0.00767265
-0.000307179;0.0123826
-0.000194581;0.0168197
0.000372721;0.025661
0.000792352;0.0300687
0.00129452;0.0344675
0.00263197;0.0432207
0.00343664;0.0475632
0.00432494;0.0519233
0.00642253;0.0605843
0.0075962;0.0648886
0.0102098;0.073502
0.0116452;0.0777724
0.0147489;0.0862971
0.0164199;0.0905262
0.0200272;0.0989454
0.0218918;0.103146
0.0238439;0.107336
0.0279132;0.115684
0.0300215;0.11982
0.0344592;0.127998
0.0367623;0.132043
0.0391183;0.136075
0.043978;0.144078
0.046475;0.148061
0.0516144;0.155944
0.054248;0.159865
0.0596537;0.167673
0.0624068;0.171535
0.068018;0.179214
0.0708593;0.18302
0.076677;0.190589
0.0796289;0.194354
0.0826118;0.198092
0.0886632;0.205552
0.0917301;0.209241
0.0979676;0.216583
0.101114;0.22022
0.107499;0.227456
0.110723;0.231053
0.113958;0.234639
0.120508;0.241791
0.123821;0.245328
0.130502;0.252363
0.133884;0.25587
0.137281;0.259342
0.144139;0.266288
0.147582;0.26973
0.15104;0.273164
0.15802;0.279971
0.161524;0.283365
0.168594;0.290134
0.172145;0.293497
0.179288;0.300191
0.182881;0.303526
0.18648;0.306829
0.193721;0.313433
0.197359;0.316718
0.204689;0.323274
0.208375;0.326547
0.212064;0.32978
0.219484;0.336217
0.223207;0.339423
0.226936;0.342632
0.234425;0.349005
0.238188;0.352166
0.241951;0.35533
0.249511;0.361628
0.253305;0.364776
0.260911;0.371017
0.264733;0.374119
0.272391;0.3803
0.276244;0.383377
0.280095;0.386442
0.287837;0.392543
0.291732;0.395562
0.295634;0.398579
0.303417;0.404637
0.307328;0.407642
0.315152;0.413635
0.319072;0.416619
0.326944;0.422571
0.330899;0.42553
0.334845;0.428477
0.342778;0.434338
0.346762;0.437268
0.350742;0.440188
0.358717;0.445984
0.362717;0.448877
0.370728;0.454625
0.378765;0.460344
0.382802;0.463199
0.390888;0.468872
0.394938;0.471711
0.403019;0.477324
0.407068;0.480132
0.415211;0.485686
0.419276;0.488473
0.427438;0.494035
0.435619;0.499517
0.43972;0.50225
0.447952;0.507691
0.456214;0.513087
0.460349;0.515782
0.464478;0.518473
0.472803;0.523849
0.481092;0.529187
0.485258;0.53184
0.493616;0.537096
0.497798;0.539704
0.506188;0.544889
0.514593;0.55006
0.518792;0.552625
0.527243;0.55774
0.531462;0.560282
0.539941;0.565349
0.548416;0.570382
0.552666;0.572881
0.561181;0.577842
0.569723;0.582785
0.574009;0.585245
0.582593;0.590125
0.586888;0.592551
0.595479;0.597386
0.599793;0.599798
0.608422;0.604588
0.612739;0.606968
0.62141;0.611703
0.63009;0.616388
0.634425;0.61873
0.64267;0.623134
0.646584;0.625233
0.65423;0.62935
0.658005;0.631402
0.665012;0.635212
0.668425;0.637081
0.669059;0.6375
0.665007;0.635018
0.656974;0.629946
0.65299;0.627363
0.645105;0.622065
0.641184;0.61937
0.63343;0.613867
0.625771;0.608243
0.621991;0.605389
0.614463;0.599573
0.610742;0.596626
0.603363;0.590642
0.59972;0.587573
0.592493;0.58142
0.588921;0.578279
0.581879;0.571944
0.578384;0.568732
0.571478;0.562202
0.568079;0.558888
0.564687;0.555547
0.557996;0.548799
0.554707;0.54537
0.548189;0.538444
0.541794;0.531386
0.53864;0.527829
0.532447;0.520617
0.529382;0.516955
0.523371;0.509599
0.52042;0.505882
0.514602;0.498363
0.508914;0.490742
0.50612;0.486892
0.500847;0.479437
0.502857;0.482423
0.508269;0.490346
0.513735;0.498082
0.516512;0.501903
0.522172;0.509442
0.525048;0.513187
0.530922;0.520533
0.533908;0.524155
0.539985;0.531321
0.546239;0.538381
0.549426;0.541867
0.555906;0.548777
0.559203;0.552177
0.56589;0.558898
0.569269;0.562219
0.576145;0.568807
0.579632;0.572065
0.586685;0.578471
0.593857;0.584781
0.597479;0.587894
0.601115;0.590988
0.608491;0.597088
0.615991;0.603071
0.619761;0.606019
0.627387;0.611875
0.631237;0.61476
0.63899;0.620471
0.642904;0.623281
0.650816;0.628871
0.654817;0.631659
0.662533;0.637073
0.66992;0.642512
0.673518;0.645298
0.680481;0.650998
0.683865;0.653939
0.690563;0.660066
0.69385;0.663209
0.700491;0.669838
0.707279;0.67682
0.710679;0.680361
0.717524;0.687508
0.720954;0.691058
0.727738;0.697979
0.734396;0.704589
0.737728;0.707803
0.741115;0.710954
0.748035;0.717162
0.75514;0.723248
0.75875;0.726212
0.762359;0.729106
0.769729;0.734816
0.773478;0.737616
0.78113;0.743105
0.784999;0.745814
0.792818;0.751084
0.800798;0.75624
0.804811;0.75877
0.812926;0.763738
0.821127;0.76856
0.82526;0.770933
0.833599;0.775581
0.837794;0.777843
0.846263;0.782311
0.850523;0.784484
0.85909;0.788746
0.867727;0.792879
0.872073;0.794922
0.880829;0.798887
0.885214;0.800817
0.89357;0.804414
0.898675;0.806545
0.898892;0.806602
0.901323;0.807552
0.899831;0.806966
0.895456;0.805384
0.892632;0.804356
0.888881;0.802979
0.887819;0.802608
0.88889;0.802963
0.890059;0.803338
0.891674;0.803854
0.895038;0.804869
0.897041;0.805454
0.901992;0.806852
0.900543;0.806428
0.89527;0.805043
0.891403;0.804056
0.884825;0.802456
0.881581;0.801771
0.881677;0.801783
0.884079;0.802291
0.885477;0.802579
0.887125;0.802893
0.887482;0.802955
0.887661;0.802988
0.887266;0.802925
0.886241;0.80277
0.88533;0.802645
0.885109;0.802614
0.885141;0.802624
0.885278;0.802643
0.885554;0.802673
0.885653;0.802682
0.885716;0.802689
0.885713;0.802685
0.885707;0.80268
0.88569;0.802676
0.885704;0.802673
0.885791;0.802674
0.885862;0.802684
0.886035;0.802699
0.8862;0.802722
0.886305;0.802727
0.886522;0.802724
0.886629;0.802721
0.8869;0.802717
0.887046;0.802703
0.887379;0.802684
0.887562;0.802669
0.888009;0.802644
0.888242;0.802629
0.888713;0.802588
0.88925;0.802522
0.88954;0.802494
0.890177;0.802405
0.890502;0.802363
0.891251;0.802231
0.891636;0.802162
0.892564;0.801998
0.893024;0.801909
0.894034;0.801695
0.894575;0.80156
0.895952;0.801218
0.897485;0.800808
0.898311;0.800575
0.899277;0.800286
0.901416;0.799619
0.90252;0.799255
0.905152;0.798318
0.908054;0.797226
0.909853;0.796496
0.915352;0.794116
0.918431;0.792715
0.926507;0.788737
0.93446;0.784485
0.938367;0.782241
0.94618;0.777497
0.950041;0.775038
0.95802;0.76976
0.966262;0.764201
0.970417;0.761404
0.97859;0.755947
0.982673;0.753255
0.990644;0.748111
0.994665;0.745607
1.00274;0.740717
1.00682;0.738325
1.01507;0.733635
1.0234;0.729107
1.02761;0.726886
1.03605;0.722578
1.04029;0.720483
1.04888;0.716364
1.0532;0.714368
1.06189;0.710473
1.06627;0.708582
1.07508;0.704892
1.07951;0.703099
1.08395;0.701337
1.09284;0.697943
1.1016;0.6948
1.10597;0.693322
1.11471;0.690577
1.11912;0.689302
1.1281;0.686892
1.13263;0.685761
1.14191;0.683589
1.14659;0.682547
1.15603;0.680546
1.16077;0.679581
1.17026;0.677743
1.175;0.67686
1.18453;0.675169
1.18931;0.67436
1.19888;0.672811
1.20847;0.671362
1.21327;0.670676
1.22287;0.66938
1.22768;0.66877
1.2373;0.667637
1.24211;0.667105
1.25175;0.666114
1.25658;0.665649
1.26623;0.664804
1.27107;0.664415
1.28073;0.663711
1.29039;0.663098
1.29524;0.662834
1.3049;0.662373
1.30974;0.662184
1.31943;0.661879
1.32426;0.661761
1.33394;0.661618
1.33879;0.66158
1.34845;0.661605
1.35329;0.661644
1.36298;0.661816
1.37266;0.662095
1.3775;0.662255
1.38685;0.662634
1.39146;0.662864
1.4003;0.663337
1.40455;0.663602
1.41261;0.66408
1.41644;0.664341
1.4239;0.664868
1.43076;0.665387
1.43399;0.665628
1.44;0.666143
1.44283;0.666387
1.44797;0.666829
1.45045;0.667054
1.45512;0.667487
1.45731;0.667693
1.46144;0.668116
1.46351;0.668325
1.46729;0.668673
1.47073;0.669004
1.47233;0.669145
1.47545;0.669456
1.47825;0.669758
1.47957;0.669885
1.48193;0.670132
1.48306;0.670251
1.48511;0.670465
1.48609;0.670565
1.48799;0.670767
1.48887;0.670864
1.49054;0.671041
1.49133;0.671128
1.49275;0.671288
1.49345;0.67136
1.49476;0.671506
1.49534;0.671583
1.49642;0.671735
1.49693;0.671808
1.49791;0.671928
1.49881;0.672055
1.49927;0.672119
1.50013;0.672216
1.50055;0.672263
1.50129;0.672354
1.50198;0.672443
1.50231;0.672482
1.50293;0.672556
1.50325;0.672595
1.5038;0.672662
1.50433;0.672733
1.50462;0.672763
1.50513;0.672815
1.50537;0.672848
1.50578;0.672905
1.50596;0.672926
1.50633;0.672946
1.50648;0.672966
1.50671;0.672991
1.50683;0.673005
1.5071;0.673027
1.50723;0.673039
1.50733;0.673059
1.50756;0.673084
1.50767;0.673096
1.50786;0.673122
1.50796;0.673135
1.50808;0.673153
1.50824;0.673173
1.50832;0.673195
1.50841;0.673203
1.50856;0.673224
1.50864;0.673244
1.5088;0.673257
1.50887;0.673265
1.50891;0.673263
1.50903;0.673264
1.50907;0.673262
1.50913;0.673261
1.50917;0.673262
1.50919;0.673267
1.50923;0.673281
1.50926;0.673286
1.50929;0.673288
1.50934;0.673296
1.50934;0.673296
1.50932;0.673294
1.50934;0.673298
1.50937;0.673302
1.50939;0.673305
1.50941;0.673306
1.50943;0.67332
1.50944;0.673316
1.50945;0.673319
1.5095;0.673326
1.50951;0.673328
1.5095;0.673335
1.50952;0.673344
1.50955;0.673357
1.50957;0.673362
1.50957;0.673363
1.50956;0.673365
1.50956;0.673369
1.50956;0.67337
1.50955;0.673378
1.50955;0.67339
1.50956;0.673386
1.50955;0.673386
1.50954;0.673383
1.50952;0.673379
1.5095;0.673382
1.50949;0.673385
1.50949;0.67338
1.50948;0.673379
1.50945;0.67338
1.50945;0.673377
1.50945;0.673373
1.50939;0.673361
1.50939;0.673362
1.50934;0.67336
1.50934;0.673361
1.50933;0.673368
1.50936;0.673378
1.50936;0.673378
1.50934;0.673376
1.50933;0.673379
1.5093;0.673384
1.50929;0.673388
1.50926;0.673369
1.50923;0.673362
1.50922;0.673353
1.50917;0.673358
1.50915;0.673356
1.50912;0.673359
1.50912;0.673363
1.50911;0.673362
1.50907;0.673353
1.50905;0.673327
1.50901;0.673322
1.50898;0.673319
1.50894;0.673312
1.50893;0.673305
1.5089;0.6733
1.50889;0.673294
1.50887;0.673292
1.50881;0.673298
1.50879;0.673298
1.50877;0.673294
1.50875;0.673284
1.50875;0.67327
1.50871;0.673248
1.50869;0.673249
1.50868;0.673246
1.50866;0.673229
1.50863;0.673226
1.50859;0.67322
1.50854;0.673207
1.50852;0.673206
1.50848;0.673198
1.50845;0.673201
1.50844;0.673194
1.50844;0.673183
1.50844;0.673176
1.50845;0.673172
1.50846;0.673165
1.50848;0.673159
1.50847;0.673152
1.50846;0.673156
1.50842;0.673159
1.50841;0.673163
1.50838;0.673171
1.50835;0.673167
1.50832;0.673165
1.50829;0.673152
1.50828;0.67315
1.50829;0.673149
1.50829;0.673135
1.50829;0.67313
1.50827;0.673128
1.50824;0.673126
1.50824;0.673114
1.50819;0.673112
1.50816;0.673108
1.50812;0.673105
1.50809;0.673105
1.50807;0.673104
1.50803;0.673109
1.50799;0.673096
1.50797;0.673087
1.50793;0.673069
1.50789;0.67306
1.50787;0.673064
1.5078;0.673047
1.50777;0.673038
1.50777;0.673027
1.5078;0.673011
1.5078;0.673013
1.50779;0.673028
1.50777;0.673028
1.50775;0.673029
1.5077;0.673027
1.50768;0.673028
1.50769;0.673025
1.50768;0.673008
1.50765;0.673006
1.50761;0.673002
1.50754;0.672988
1.50752;0.672989
1.5075;0.672988
1.50744;0.672985
1.5074;0.672987
1.5074;0.672971
1.50734;0.672976
1.50732;0.672972
1.50729;0.672969
1.50724;0.672971
1.5072;0.672961
1.50713;0.672957
1.50712;0.67295
1.50712;0.672941
1.50708;0.672918
1.50705;0.672911
1.507;0.672912
1.50698;0.672906
1.50694;0.67291
1.50691;0.672918
1.50684;0.67291
1.50678;0.672904
1.50673;0.672918
1.50671;0.672921
1.50668;0.672921
1.50664;0.672923
1.50665;0.672917
1.50667;0.672918
1.50668;0.672916
1.50669;0.672917
1.50668;0.672917
1.50669;0.672937
1.50669;0.672953
1.50666;0.672963
1.50663;0.672955
1.50656;0.672959
1.50653;0.672948
1.5065;0.672951
1.50642;0.672945
1.50637;0.672949
1.50629;0.67295
1.50626;0.672941
1.50619;0.672919
1.50617;0.672923
1.50616;0.672918
1.50609;0.672912
1.50604;0.672908
1.50592;0.672894
1.50588;0.672892
1.50576;0.672871
1.50569;0.672867
1.50562;0.672863
1.50557;0.672862
1.50554;0.672855
1.50547;0.672847
1.50544;0.672848
1.50533;0.672829
1.50529;0.672832
1.5052;0.67283
1.50516;0.67283
1.50512;0.67283
1.50502;0.672825
1.50499;0.672834
