69612
76880
77141
70722
77116
71691
60737
61959
72118
66239
66681
73811
74015
67044
87098
65698
74361
73405
68162
68724
72441
71841
76117
68265
74045
53686
73368
70147
77131
69007
79722
68266
70225
77320
66309
69167
75782
76750
98853
74620
80228
69334
63125
75273
74644
67139
79090
89624
86002
72539
74944
71523
70377
81790
69241
69570
74418
70896
91528
61178
61527
61252
67494
68999
76717
68223
81602
69438
80928
80799
90895
84354
77625
77688
70266
70581
82919
80938
97181
57755
89184
80243
81516
82608
68373
78943
79595
65474
90282
71448
79343
82079
68436
64526
78296
75870
77897
80448
92999
103220
90292
83774
59857
94699
66434
84695
66226
67751
83102
58691
70163
73383
85833
81106
77482
111487
89892
69339
74644
79575
76393
79154
86875
75179
69583
61191
63956
75931
71545
76742
68033
67798
76607
84466
64327
71261
86938
84462
89508
88723
78663
77552
63981
101645
68041
60719
59738
63203
64309
58951
66453
68873
59074
70666
65463
64686
100787
82277
88293
63953
82793
70288
72074
58662
73683
73663
66396
70922
59635
78137
67864
66467
87951
68986
62666
72645
78038
70168
69314
64292
83047
60135
71085
65501
61307
65204
74481
65586
69886
67477
67358
65660
59346
60381
63727
63275
71400
58216
61920
57306
66062
75849
65560
65830
78477
62214
63184
61305
65891
62351
59879
57924
57582
59734
59917
57663
57865
65409
59208
65791
70532
67511
58328
57912
70615
72420
74932
57497
60492
65428
65483
64211
61304
62786
74184
62847
64641
68452
73088
58676
70530
68044
69500
58092
62909
64574
60906
59759
64830
61244
68701
62406
70319
68930
74701
63708
63014
63868
64477
65797
93052
73990
67173
70860
61211
59119
64479
62567
71267
66695
59395
61626
73613
78268
63364
62241
57476
65836
65162
60294
72902
64145
62940
76370
70391
65159
65471
64439
61006
61859
58097
59618
66580
61346
58876
62026
78342
63161
59933
60070
59936
67677
68478
64250
69721
61706
67239
69164
76368
62475
62670
69727
59647
62839
66191
60965
60247
70225
61472
67944
61241
62423
67832
59689
61111
65337
65831
61813
62627
63417
60928
64270
92179
62879
62841
70832
63094
60526
70731
63910
64403
61383
60072
60331
63117
68370
60946
72230
66833
62131
70439
59100
69865
58007
85862
78927
72289
62407
70748
64527
67493
64051
59172
62104
62987
73748
75729
75679
64939
59082
80300
61699
66120
68427
61229
70800
64555
73109
66987
60166
79251
72429
68417
65463
62908
60671
59025
67463
64390
68403
67930
66730
69956
69458
58147
59591
68732
59071
61795
61987
76010
76597
61168
60643
66810
66171
65623
65359
60449
72921
59780
60107
63656
56952
66919
58308
57085
58713
66912
59804
57286
59731
75120
65792
57835
57691
59855
61248
61428
73956
61965
64427
58203
58419
59771
57549
64262
59654
59863
102482
58142
72838
60009
61385
65792
60091
61348
59243
58663
59828
60212
65466
69465
68106
74114
67222
73678
69644
65154
74538
71777
66126
67703
64783
65030
66048
69576
70935
66831
67403
73115
73721
70393
72429
76384
65598
68843
67322
62932
64371
71287
64088
66038
79898
64624
68737
69634
63222
71850
68013
67634
79103
72479
72446
72609
68519
63501
73685
71665
85778
94695
75669
71618
68786
72142
66269
66561
76446
76328
76040
69068
84905
73811
66801
65807
73514
66357
66514
74708
67997
75723
74985
75007
73375
79000
62318
67320
68059
66780
77978
74200
64521
85069
65842
73807
75628
72224
80118
67582
72455
71277
73201
69293
76196
66271
62005
68607
87935
68551
93654
63161
63720
73572
65637
65763
64737
69038
70559
66752
69282
74751
73745
65262
71542
66875
65388
63227
78452
58036
66206
62749
73572
65572
66690
65874
70967
67090
68869
63261
60262
66182
68639
63523
63131
51572
60940
61409
65878
61640
72913
69765
86438
69785
74212
61981
65597
71450
61614
66331
70035
64307
68184
70762
71201
75274
64670
67805
70038
69712
65702
57158
67306
65098
64925
66476
60719
85708
66604
63313
62638
76010
67352
64597
62899
66065
72485
67628
65009
63848
69232
62868
83186
70702
73639
67239
64554
73696
66164
74063
65646
68539
70208
66540
63975
64825
78708
62065
70769
69383
65625
70902
75455
63138
58718
61109
74849
66491
64632
66015
70541
66935
74004
79503
66466
54935
63810
65214
76326
65827
77564
75819
66430
66518
62912
62347
72450
63612
65975
77603
70246
68132
74415
66741
69631
65644
69699
66462
64034
73234
67988
67796
65488
83787
60185
71281
80574
70680
72897
65519
81132
67551
61039
68197
65574
65032
75112
63749
63204
62859
62681
63010
69238
61338
70348
74849
68830
58490
68844
74882
64922
66112
68817
66772
77572
73731
62292
63026
73654
71713
66179
87398
64034
64179
74039
65193
69565
77295
69464
71239
69811
76720
66142
65311
61447
65901
67048
71782
64140
69454
73113
62482
73209
67391
71816
64644
65091
81403
64416
68978
64930
79134
64044
62533
71355
71654
70726
64214
70478
63330
70660
69775
75304
72171
68858
70471
63123
63466
66917
67711
60650
61743
79677
69547
60951
59799
64474
59431
68484
63350
61207
61498
67801
64437
60041
59203
66191
66231
62283
59742
66420
64610
60757
58627
59531
60670
74360
67196
63511
63126
69089
67071
61098
60369
59979
63963
60167
66411
61485
66601
61865
66385
59258
65075
71368
64786
66632
66889
73347
59547
68154
64352
72314
67891
66514
69215
60226
65830
65296
59145
63484
63503
58980
60965
70917
71736
60046
61738
69982
65208
59287
65359
67162
58719
68607
63541
66162
58912
70415
60904
66055
75751
76164
64264
69375
64152
68247
