24995
19399
18595
18028
65285
16038
37080
23144
144414
23804
18778
32060
24134
26783
26460
22603
58647
18616
33826
17393
24879
20418
23790
19783
24244
19068
25341
15783
18757
45223
26986
27300
41136
24629
19984
64826
58671
32880
183447
18452
23855
28573
42138
44118
20172
83822
29615
26721
20630
54390
50827
19448
28666
28839
119064
18659
25018
61001
26447
23510
19320
95926
265770
28061
22121
16068
26344
20848
32120
27026
24558
25472
28787
27589
24368
158742
33848
40085
71022
21635
25905
31290
24054
25615
24272
24963
191647
22468
28927
27316
46159
48458
133889
40113
23784
35056
73506
20092
312470
22836
84835
37733
20222
26632
23165
193432
18763
69331
27907
24486
24490
24072
25775
20014
102102
31341
19766
25582
24335
28059
25825
19389
26107
17921
90115
72512
23542
19396
23430
36563
21642
20028
19467
57472
211749
20245
23389
21627
82913
12920
17895
61623
19765
21927
49129
21915
42522
16821
15074
13531
14413
23953
15893
20950
13926
14952
43278
17406
20745
17204
17723
24507
31083
13732
37696
22064
13778
18148
22326
28524
19895
19995
20008
16154
17779
16257
14977
156912
18571
19274
95673
13671
19474
45723
86241
383328
19588
32665
24789
23308
23031
23685
34913
35294
33186
30499
25595
32356
31447
32835
34220
85608
24972
43935
35643
21516
59647
101869
32808
27586
26982
49330
36818
26759
22445
26750
27064
24100
29248
24433
27976
29121
55482
24408
26221
25221
21830
32551
20205
21703
26093
25748
25725
21443
25943
18134
21185
16811
18314
24212
20052
23789
22265
21792
28709
17145
24681
21865
17339
19056
22182
21223
20961
20165
24787
20777
21057
23931
21003
17134
20012
21080
23794
19515
23933
22840
22035
31026
23883
19724
20563
20996
22020
22297
19694
21602
24476
22003
23740
22369
19591
23987
22456
22179
22572
22505
19836
20912
24178
23012
23470
18538
21000
18149
19674
22804
21598
22237
24025
21099
19554
21902
18165
20194
19503
28928
23867
19478
20458
25076
17115
18142
16934
17772
20950
24196
20912
31487
31781
20959
23679
21050
18988
19792
17470
26066
23247
22083
17180
19383
16777
16733
21782
20307
19480
17774
23276
18740
19057
23580
17761
25159
23414
19708
16740
18309
13876
13189
15269
13326
13727
12246
18169
10775
16661
15560
12144
12694
12404
12382
11038
12323
12405
12024
12446
12578
12433
13857
13860
15105
21665
12271
11027
14124
13514
15513
13585
12581
14062
16230
16821
15512
14661
15779
16381
16245
15489
15477
16514
17467
12510
23619
16480
14507
25525
25951
20563
37378
72849
30605
48674
38196
38141
30882
38623
38596
40067
35558
63095
119841
20582
26870
25888
103256
48741
45588
29704
24580
41317
20899
45908
36570
90429
51029
20950
34511
24362
139838
41709
40730
43976
40622
21507
53066
77643
73204
22154
138778
36596
36359
21020
33851
37759
16422
152400
109412
98334
31959
25484
22568
46936
25302
98626
22563
34668
26642
22527
21661
56199
107768
22658
39584
38330
24958
25455
1505357
28250
24276
42908
25926
25987
38269
41339
107100
24279
23506
17844
21074
25880
29259
19335
36281
22539
156687
30366
17761
89771
22583
132656
19651
31202
30646
20928
29108
21470
41899
58025
46900
46493
73369
70749
29697
34297
29707
51957
39317
233402
28067
30201
29472
30018
29054
24424
26742
25306
25375
25596
24978
27850
28671
43772
28148
30324
30008
27262
30840
34389
40020
31076
29306
31308
26872
33245
26252
25402
27146
28194
27766
23745
22262
21477
26552
24824
20999
28214
19630
25305
27717
23708
39925
15552
15009
14741
23574
24961
24409
20773
17397
27768
17461
19032
29660
22568
23743
24311
23784
25487
23395
22996
34498
26931
24935
23478
23705
37714
23172
24173
30876
27832
26748
26716
27990
27669
26998
24846
25039
22926
28443
28759
24206
24201
22226
24018
28615
22186
22508
26689
22377
23762
27694
23604
22084
21398
26934
23814
24226
25376
24610
22149
24992
25021
21063
28937
23977
27420
31285
25864
22157
24607
25298
23768
24480
28930
28894
31958
26227
49607
30489
43698
27903
40631
25848
20928
22199
14239
22658
16719
21538
17299
14904
17177
14600
13153
13584
13132
16745
12313
14279
13873
14987
15437
12432
12202
12561
10951
11072
11295
13536
16014
15129
17843
15523
17977
14514
12291
15033
10343
15444
16394
15174
15343
15626
18877
18767
25934
195983
25302
58998
26719
36878
24704
20081
29400
66227
174238
29192
17524
23477
45802
19794
55751
36675
68819
18714
33879
37654
33019
42240
88021
39157
61717
79532
24174
21941
28779
20164
25972
276416
19110
12282
34314
21521
31862
16219
75484
34261
116790
77969
42067
31414
68528
14044
30836
47959
69258
43777
16738
21536
70584
28721
23620
20639
101919
28900
22147
23463
24659
32425
36638
22315
104108
21466
36430
18935
19420
20707
38216
16296
46361
31348
21650
21798
21193
88179
214596
23742
26910
33804
23463
22893
64114
16768
21991
42959
25538
20711
20894
20147
20918
19738
21926
12031
16157
16149
18038
15484
16636
105624
114651
19209
89360
21958
28771
35712
22707
22549
25646
168748
30074
48721
51795
47343
42251
58902
71639
43105
48527
100849
80198
62756
95715
27959
26999
115005
48404
28752
41525
156672
150575
22904
47683
110664
25168
75991
28258
49774
93805
54842
21289
42051
44577
21508
32976
53345
60091
40557
28815
21626
16571
72352
19130
165719
43033
109139
18471
48691
32368
100721
21070
21336
21666
20065
21723
32950
71969
49939
22158
21786
22115
20273
21515
104029
28362
28929
25116
50990
26948
35806
183172
51649
62241
20211
56394
56333
46547
127127
91475
55561
145305
43511
36186
46064
14638
15348
87574
176250
49169
47393
43538
33911
38954
47934
23552
25871
40285
53110
67592
34776
23853
21103
224521
27990
16144
48214
214896
178606
58547
45748
20063
28300
28726
60114
65128
17571
31722
21451
91067
71831
16029
33084
21589
32193
71275
18872
18468
47507
26025
27368
26686
21094
27773
21836
47467
25603
22368
17677
59400
21394
22874
17856
28315
42699
60153
23703
26245
37768
26080
25786
25289
23595
25306
25452
25663
26571
25782
30257
25100
26725
26500
25814
32702
25470
25722
28793
25448
29664
35026
32871
21899
38339
17371
16228
22842
21988
16589
18121
24580
19870
19524
17629
18616
18725
19368
18925
19609
18856
19046
18796
19056
19304
19239
19211
18998
19327
19626
19349
18879
18842
18814
19426
19616
19223
20014
19365
19754
19813
19082
20245
17278
49213
22131
21083
28437
16280
20043
74269
154551
15521
21211
21311
28231
20845
24546
22369
21117
19875
20076
20177
22489
20207
19929
19712
20273
20266
20080
20657
20540
20873
21123
20590
20195
20626
20430
21233
22730
21464
19887
20603
31329
24757
24297
20800
19997
20290
20220
19973
19703
20408
21155
21759
25088
24600
22319
20275
24354
20822
27923
21887
21508
21356
21184
21427
21367
21685
22211
21253
21421
22120
