0.000162873;0.502414
0.000204049;0.500743
9.81749e-05;0.490182
8.52039e-05;0.488053
0.0256055;0.533994
1.39101;0.480804
1.45645;0.455775
1.46196;0.494569
1.46121;0.501267
1.46126;0.502702
1.46128;0.502123
1.46123;0.500559
1.46118;0.50224
0.00012081;0.502374
0.000123027;0.502398
0.00034006;0.498047
0.000234757;0.480295
-4.73383e-05;0.476294
0.000666531;0.480006
0.00276711;0.486753
1.33289;0.494649
1.35174;0.489442
1.36112;0.486726
1.3798;0.481079
1.46197;0.493426
1.46181;0.494258
1.46137;0.497646
1.46113;0.500432
1.46103;0.503151
1.46092;0.504118
0.000121914;0.502331
0.000119356;0.502337
0.000272533;0.493531
-2.24778e-05;0.479969
0.000636697;0.482651
0.00586038;0.499968
0.0176839;0.518397
1.46027;0.452281
1.46058;0.50137
1.4607;0.500719
1.46064;0.5013
1.46058;0.503319
1.46065;0.502772
1.46063;0.503735
1.46038;0.505159
1.46048;0.503242
1.46053;0.502516
1.46057;0.503652
1.46066;0.505441
1.46129;0.502373
1.46122;0.504897
1.46119;0.503591
1.46173;0.502353
1.46195;0.504283
1.46191;0.504445
1.4619;0.504041
0.000115014;0.502345
0.000116983;0.502333
0.000150291;0.497926
-0.000178286;0.480111
0.000434485;0.482361
0.00586579;0.499272
0.00932215;0.505645
0.0133669;0.511688
1.31311;0.501922
1.36488;0.487226
1.37423;0.484326
1.45806;0.453752
1.46456;0.481662
1.46189;0.493813
1.4609;0.502936
1.46098;0.501842
1.46099;0.502865
1.46098;0.503526
1.46108;0.502862
0.000119295;0.502349
0.000161902;0.49798
8.70932e-05;0.484416
6.44965e-05;0.48275
0.00195393;0.492932
0.00865995;0.509241
0.0256163;0.529524
0.0489628;0.545187
1.46882;0.470607
1.46225;0.489619
1.45747;0.524268
1.46232;0.502983
