0.000111512;0.00322805
0.000219105;0.00771042
0.000531916;0.0168528
0.00119259;0.0256988
0.0021959;0.0344885
0.00358204;0.0432545
0.00534871;0.0519553
0.00748513;0.0606124
0.00998143;0.0692208
0.0128359;0.0777728
0.0159733;0.0862684
0.0194276;0.094645
0.0232088;0.103014
0.0272165;0.111317
0.0314506;0.119537
0.0359527;0.12765
0.0406629;0.135676
0.0455664;0.143648
0.0506608;0.151536
0.0559523;0.159339
0.0614045;0.167086
0.0698847;0.178545
0.0757084;0.186083
0.0816698;0.193581
0.0877493;0.200976
0.0939669;0.208324
0.100266;0.215607
0.103452;0.21922
0.113174;0.229991
0.119754;0.237083
0.12307;0.240612
0.129754;0.247657
0.13655;0.254588
0.143373;0.261499
0.150297;0.268354
0.157289;0.275169
0.167907;0.285261
0.175037;0.291926
0.182247;0.298554
0.189511;0.305127
0.1968;0.311649
0.204166;0.318122
0.207846;0.321358
0.215254;0.327796
0.222726;0.3342
0.233962;0.343728
0.241516;0.350049
0.249084;0.356311
0.256709;0.362546
0.264366;0.368773
0.272051;0.374956
0.279747;0.381084
0.287484;0.387203
0.295242;0.393285
0.303024;0.399325
0.310847;0.405345
0.318687;0.41132
0.326563;0.417299
0.334453;0.423219
0.346348;0.432045
0.350323;0.434963
0.362307;0.443665
0.370323;0.449453
0.374333;0.452339
0.386412;0.460912
0.390434;0.463746
0.402536;0.472223
0.410643;0.477859
0.418779;0.483449
0.426944;0.489015
0.435115;0.494572
0.443313;0.500076
0.45152;0.50555
0.459745;0.510982
0.467993;0.516372
0.476278;0.521743
0.484585;0.527064
0.492931;0.532359
0.501277;0.537629
0.505458;0.540265
0.518008;0.548071
0.522202;0.550667
0.534831;0.558386
0.543265;0.563484
0.551728;0.568534
0.560222;0.573558
0.568739;0.578543
0.577291;0.583514
0.585829;0.588424
0.59442;0.593291
0.603008;0.598128
0.61161;0.602944
0.620242;0.607725
0.628902;0.612478
0.637565;0.617205
0.646281;0.621831
0.654987;0.626464
0.663693;0.631052
0.672471;0.635606
0.681226;0.640128
0.690003;0.644599
0.703183;0.651261
0.712014;0.655632
0.720859;0.659972
0.729728;0.664259
0.73862;0.668512
0.747518;0.672741
0.75644;0.676925
0.765376;0.68107
0.774345;0.685157
0.783323;0.689184
0.792324;0.693181
0.801348;0.697121
0.814948;0.702983
0.824012;0.706844
0.833085;0.710666
0.84218;0.714417
0.851284;0.718135
0.860423;0.721755
0.86955;0.725367
0.878706;0.72893
0.887878;0.732453
0.897056;0.735924
0.906263;0.739353
0.915483;0.742705
0.924725;0.746008
0.933994;0.749269
0.94327;0.752511
0.952589;0.755613
0.961906;0.75869
0.971214;0.761728
0.980538;0.7647
0.994573;0.769064
1.00395;0.771887
1.01335;0.774644
1.02275;0.777349
1.03218;0.779991
1.04165;0.78257
1.04639;0.783836
1.06066;0.787568
1.0654;0.788772
1.07492;0.791152
1.08446;0.793476
1.09401;0.79573
1.10358;0.79794
1.11313;0.800084
1.12751;0.803174
1.1371;0.805143
1.14668;0.807107
1.15629;0.808942
1.16588;0.810671
1.17548;0.812323
1.1851;0.813898
1.19474;0.815402
1.20438;0.816825
1.21404;0.81818
1.22368;0.819431
1.23334;0.820604
1.243;0.821713
1.25269;0.822714
1.26239;0.823648
1.27208;0.824489
1.28177;0.825218
1.29148;0.825858
1.3012;0.8264
1.31093;0.826855
1.32066;0.827258
1.33039;0.827534
1.34012;0.827734
1.35472;0.827877
1.36444;0.827864
1.37415;0.82777
1.38367;0.827594
1.39282;0.82736
1.40152;0.827075
1.40969;0.826764
1.41735;0.82644
1.42446;0.8261
1.43106;0.825744
1.43717;0.825406
1.44279;0.825074
1.44798;0.824761
1.45278;0.824465
1.45721;0.824185
1.46127;0.823906
1.46497;0.823635
1.46839;0.823382
1.47154;0.823163
1.47444;0.822945
1.47708;0.82275
1.47952;0.822557
1.48172;0.822389
1.48371;0.822249
1.48555;0.822108
1.48724;0.821977
1.48877;0.821858
1.49018;0.821753
1.49152;0.821645
1.49278;0.821552
1.4939;0.821464
1.49489;0.821382
1.49583;0.821302
1.4967;0.821226
1.49753;0.821153
1.49831;0.821087
1.499;0.821026
1.49959;0.820948
1.50012;0.820865
1.50061;0.820794
1.50112;0.82075
1.50162;0.820716
1.50201;0.820675
1.50237;0.820625
1.50269;0.820574
1.50299;0.820528
1.50326;0.820492
1.50351;0.820457
1.50383;0.820426
1.50413;0.820395
1.50459;0.820359
1.50482;0.820349
1.50502;0.820328
1.5052;0.820305
1.50534;0.820271
1.50548;0.820254
1.5056;0.820233
1.50577;0.820223
1.50588;0.820216
1.506;0.820209
1.50613;0.820198
1.50625;0.820187
1.50637;0.82018
1.5065;0.82016
1.50661;0.820132
1.50667;0.820128
1.50675;0.820136
1.50675;0.820133
1.50677;0.820127
1.50677;0.820108
1.50677;0.820096
1.50677;0.820076
1.50681;0.820071
1.5068;0.820054
1.5068;0.820046
1.50685;0.820049
1.5069;0.820034
1.50692;0.820038
1.50693;0.820037
1.50699;0.820039
1.50704;0.820032
1.50707;0.820029
1.50709;0.820023
1.50708;0.820023
1.50709;0.820031
1.50714;0.820009
1.50714;0.82001
1.50714;0.82
1.50713;0.819997
1.50704;0.819986
1.50701;0.81998
1.50698;0.819962
1.50699;0.819948
1.50701;0.819939
1.50697;0.819926
1.50693;0.819911
1.50691;0.8199
1.50691;0.819902
1.50688;0.819901
1.50686;0.819898
1.50686;0.819883
1.50684;0.819884
1.50687;0.819871
1.50686;0.819881
1.50684;0.819885
1.50684;0.819887
1.50684;0.819917
1.50685;0.819917
1.50687;0.819892
1.50685;0.819888
1.50679;0.819881
1.50675;0.819877
1.5067;0.819879
1.50667;0.819876
1.5067;0.819867
1.50666;0.819873
1.50662;0.819877
1.50655;0.81988
1.50652;0.819876
1.50647;0.81987
1.5065;0.819871
1.50651;0.819851
1.50649;0.81985
1.50645;0.819866
1.50639;0.819874
1.50632;0.819872
1.50631;0.819872
1.50633;0.819864
1.50634;0.819852
1.50631;0.819846
1.50625;0.819845
1.50623;0.81985
1.50615;0.819865
1.50605;0.819869
1.50599;0.819862
1.5059;0.819849
1.50581;0.81984
1.50575;0.819824
1.50573;0.819833
1.50568;0.81984
1.50564;0.81985
1.50558;0.819855
1.50549;0.819858
1.50547;0.819861
1.50544;0.819869
1.50542;0.819882
1.50536;0.819893
1.50532;0.819902
1.50527;0.819924
1.50524;0.819927
1.50523;0.819926
1.50522;0.819926
1.50519;0.819929
1.50517;0.819928
1.50512;0.819926
1.5051;0.819936
1.50508;0.81994
1.50505;0.819942
1.50496;0.819941
1.50493;0.819943
1.50489;0.819949
1.50487;0.819971
1.50484;0.819983
1.50481;0.819978
1.50482;0.819973
1.50479;0.819978
1.50474;0.819982
1.5047;0.819981
1.50465;0.819986
1.50462;0.81998
1.50456;0.819968
1.50455;0.819978
1.50455;0.819994
1.50456;0.820005
1.50456;0.82001
1.50458;0.820019
1.50462;0.820035
1.50465;0.820039
1.50465;0.820043
1.50465;0.820044
1.50467;0.820045
1.50469;0.82004
1.5047;0.820032
1.50472;0.820026
1.50472;0.820021
1.50472;0.820019
1.50472;0.820024
1.50473;0.820021
1.5048;0.819996
1.50482;0.819986
1.50485;0.819973
1.50493;0.819976
1.50501;0.819989
1.50502;0.819993
1.50499;0.820001
1.50499;0.820001
1.50502;0.819998
1.50504;0.820001
1.5051;0.820015
1.5051;0.820024
1.50512;0.820025
1.50517;0.820018
1.5052;0.820018
1.50525;0.819996
1.50531;0.819978
1.50532;0.819977
1.50534;0.819985
1.50535;0.820013
1.50536;0.820009
1.50539;0.820003
1.50537;0.820008
1.50535;0.820011
1.50533;0.820014
1.50532;0.82002
1.50531;0.820021
1.50531;0.820031
1.50527;0.820043
1.50524;0.820045
1.50521;0.820053
1.5052;0.820043
1.50518;0.820049
1.50513;0.820041
1.50507;0.820046
1.50504;0.820052
1.50502;0.820058
1.50501;0.820065
1.50499;0.820076
1.50497;0.820096
1.50492;0.820103
1.5049;0.820104
1.50486;0.820098
1.50482;0.820097
1.5048;0.820112
1.5048;0.82012
1.5048;0.820126
1.50478;0.820121
1.50475;0.820126
1.50473;0.82013
1.50475;0.820127
1.50476;0.820131
1.50478;0.820124
1.5048;0.82011
1.50479;0.820109
1.50476;0.820118
1.50476;0.820119
1.50476;0.82013
1.50475;0.820139
1.50474;0.820146
1.50473;0.820148
1.50471;0.820157
1.50469;0.820152
1.50462;0.820133
1.50455;0.820113
1.50454;0.820111
1.50452;0.820112
1.50451;0.820112
1.50448;0.820111
1.50446;0.820116
1.50444;0.820118
1.50442;0.820117
1.5044;0.820127
1.50439;0.820137
1.50441;0.820131
1.50441;0.820134
1.50439;0.820128
1.50435;0.820122
1.50432;0.820115
1.50431;0.820113
1.5043;0.82011
1.5043;0.82011
1.50433;0.820114
1.50435;0.820115
1.50442;0.820119
1.50443;0.820124
1.50442;0.820125
1.50442;0.820141
1.50441;0.820136
1.50443;0.820136
1.50444;0.82014
1.50444;0.820146
1.50445;0.820158
1.50446;0.820156
1.50445;0.820146
1.50447;0.820134
1.50447;0.820133
1.5045;0.820133
1.5045;0.820138
1.50453;0.820135
1.50455;0.820138
1.50456;0.820138
1.50462;0.820145
1.50463;0.820147
1.50463;0.820145
1.50465;0.820126
1.50468;0.820116
1.50471;0.820105
1.50477;0.820086
1.50479;0.820078
1.50485;0.820061
1.50482;0.820062
1.50479;0.820068
1.50478;0.820068
1.50476;0.82007
1.50474;0.820076
1.5047;0.820077
1.50467;0.820082
1.50457;0.820092
1.50452;0.820085
1.50444;0.820074
1.50443;0.820082
1.5044;0.820085
1.50439;0.820092
1.50435;0.820093
1.50434;0.820099
1.5043;0.820097
1.50427;0.820088
1.50422;0.820092
1.50415;0.820099
1.5041;0.8201
1.50404;0.820113
1.50401;0.820118
1.50398;0.820117
1.50394;0.820118
1.50395;0.820095
