-7.36132e-05;0.00311521
-1.14678e-05;0.007442
0.000292675;0.0165639
0.000933336;0.025403
0.00141463;0.0298023
0.00265876;0.0385667
0.00426362;0.0472791
0.00621764;0.0559601
0.00856145;0.0645996
0.0112456;0.0731857
0.014265;0.0817191
0.0158863;0.0859359
0.0193657;0.0943348
0.0231098;0.102698
0.0270587;0.110979
0.0313183;0.119213
0.035791;0.127335
0.0404755;0.135377
0.0428936;0.139366
0.0478878;0.147295
0.0530631;0.15516
0.0584105;0.162946
0.0639162;0.170661
0.069573;0.17831
0.0724556;0.182101
0.078298;0.189627
0.0842639;0.197107
0.0903751;0.20451
0.0965971;0.211837
0.102931;0.219104
0.109321;0.226321
0.112551;0.2299
0.119111;0.23703
0.125761;0.244101
0.132489;0.251087
0.139272;0.25805
0.146131;0.264945
0.149603;0.268368
0.156586;0.275195
0.163597;0.281931
0.170694;0.28864
0.174246;0.291979
0.181405;0.298652
0.188643;0.305264
0.192262;0.308545
0.199568;0.315077
0.206923;0.321577
0.214328;0.328038
0.218032;0.331265
0.225492;0.337664
0.23298;0.344035
0.240517;0.35037
0.248084;0.356665
0.255664;0.362914
0.259469;0.366034
0.267121;0.372239
0.274792;0.378426
0.282505;0.384572
0.290238;0.390675
0.294133;0.39372
0.301899;0.399771
0.309715;0.405799
0.313617;0.408788
0.321457;0.414742
0.32539;0.417722
0.333276;0.423643
0.337234;0.426597
0.345136;0.432477
0.353078;0.438316
0.357055;0.441231
0.365021;0.447047
0.369011;0.449921
0.37706;0.455669
0.381073;0.458528
0.38914;0.464245
0.393184;0.467093
0.401263;0.472762
0.405302;0.475583
0.413447;0.4812
0.417508;0.484004
0.421579;0.486769
0.42976;0.492314
0.437949;0.497808
0.442041;0.500544
0.446151;0.503276
0.454391;0.508733
0.462641;0.514131
0.466775;0.516822
0.475065;0.522172
0.47921;0.524837
0.483374;0.527496
0.491694;0.532788
0.500056;0.53805
0.504243;0.540668
0.508437;0.543274
0.516817;0.548456
0.521014;0.551042
0.529448;0.556187
0.533679;0.558746
0.542142;0.563826
0.546389;0.566351
0.554871;0.571403
0.559103;0.573916
0.567611;0.578926
0.57188;0.581415
0.58041;0.586359
0.588968;0.591282
0.593257;0.593723
0.60185;0.598579
0.606139;0.600995
0.614746;0.605789
0.619072;0.608178
0.6277;0.612936
0.632023;0.615296
0.640703;0.61998
0.649377;0.624645
0.65374;0.626964
0.662464;0.631556
0.666826;0.633829
0.675584;0.638371
0.679964;0.640621
0.688736;0.645113
0.697536;0.649548
0.706342;0.653959
0.715163;0.658318
0.719577;0.660464
0.728436;0.664758
0.737313;0.66902
0.746222;0.673239
0.750679;0.675342
0.759605;0.679509
0.768526;0.68363
0.777495;0.687709
0.781977;0.68972
0.790965;0.693729
0.79998;0.697705
0.809017;0.701607
0.818073;0.705482
0.822598;0.707419
0.831678;0.711228
0.840763;0.715033
0.845322;0.71691
0.854421;0.720578
0.858973;0.722397
0.868113;0.725997
0.877265;0.729548
0.886455;0.733045
0.895645;0.736475
0.90485;0.739874
0.909471;0.741539
0.918706;0.744861
0.927963;0.748081
0.9326;0.74968
0.941897;0.75284
0.951193;0.755957
0.960512;0.759011
0.96986;0.762018
0.97453;0.763487
0.983883;0.766422
0.993272;0.769308
1.00267;0.772109
1.00737;0.773483
1.01679;0.77621
1.02623;0.778868
1.03567;0.781456
1.04514;0.784007
1.05463;0.786483
1.05937;0.787705
1.06889;0.790086
1.07841;0.792414
1.08794;0.79468
1.09271;0.795802
1.10227;0.797972
1.11185;0.800071
1.12143;0.80212
1.12623;0.803132
1.1358;0.805068
1.14539;0.806968
1.15019;0.807873
1.15978;0.809644
1.16938;0.811329
1.179;0.812946
1.18382;0.813708
1.19346;0.815208
1.2031;0.816608
1.21274;0.817932
1.22237;0.819162
1.2272;0.819756
1.23686;0.82085
1.24653;0.821878
1.2562;0.822824
1.26589;0.823642
1.27075;0.824018
1.28045;0.824714
1.29016;0.825316
1.2999;0.825842
1.30476;0.826075
1.31451;0.826485
1.32427;0.826805
1.33401;0.827017
1.34376;0.827145
1.34864;0.827185
1.35835;0.82722
1.36811;0.827146
1.37779;0.826993
1.38259;0.826893
1.39185;0.826654
1.40053;0.826373
1.40874;0.826055
1.41272;0.82589
1.42014;0.825551
1.42716;0.825194
1.43349;0.824857
1.43935;0.82452
1.44215;0.824358
1.44737;0.82403
1.45208;0.823734
1.45646;0.823446
1.45857;0.823303
1.46234;0.823034
1.46584;0.822799
1.46909;0.822563
1.4721;0.822321
1.47355;0.822217
1.47624;0.822034
1.47866;0.821843
1.48091;0.821666
1.48301;0.821501
1.48398;0.821426
1.48573;0.821283
1.4873;0.821149
1.48874;0.821019
1.48944;0.820965
1.49073;0.820865
1.4919;0.820776
1.49302;0.820699
1.49409;0.820618
1.49462;0.820576
1.4956;0.8205
1.49645;0.820433
1.49723;0.82037
1.4976;0.820336
1.49829;0.820281
1.4989;0.820223
1.49949;0.820166
1.50004;0.820129
1.50032;0.820102
1.50087;0.82006
1.50133;0.820022
1.50177;0.819991
1.50199;0.819989
1.50236;0.81997
1.50271;0.819942
1.50303;0.819913
1.5033;0.819887
1.50348;0.819874
1.50381;0.819842
1.50406;0.819826
1.50425;0.819806
1.50433;0.819797
1.50449;0.819793
1.50463;0.819785
1.50477;0.819781
1.5049;0.81978
1.50495;0.819774
1.50506;0.819769
1.50515;0.81975
1.50526;0.819728
1.50532;0.819726
1.50543;0.81972
1.50553;0.819713
1.50563;0.819704
1.50568;0.819704
1.50583;0.819682
1.50598;0.81966
1.50603;0.819648
1.50608;0.819643
1.50613;0.819637
1.50617;0.819632
1.50622;0.819626
1.50625;0.819626
1.50628;0.819616
1.50631;0.819609
1.50632;0.819605
1.50634;0.819594
1.50636;0.819582
1.50638;0.819571
1.50641;0.819561
1.5064;0.819544
1.50642;0.81954
1.50647;0.819526
1.50649;0.819525
1.50655;0.819529
1.50659;0.819525
1.50664;0.81952
1.50665;0.819532
1.5067;0.819531
1.50673;0.819524
1.50678;0.819521
1.50684;0.819512
1.50688;0.819512
1.50691;0.819512
1.50695;0.819504
1.50696;0.819511
1.50698;0.819521
1.50698;0.819518
1.50698;0.819513
1.50698;0.819522
1.50697;0.81952
1.50695;0.819521
1.50696;0.819519
1.50699;0.819609
1.50699;0.819618
1.50698;0.819617
1.50697;0.819615
1.50697;0.819615
1.50694;0.819608
1.50693;0.819613
1.50691;0.819615
1.50693;0.819608
1.50697;0.819609
1.50696;0.819603
1.50695;0.819604
1.50694;0.819609
1.5069;0.819616
1.50682;0.819616
1.50679;0.81962
1.5067;0.819637
1.50664;0.819655
1.50658;0.819669
1.50656;0.819668
1.50648;0.819687
1.50638;0.819688
1.50633;0.819684
1.50633;0.81967
1.50628;0.819674
1.50622;0.819678
1.50616;0.819702
1.50612;0.819695
1.50608;0.819692
1.506;0.819688
1.5059;0.819676
1.5058;0.819668
1.50575;0.819662
1.50567;0.819652
1.50558;0.819636
1.50552;0.819625
1.5055;0.819636
1.50542;0.819645
1.50533;0.819641
1.50526;0.819644
1.50525;0.819654
1.50524;0.819664
1.50522;0.819667
1.50519;0.819666
1.50512;0.819659
1.50508;0.819664
1.50508;0.819667
1.50505;0.819666
1.50503;0.819671
1.50499;0.819679
1.50497;0.81969
1.50494;0.8197
1.50491;0.819709
1.50491;0.819717
1.50487;0.819718
1.50485;0.819724
1.50484;0.819741
1.50481;0.819744
1.50482;0.819741
1.50481;0.819753
1.5048;0.819761
1.50477;0.819767
1.50476;0.819768
1.50469;0.819755
1.50462;0.819742
1.50457;0.819757
1.50455;0.819764
1.50453;0.819762
1.50449;0.819765
1.50449;0.819762
1.50446;0.81977
1.50443;0.819788
1.50442;0.819802
1.50442;0.819801
1.50439;0.819809
1.50439;0.81981
1.50437;0.819815
1.50437;0.819834
1.50436;0.819823
1.50439;0.819822
1.50441;0.819834
1.50442;0.819841
1.50442;0.819856
1.5044;0.819864
1.50437;0.819876
1.50432;0.819869
1.50429;0.819867
1.50426;0.819864
1.50425;0.819874
1.50424;0.81988
1.50424;0.819889
1.50419;0.819891
1.50416;0.819899
1.50414;0.819903
1.50408;0.8199
1.50403;0.819894
1.50402;0.8199
1.50403;0.819914
1.50404;0.819937
1.50402;0.819943
1.50402;0.819943
1.50401;0.819942
1.50398;0.819945
1.50395;0.819952
1.50392;0.81996
1.50393;0.819964
1.50393;0.819971
1.50387;0.819989
1.5038;0.819994
1.50384;0.819986
1.50384;0.819993
1.50382;0.820001
1.50378;0.820009
