0.000000;0.500000
0.000000;0.500000
0.000000;0.500000
0.000000;0.500000
0.000000;0.500000
0.000000;0.500000
0.000000;0.500000
0.000000;0.500000
0.000000;0.500000
0.000000;0.500000
0.000000;0.500000
0.015000;0.500000
0.030000;0.500000
0.045000;0.500000
0.060000;0.500000
0.075000;0.500000
0.090000;0.500000
0.105000;0.500000
0.120000;0.500000
0.135000;0.500000
0.150000;0.500000
0.165000;0.500000
0.180000;0.500000
0.195000;0.500000
0.210000;0.500000
0.225000;0.500000
0.240000;0.500000
0.255000;0.500000
0.270000;0.500000
0.285000;0.500000
0.300000;0.500000
0.315000;0.500000
0.330000;0.500000
0.345000;0.500000
0.360000;0.500000
0.375000;0.500000
0.390000;0.500000
0.405000;0.500000
0.420000;0.500000
0.435000;0.500000
0.450000;0.500000
0.465000;0.500000
0.480000;0.500000
0.495000;0.500000
0.510000;0.500000
0.525000;0.500000
0.540000;0.500000
0.555000;0.500000
0.570000;0.500000
0.585000;0.500000
0.600000;0.500000
0.615000;0.500000
0.630000;0.500000
0.645000;0.500000
0.660000;0.500000
0.675000;0.500000
0.690000;0.500000
0.705000;0.500000
0.720000;0.500000
0.735000;0.500000
0.750000;0.500000
0.750000;0.500000
0.750000;0.500000
0.750000;0.500000
0.750000;0.500000
0.750000;0.500000
0.750000;0.500000
0.750000;0.500000
0.750000;0.500000
0.750000;0.500000
0.750000;0.500000
0.750444;0.515691
0.751872;0.531324
0.754279;0.546835
0.757655;0.562165
0.761987;0.577253
0.767258;0.592039
0.773447;0.606465
0.780529;0.620474
0.788478;0.634011
0.797260;0.647021
0.806842;0.659455
0.817186;0.671262
0.828251;0.682397
0.839993;0.692815
0.852366;0.702475
0.865321;0.711339
0.878808;0.719372
0.892772;0.726542
0.907158;0.732822
0.921911;0.738185
0.936971;0.742612
0.952280;0.746084
0.967776;0.748589
0.983399;0.750115
0.999087;0.750657
1.014779;0.750214
1.030411;0.748786
1.045923;0.746379
1.061253;0.743002
1.076341;0.738670
1.091127;0.733399
1.105553;0.727211
1.119562;0.720128
1.133098;0.712180
1.146109;0.703397
1.158542;0.693815
1.170350;0.683472
1.181484;0.672407
1.191902;0.660665
1.201562;0.648291
1.210426;0.635336
1.218459;0.621850
1.225630;0.607886
1.231909;0.593499
1.237273;0.578746
1.241699;0.563686
1.245172;0.548378
1.247676;0.532881
1.249203;0.517258
1.249745;0.501570
1.249745;0.501570
1.249745;0.501570
1.249745;0.501570
1.249745;0.501570
1.249745;0.501570
1.249745;0.501570
1.249745;0.501570
1.249745;0.501570
1.249745;0.501570
1.249745;0.501570
1.264745;0.501570
1.279745;0.501570
1.294745;0.501570
1.309745;0.501570
1.324745;0.501570
1.339745;0.501570
1.354745;0.501570
1.369745;0.501570
1.384745;0.501570
1.399745;0.501570
1.414745;0.501570
1.429745;0.501570
1.444745;0.501570
1.459745;0.501570
1.474745;0.501570
1.489745;0.501570
1.504745;0.501570
